\relax 
\providecommand\hyper@newdestlabel[2]{}
\providecommand\HyperFirstAtBeginDocument{\AtBeginDocument}
\HyperFirstAtBeginDocument{\ifx\hyper@anchor\@undefined
\global\let\oldcontentsline\contentsline
\gdef\contentsline#1#2#3#4{\oldcontentsline{#1}{#2}{#3}}
\global\let\oldnewlabel\newlabel
\gdef\newlabel#1#2{\newlabelxx{#1}#2}
\gdef\newlabelxx#1#2#3#4#5#6{\oldnewlabel{#1}{{#2}{#3}}}
\AtEndDocument{\ifx\hyper@anchor\@undefined
\let\contentsline\oldcontentsline
\let\newlabel\oldnewlabel
\fi}
\fi}
\global\let\hyper@last\relax 
\gdef\HyperFirstAtBeginDocument#1{#1}
\providecommand\HyField@AuxAddToFields[1]{}
\providecommand\HyField@AuxAddToCoFields[2]{}
\bibstyle{dcu}
\citation{stats1}
\@writefile{toc}{\contentsline {section}{\numberline {1}Introduction}{1}{section.1}\protected@file@percent }
\newlabel{sec:introduction}{{1}{1}{Introduction}{section.1}{}}
\citation{aidan2}
\citation{aidan1}
\citation{aidan2}
\@writefile{toc}{\contentsline {subsection}{\numberline {1.1}Social Protection}{2}{subsection.1.1}\protected@file@percent }
\newlabel{sec:soc_p}{{1.1}{2}{Social Protection}{subsection.1.1}{}}
\@writefile{toc}{\contentsline {subsection}{\numberline {1.2}Education}{2}{subsection.1.2}\protected@file@percent }
\@writefile{toc}{\contentsline {subsection}{\numberline {1.3}Healthcare}{2}{subsection.1.3}\protected@file@percent }
\@writefile{toc}{\contentsline {subsection}{\numberline {1.4}Objectives}{2}{subsection.1.4}\protected@file@percent }
\@writefile{toc}{\contentsline {subsubsection}{\numberline {1.4.1}Social Protection}{2}{subsubsection.1.4.1}\protected@file@percent }
\@writefile{toc}{\contentsline {subsubsection}{\numberline {1.4.2}Education}{2}{subsubsection.1.4.2}\protected@file@percent }
\@writefile{toc}{\contentsline {subsubsection}{\numberline {1.4.3}Healthcare - Primary Care}{2}{subsubsection.1.4.3}\protected@file@percent }
\citation{aidan3}
\citation{aidan3}
\citation{aidan4}
\citation{aidan5}
\citation{aidan6}
\citation{aidan7}
\@writefile{lof}{\contentsline {figure}{\numberline {1}{\ignorespaces \relax }}{3}{figure.caption.1}\protected@file@percent }
\@writefile{lof}{\contentsline {subfigure}{\numberline{(a)}{\ignorespaces {}}}{3}{subfigure.1.1}\protected@file@percent }
\@writefile{lof}{\contentsline {subfigure}{\numberline{(b)}{\ignorespaces {}}}{3}{subfigure.1.2}\protected@file@percent }
\citation{wirth2000}
\citation{chapman2000}
\citation{schroer2021}
\citation{wirth2000}
\citation{chapman2000}
\citation{schroer2021}
\@writefile{toc}{\contentsline {subsubsection}{\numberline {1.4.4}Healthcare - End of Life Care}{4}{subsubsection.1.4.4}\protected@file@percent }
\citation{chu2016}
\citation{hellerstein2008}
\citation{chu2016}
\citation{li2014}
\citation{national2010}
\citation{yang2020}
\citation{li2009}
\@writefile{toc}{\contentsline {section}{\numberline {2}Theory}{5}{section.2}\protected@file@percent }
\newlabel{sec:theory}{{2}{5}{Theory}{section.2}{}}
\@writefile{toc}{\contentsline {subsection}{\numberline {2.1}Project Management - CRISP-DM}{5}{subsection.2.1}\protected@file@percent }
\@writefile{lot}{\contentsline {table}{\numberline {1}{\ignorespaces Description of the CRISP-DM project management framework. \cite {wirth2000},\cite {chapman2000} in \cite {schroer2021}\relax }}{5}{table.caption.2}\protected@file@percent }
\providecommand*\caption@xref[2]{\@setref\relax\@undefined{#1}}
\newlabel{tab:crisp}{{1}{5}{Description of the CRISP-DM project management framework. \cite {wirth2000},\cite {chapman2000} in \cite {schroer2021}\relax }{table.caption.2}{}}
\citation{hastie2009}
\citation{alpaydin2020}
\citation{alpaydin2020}
\@writefile{toc}{\contentsline {subsection}{\numberline {2.2}Data Preparation}{6}{subsection.2.2}\protected@file@percent }
\@writefile{toc}{\contentsline {subsection}{\numberline {2.3}Machine Learning}{6}{subsection.2.3}\protected@file@percent }
\@writefile{toc}{\contentsline {subsection}{\numberline {2.4}Statistics}{6}{subsection.2.4}\protected@file@percent }
\@writefile{toc}{\contentsline {subsubsection}{\numberline {2.4.1}Descriptive Statistics:}{6}{subsubsection.2.4.1}\protected@file@percent }
\@writefile{toc}{\contentsline {subsubsection}{\numberline {2.4.2}Measures of Frequency:}{7}{subsubsection.2.4.2}\protected@file@percent }
\@writefile{lof}{\contentsline {figure}{\numberline {2}{\ignorespaces \relax }}{7}{figure.caption.3}\protected@file@percent }
\@writefile{lof}{\contentsline {figure}{\numberline {3}{\ignorespaces \relax }}{8}{figure.caption.4}\protected@file@percent }
\@writefile{toc}{\contentsline {subsubsection}{\numberline {2.4.3}Measures of Central Tendency: Mean Median and Mode}{8}{subsubsection.2.4.3}\protected@file@percent }
\@writefile{lof}{\contentsline {figure}{\numberline {4}{\ignorespaces \relax }}{9}{figure.caption.5}\protected@file@percent }
\@writefile{toc}{\contentsline {subsubsection}{\numberline {2.4.4}Measures of Dispersion}{9}{subsubsection.2.4.4}\protected@file@percent }
\citation{tufte2001}
\@writefile{lof}{\contentsline {figure}{\numberline {5}{\ignorespaces \relax }}{10}{figure.caption.6}\protected@file@percent }
\@writefile{lof}{\contentsline {figure}{\numberline {6}{\ignorespaces Infant mortality rate over time (percentage of total births). Source: Births Deaths Marriages Ireland $1960$ - $2021$.\relax }}{10}{figure.caption.7}\protected@file@percent }
\newlabel{fig:bdm_inf_mort}{{6}{10}{Infant mortality rate over time (percentage of total births). Source: Births Deaths Marriages Ireland $1960$ - $2021$.\relax }{figure.caption.7}{}}
\@writefile{toc}{\contentsline {subsection}{\numberline {2.5}Data Visualisation}{10}{subsection.2.5}\protected@file@percent }
\citation{maternity}
\citation{maternity3}
\citation{stats1}
\citation{stats2}
\citation{pedregosa2011}
\citation{hunter2007}
\citation{harris2020}
\citation{mckinney2010}
\citation{seabold2010}
\citation{benvenuto2020}
\@writefile{toc}{\contentsline {subsection}{\numberline {2.6}Data Sources}{11}{subsection.2.6}\protected@file@percent }
\@writefile{toc}{\contentsline {section}{\numberline {3}Method}{11}{section.3}\protected@file@percent }
\newlabel{sec:method}{{3}{11}{Method}{section.3}{}}
\@writefile{toc}{\contentsline {subsection}{\numberline {3.1}Healthcare – Primary Care}{11}{subsection.3.1}\protected@file@percent }
\@writefile{toc}{\contentsline {subsection}{\numberline {3.2}Healthcare - End of Life Care}{12}{subsection.3.2}\protected@file@percent }
\@writefile{toc}{\contentsline {subsubsection}{\numberline {3.2.1}Data Preparation and Cleaning}{12}{subsubsection.3.2.1}\protected@file@percent }
\@writefile{lof}{\contentsline {figure}{\numberline {7}{\ignorespaces \relax }}{12}{figure.caption.8}\protected@file@percent }
\@writefile{lof}{\contentsline {figure}{\numberline {8}{\ignorespaces \relax }}{13}{figure.caption.9}\protected@file@percent }
\@writefile{lof}{\contentsline {figure}{\numberline {9}{\ignorespaces \relax }}{13}{figure.caption.10}\protected@file@percent }
\@writefile{lof}{\contentsline {figure}{\numberline {10}{\ignorespaces \relax }}{13}{figure.caption.11}\protected@file@percent }
\@writefile{lof}{\contentsline {figure}{\numberline {11}{\ignorespaces \relax }}{14}{figure.caption.12}\protected@file@percent }
\@writefile{toc}{\contentsline {subsubsection}{\numberline {3.2.2}Identify Columns that contain a single value}{14}{subsubsection.3.2.2}\protected@file@percent }
\@writefile{lof}{\contentsline {figure}{\numberline {12}{\ignorespaces \relax }}{14}{figure.caption.13}\protected@file@percent }
\@writefile{lof}{\contentsline {figure}{\numberline {13}{\ignorespaces \relax }}{14}{figure.caption.14}\protected@file@percent }
\@writefile{toc}{\contentsline {subsubsection}{\numberline {3.2.3}Data Visualisation}{15}{subsubsection.3.2.3}\protected@file@percent }
\@writefile{lof}{\contentsline {figure}{\numberline {14}{\ignorespaces \relax }}{15}{figure.caption.15}\protected@file@percent }
\@writefile{lof}{\contentsline {figure}{\numberline {15}{\ignorespaces \relax }}{16}{figure.caption.16}\protected@file@percent }
\@writefile{lof}{\contentsline {figure}{\numberline {16}{\ignorespaces \relax }}{16}{figure.caption.17}\protected@file@percent }
\citation{brownlee2020}
\@writefile{lof}{\contentsline {figure}{\numberline {17}{\ignorespaces \relax }}{17}{figure.caption.18}\protected@file@percent }
\@writefile{toc}{\contentsline {subsubsection}{\numberline {3.2.4}Data transformation}{17}{subsubsection.3.2.4}\protected@file@percent }
\@writefile{lof}{\contentsline {figure}{\numberline {18}{\ignorespaces \relax }}{18}{figure.caption.19}\protected@file@percent }
\@writefile{lof}{\contentsline {figure}{\numberline {19}{\ignorespaces \relax }}{18}{figure.caption.20}\protected@file@percent }
\@writefile{lof}{\contentsline {figure}{\numberline {20}{\ignorespaces \relax }}{18}{figure.caption.21}\protected@file@percent }
\citation{geron2019}
\citation{anova}
\@writefile{lof}{\contentsline {figure}{\numberline {21}{\ignorespaces \relax }}{19}{figure.caption.22}\protected@file@percent }
\@writefile{toc}{\contentsline {subsubsection}{\numberline {3.2.5}Machine Learning}{19}{subsubsection.3.2.5}\protected@file@percent }
\citation{mygreat}
\@writefile{toc}{\contentsline {subsubsection}{\numberline {3.2.6}Feature selection }{20}{subsubsection.3.2.6}\protected@file@percent }
\@writefile{lof}{\contentsline {figure}{\numberline {22}{\ignorespaces \relax }}{20}{figure.caption.23}\protected@file@percent }
\@writefile{toc}{\contentsline {subsubsection}{\numberline {3.2.7}Label Encoding}{20}{subsubsection.3.2.7}\protected@file@percent }
\citation{scikit}
\@writefile{lof}{\contentsline {figure}{\numberline {23}{\ignorespaces \relax }}{21}{figure.caption.24}\protected@file@percent }
\@writefile{toc}{\contentsline {subsubsection}{\numberline {3.2.8}Linear regression}{21}{subsubsection.3.2.8}\protected@file@percent }
\@writefile{toc}{\contentsline {subsubsection}{\numberline {3.2.9}Model building}{21}{subsubsection.3.2.9}\protected@file@percent }
\@writefile{toc}{\contentsline {subsection}{\numberline {3.3}Education}{22}{subsection.3.3}\protected@file@percent }
\@writefile{toc}{\contentsline {subsubsection}{\numberline {3.3.1}EDA on Given Datasets}{22}{subsubsection.3.3.1}\protected@file@percent }
\@writefile{lof}{\contentsline {figure}{\numberline {24}{\ignorespaces \relax }}{22}{figure.caption.25}\protected@file@percent }
\@writefile{lof}{\contentsline {figure}{\numberline {25}{\ignorespaces \relax }}{23}{figure.caption.26}\protected@file@percent }
\@writefile{lof}{\contentsline {figure}{\numberline {26}{\ignorespaces \relax }}{23}{figure.caption.27}\protected@file@percent }
\@writefile{toc}{\contentsline {subsubsection}{\numberline {3.3.2}Machine learning using the derived dataset:}{24}{subsubsection.3.3.2}\protected@file@percent }
\@writefile{lof}{\contentsline {figure}{\numberline {27}{\ignorespaces \relax }}{24}{figure.caption.28}\protected@file@percent }
\@writefile{lof}{\contentsline {figure}{\numberline {28}{\ignorespaces \relax }}{25}{figure.caption.29}\protected@file@percent }
\@writefile{lof}{\contentsline {figure}{\numberline {29}{\ignorespaces \relax }}{25}{figure.caption.30}\protected@file@percent }
\@writefile{lof}{\contentsline {figure}{\numberline {30}{\ignorespaces \relax }}{25}{figure.caption.31}\protected@file@percent }
\@writefile{lof}{\contentsline {figure}{\numberline {31}{\ignorespaces \relax }}{26}{figure.caption.32}\protected@file@percent }
\@writefile{lof}{\contentsline {figure}{\numberline {32}{\ignorespaces \relax }}{27}{figure.caption.33}\protected@file@percent }
\@writefile{lof}{\contentsline {figure}{\numberline {33}{\ignorespaces \relax }}{27}{figure.caption.34}\protected@file@percent }
\@writefile{toc}{\contentsline {subsubsection}{\numberline {3.3.3}Future predictions based on the above trained dataset:}{27}{subsubsection.3.3.3}\protected@file@percent }
\@writefile{lof}{\contentsline {figure}{\numberline {34}{\ignorespaces \relax }}{28}{figure.caption.35}\protected@file@percent }
\@writefile{lof}{\contentsline {figure}{\numberline {35}{\ignorespaces \relax }}{28}{figure.caption.36}\protected@file@percent }
\@writefile{lof}{\contentsline {figure}{\numberline {36}{\ignorespaces \relax }}{29}{figure.caption.37}\protected@file@percent }
\@writefile{lof}{\contentsline {figure}{\numberline {37}{\ignorespaces \relax }}{30}{figure.caption.38}\protected@file@percent }
\@writefile{toc}{\contentsline {subsubsection}{\numberline {3.3.4}EDA on the second Dataset: Deaths\_Region\_$2007$-$2020$}{31}{subsubsection.3.3.4}\protected@file@percent }
\@writefile{lof}{\contentsline {figure}{\numberline {38}{\ignorespaces \relax }}{31}{figure.caption.39}\protected@file@percent }
\@writefile{lof}{\contentsline {figure}{\numberline {39}{\ignorespaces \relax }}{31}{figure.caption.40}\protected@file@percent }
\@writefile{lof}{\contentsline {figure}{\numberline {40}{\ignorespaces \relax }}{32}{figure.caption.41}\protected@file@percent }
\@writefile{lof}{\contentsline {figure}{\numberline {41}{\ignorespaces \relax }}{33}{figure.caption.42}\protected@file@percent }
\@writefile{lof}{\contentsline {figure}{\numberline {42}{\ignorespaces \relax }}{33}{figure.caption.43}\protected@file@percent }
\@writefile{toc}{\contentsline {subsubsection}{\numberline {3.3.5}Rearranging the data frame and Reducing the rows with highest values}{33}{subsubsection.3.3.5}\protected@file@percent }
\@writefile{lof}{\contentsline {figure}{\numberline {43}{\ignorespaces \relax }}{34}{figure.caption.44}\protected@file@percent }
\@writefile{lof}{\contentsline {figure}{\numberline {44}{\ignorespaces \relax }}{35}{figure.caption.45}\protected@file@percent }
\@writefile{lof}{\contentsline {figure}{\numberline {45}{\ignorespaces \relax }}{35}{figure.caption.46}\protected@file@percent }
\@writefile{toc}{\contentsline {subsubsection}{\numberline {3.3.6}Reducing the data by filtering selected rows(Areas/Counties) based on External Dataset}{36}{subsubsection.3.3.6}\protected@file@percent }
\@writefile{lof}{\contentsline {figure}{\numberline {46}{\ignorespaces \relax }}{36}{figure.caption.47}\protected@file@percent }
\@writefile{lof}{\contentsline {figure}{\numberline {47}{\ignorespaces \relax }}{37}{figure.caption.48}\protected@file@percent }
\@writefile{lof}{\contentsline {figure}{\numberline {48}{\ignorespaces \relax }}{38}{figure.caption.49}\protected@file@percent }
\@writefile{lof}{\contentsline {figure}{\numberline {49}{\ignorespaces \relax }}{39}{figure.caption.50}\protected@file@percent }
\@writefile{toc}{\contentsline {subsubsection}{\numberline {3.3.7}Machine Learning:}{39}{subsubsection.3.3.7}\protected@file@percent }
\@writefile{lof}{\contentsline {figure}{\numberline {50}{\ignorespaces \relax }}{40}{figure.caption.51}\protected@file@percent }
\@writefile{lof}{\contentsline {figure}{\numberline {51}{\ignorespaces \relax }}{40}{figure.caption.52}\protected@file@percent }
\@writefile{lof}{\contentsline {figure}{\numberline {52}{\ignorespaces \relax }}{41}{figure.caption.53}\protected@file@percent }
\@writefile{lof}{\contentsline {figure}{\numberline {53}{\ignorespaces \relax }}{41}{figure.caption.54}\protected@file@percent }
\@writefile{lof}{\contentsline {figure}{\numberline {54}{\ignorespaces \relax }}{42}{figure.caption.55}\protected@file@percent }
\@writefile{toc}{\contentsline {subsection}{\numberline {3.4}Social Protection}{42}{subsection.3.4}\protected@file@percent }
\@writefile{toc}{\contentsline {subsubsection}{\numberline {3.4.1}Data Prep. \& E.D.A.}{42}{subsubsection.3.4.1}\protected@file@percent }
\newlabel{lst:QtoY}{{1}{42}{Simple code to sum quarterly observations into yearly}{lstlisting.1}{}}
\@writefile{lol}{\contentsline {lstlisting}{\numberline {1}Simple code to sum quarterly observations into yearly.}{42}{lstlisting.1}\protected@file@percent }
\newlabel{fig:bdm_tot_births}{{55a}{43}{Subfigure 55a}{subfigure.55.1}{}}
\newlabel{sub@fig:bdm_tot_births}{{(a)}{a}{Subfigure 55a\relax }{subfigure.55.1}{}}
\newlabel{fig:bdm_rate_births}{{55b}{43}{Subfigure 55b}{subfigure.55.2}{}}
\newlabel{sub@fig:bdm_rate_births}{{(b)}{b}{Subfigure 55b\relax }{subfigure.55.2}{}}
\@writefile{lof}{\contentsline {figure}{\numberline {55}{\ignorespaces Total births over time.\relax }}{43}{figure.caption.56}\protected@file@percent }
\newlabel{fig:tot_births_line}{{55}{43}{Total births over time.\relax }{figure.caption.56}{}}
\@writefile{lof}{\contentsline {subfigure}{\numberline{(a)}{\ignorespaces {Total births over time. Source: Births Deaths Marriages Ireland $1960$ - $2021$}}}{43}{subfigure.55.1}\protected@file@percent }
\@writefile{lof}{\contentsline {subfigure}{\numberline{(b)}{\ignorespaces {Total births per $1000$ population over time. Source: Births Deaths Marriages Ireland $1960$ - $2021$}}}{43}{subfigure.55.2}\protected@file@percent }
\@writefile{toc}{\contentsline {subsubsection}{\numberline {3.4.2}Machine Learning Algorithm Testing}{44}{subsubsection.3.4.2}\protected@file@percent }
\@writefile{lof}{\contentsline {figure}{\numberline {56}{\ignorespaces Total births per quarter. Source: Births Deaths Marriages Ireland $1960$ - $2021$.\relax }}{44}{figure.caption.57}\protected@file@percent }
\newlabel{fig:bdm_tot_births_q}{{56}{44}{Total births per quarter. Source: Births Deaths Marriages Ireland $1960$ - $2021$.\relax }{figure.caption.57}{}}
\@writefile{toc}{\contentsline {subsubsection}{\numberline {3.4.3}Final Processing}{44}{subsubsection.3.4.3}\protected@file@percent }
\citation{maternity3}
\citation{maternity3}
\citation{maternity3}
\citation{maternity3}
\citation{maternity}
\citation{maternity}
\citation{maternity}
\citation{maternity}
\@writefile{toc}{\contentsline {subsubsection}{\numberline {3.4.4}Parental Benefit Analysis}{45}{subsubsection.3.4.4}\protected@file@percent }
\newlabel{fig:}{{57a}{45}{Subfigure 57a}{subfigure.57.1}{}}
\newlabel{sub@fig:}{{(a)}{a}{Subfigure 57a\relax }{subfigure.57.1}{}}
\newlabel{fig:}{{57b}{45}{Subfigure 57b}{subfigure.57.2}{}}
\newlabel{sub@fig:}{{(b)}{b}{Subfigure 57b\relax }{subfigure.57.2}{}}
\@writefile{lof}{\contentsline {figure}{\numberline {57}{\ignorespaces Total births over time.\relax }}{45}{figure.caption.58}\protected@file@percent }
\newlabel{fig:mat_ben_time}{{57}{45}{Total births over time.\relax }{figure.caption.58}{}}
\@writefile{lof}{\contentsline {subfigure}{\numberline{(a)}{\ignorespaces {Number of maternity benefit recipients over time. Source: Striking a Balance, The Reconciliation of Work and Family Life \cite {maternity3}}}}{45}{subfigure.57.1}\protected@file@percent }
\@writefile{lof}{\contentsline {subfigure}{\numberline{(b)}{\ignorespaces {Percentage of births where maternity benefit is claimed over time. Source: Births Deaths Marriages Ireland $1960$ - $2021$ \& Striking a Balance, The Reconciliation of Work and Family Life \cite {maternity3}}}}{45}{subfigure.57.2}\protected@file@percent }
\newlabel{fig:}{{58a}{46}{Subfigure 58a}{subfigure.58.1}{}}
\newlabel{sub@fig:}{{(a)}{a}{Subfigure 58a\relax }{subfigure.58.1}{}}
\newlabel{fig:}{{58b}{46}{Subfigure 58b}{subfigure.58.2}{}}
\newlabel{sub@fig:}{{(b)}{b}{Subfigure 58b\relax }{subfigure.58.2}{}}
\@writefile{lof}{\contentsline {figure}{\numberline {58}{\ignorespaces Total births over time.\relax }}{46}{figure.caption.59}\protected@file@percent }
\newlabel{fig:pat_ben_time}{{58}{46}{Total births over time.\relax }{figure.caption.59}{}}
\@writefile{lof}{\contentsline {subfigure}{\numberline{(a)}{\ignorespaces {Number of paternity benefit recipients over time. Source: Employment Analysis of Maternity and Paternity Benefits $2016$ - $2019$ \cite {maternity}}}}{46}{subfigure.58.1}\protected@file@percent }
\@writefile{lof}{\contentsline {subfigure}{\numberline{(b)}{\ignorespaces {Percentage of births where paternity benefit is claimed over time. Source: Employment Analysis of Maternity and Paternity Benefits $2016$ - $2019$ \cite {maternity}}}}{46}{subfigure.58.2}\protected@file@percent }
\@writefile{toc}{\contentsline {subsubsection}{\numberline {3.4.5}Child Benefit Analysis}{46}{subsubsection.3.4.5}\protected@file@percent }
\@writefile{toc}{\contentsline {section}{\numberline {4}Results}{47}{section.4}\protected@file@percent }
\newlabel{sec:results}{{4}{47}{Results}{section.4}{}}
\@writefile{toc}{\contentsline {subsection}{\numberline {4.1}Education}{47}{subsection.4.1}\protected@file@percent }
\@writefile{toc}{\contentsline {subsubsection}{\numberline {4.1.1}Model Accuracy:}{47}{subsubsection.4.1.1}\protected@file@percent }
\@writefile{toc}{\contentsline {subsubsection}{\numberline {4.1.2}Statistics on First level Education and predicted expenditure on School Education board}{47}{subsubsection.4.1.2}\protected@file@percent }
\@writefile{lof}{\contentsline {figure}{\numberline {59}{\ignorespaces \relax }}{48}{figure.caption.60}\protected@file@percent }
\newlabel{fig:sasi_36}{{59}{48}{\relax }{figure.caption.60}{}}
\@writefile{lof}{\contentsline {figure}{\numberline {60}{\ignorespaces \relax }}{48}{figure.caption.61}\protected@file@percent }
\newlabel{fig:sasi_37}{{60}{48}{\relax }{figure.caption.61}{}}
\@writefile{lof}{\contentsline {figure}{\numberline {61}{\ignorespaces \relax }}{49}{figure.caption.62}\protected@file@percent }
\newlabel{fig:sasi_38}{{61}{49}{\relax }{figure.caption.62}{}}
\@writefile{lof}{\contentsline {figure}{\numberline {62}{\ignorespaces \relax }}{49}{figure.caption.63}\protected@file@percent }
\newlabel{fig:sasi_39}{{62}{49}{\relax }{figure.caption.63}{}}
\@writefile{lof}{\contentsline {figure}{\numberline {63}{\ignorespaces \relax }}{50}{figure.caption.64}\protected@file@percent }
\newlabel{fig:sasi_40}{{63}{50}{\relax }{figure.caption.64}{}}
\@writefile{lof}{\contentsline {figure}{\numberline {64}{\ignorespaces Amount of students in first level education vs year from $2006$ to $2020$\relax }}{50}{figure.caption.65}\protected@file@percent }
\newlabel{fig:sasi_41}{{64}{50}{Amount of students in first level education vs year from $2006$ to $2020$\relax }{figure.caption.65}{}}
\@writefile{lof}{\contentsline {figure}{\numberline {65}{\ignorespaces \relax }}{51}{figure.caption.66}\protected@file@percent }
\newlabel{fig:sasi_42}{{65}{51}{\relax }{figure.caption.66}{}}
\@writefile{lof}{\contentsline {figure}{\numberline {66}{\ignorespaces \relax }}{52}{figure.caption.67}\protected@file@percent }
\newlabel{fig:sasi_43}{{66}{52}{\relax }{figure.caption.67}{}}
\@writefile{lof}{\contentsline {figure}{\numberline {67}{\ignorespaces \relax }}{53}{figure.caption.68}\protected@file@percent }
\newlabel{fig:sasi_44}{{67}{53}{\relax }{figure.caption.68}{}}
\@writefile{lof}{\contentsline {figure}{\numberline {68}{\ignorespaces \relax }}{53}{figure.caption.69}\protected@file@percent }
\newlabel{fig:sasi_45}{{68}{53}{\relax }{figure.caption.69}{}}
\@writefile{toc}{\contentsline {subsection}{\numberline {4.2}Healthcare - Primary Care}{54}{subsection.4.2}\protected@file@percent }
\@writefile{lot}{\contentsline {table}{\numberline {2}{\ignorespaces Descriptive statistics of total deaths in Ireland among Children ($0$-$14$) ($2007$-$2020$)\relax }}{54}{table.caption.70}\protected@file@percent }
\@writefile{lof}{\contentsline {figure}{\numberline {69}{\ignorespaces linear regression of total deaths in Ireland among Children ($0$-$14$) ($2007$-$2020$)\relax }}{54}{figure.caption.71}\protected@file@percent }
\@writefile{lot}{\contentsline {table}{\numberline {3}{\ignorespaces Linear model predictions of number of deaths in children ($0$-$14$) for the next $3$ years\relax }}{55}{table.caption.72}\protected@file@percent }
\@writefile{lof}{\contentsline {figure}{\numberline {70}{\ignorespaces \relax }}{55}{figure.caption.73}\protected@file@percent }
\@writefile{lot}{\contentsline {table}{\numberline {4}{\ignorespaces Descriptive statistics total hospital discharges of children ($0$-$14$) $2010$-$2019$.\relax }}{55}{table.caption.74}\protected@file@percent }
\@writefile{lof}{\contentsline {figure}{\numberline {71}{\ignorespaces Linear and Polynomial ($2011$-$19$) model predictions of total hospital discharges of children ($0$-$14$) $2000$-$2040$.\relax }}{56}{figure.caption.75}\protected@file@percent }
\@writefile{lof}{\contentsline {figure}{\numberline {72}{\ignorespaces \relax }}{56}{figure.caption.76}\protected@file@percent }
\@writefile{lof}{\contentsline {subfigure}{\numberline{(a)}{\ignorespaces {}}}{56}{subfigure.72.1}\protected@file@percent }
\@writefile{lof}{\contentsline {subfigure}{\numberline{(b)}{\ignorespaces {}}}{56}{subfigure.72.2}\protected@file@percent }
\@writefile{lot}{\contentsline {table}{\numberline {5}{\ignorespaces Linear model predictions of total hospital discharges of children ($0$-$14$) for the next $3$ years.\relax }}{57}{table.caption.77}\protected@file@percent }
\@writefile{lof}{\contentsline {figure}{\numberline {73}{\ignorespaces \relax }}{57}{figure.caption.78}\protected@file@percent }
\citation{mastery}
\@writefile{lof}{\contentsline {figure}{\numberline {74}{\ignorespaces \relax }}{58}{figure.caption.79}\protected@file@percent }
\@writefile{lot}{\contentsline {table}{\numberline {6}{\ignorespaces ARIMA predicted total number of births.\relax }}{58}{table.caption.80}\protected@file@percent }
\@writefile{toc}{\contentsline {subsection}{\numberline {4.3}Healthcare - End of Life Care}{58}{subsection.4.3}\protected@file@percent }
\@writefile{toc}{\contentsline {subsubsection}{\numberline {4.3.1}Time Series using Prophet}{58}{subsubsection.4.3.1}\protected@file@percent }
\@writefile{lof}{\contentsline {figure}{\numberline {75}{\ignorespaces \relax }}{59}{figure.caption.81}\protected@file@percent }
\@writefile{toc}{\contentsline {subsubsection}{\numberline {4.3.2}Creating In-Sample forecast}{59}{subsubsection.4.3.2}\protected@file@percent }
\@writefile{lof}{\contentsline {figure}{\numberline {76}{\ignorespaces \relax }}{60}{figure.caption.82}\protected@file@percent }
\@writefile{toc}{\contentsline {subsubsection}{\numberline {4.3.3}Out of sample Forecast}{61}{subsubsection.4.3.3}\protected@file@percent }
\@writefile{lof}{\contentsline {figure}{\numberline {77}{\ignorespaces \relax }}{61}{figure.caption.83}\protected@file@percent }
\@writefile{lof}{\contentsline {figure}{\numberline {78}{\ignorespaces \relax }}{62}{figure.caption.84}\protected@file@percent }
\@writefile{toc}{\contentsline {subsection}{\numberline {4.4}Social Protection}{62}{subsection.4.4}\protected@file@percent }
\@writefile{toc}{\contentsline {subsubsection}{\numberline {4.4.1}Results of Statistical Analysis and Machine Learning Processes.}{62}{subsubsection.4.4.1}\protected@file@percent }
\newlabel{fig:multi_hist}{{79a}{62}{Subfigure 79a}{subfigure.79.1}{}}
\newlabel{sub@fig:multi_hist}{{(a)}{a}{Subfigure 79a\relax }{subfigure.79.1}{}}
\newlabel{fig:tot_births_box}{{79b}{62}{Subfigure 79b}{subfigure.79.2}{}}
\newlabel{sub@fig:tot_births_box}{{(b)}{b}{Subfigure 79b\relax }{subfigure.79.2}{}}
\@writefile{lof}{\contentsline {figure}{\numberline {79}{\ignorespaces Histgrams of each attribute in the DataFrame as well as a boxplot of the target attribute.\relax }}{62}{figure.caption.85}\protected@file@percent }
\newlabel{fig:hist_box}{{79}{62}{Histgrams of each attribute in the DataFrame as well as a boxplot of the target attribute.\relax }{figure.caption.85}{}}
\@writefile{lof}{\contentsline {subfigure}{\numberline{(a)}{\ignorespaces {Histograms showing the frequency distribution of values in each attribute.}}}{62}{subfigure.79.1}\protected@file@percent }
\@writefile{lof}{\contentsline {subfigure}{\numberline{(b)}{\ignorespaces {Boxplot of obsevation values of the total births attribute.}}}{62}{subfigure.79.2}\protected@file@percent }
\@writefile{lot}{\contentsline {table}{\numberline {7}{\ignorespaces Table of results from the statistical analysis of the target attribute data.\relax }}{63}{table.caption.86}\protected@file@percent }
\newlabel{tab:stat_birth}{{7}{63}{Table of results from the statistical analysis of the target attribute data.\relax }{table.caption.86}{}}
\newlabel{fig:tot_births_hist}{{80a}{63}{Subfigure 80a}{subfigure.80.1}{}}
\newlabel{sub@fig:tot_births_hist}{{(a)}{a}{Subfigure 80a\relax }{subfigure.80.1}{}}
\newlabel{fig:tot_births_norm}{{80b}{63}{Subfigure 80b}{subfigure.80.2}{}}
\newlabel{sub@fig:tot_births_norm}{{(b)}{b}{Subfigure 80b\relax }{subfigure.80.2}{}}
\@writefile{lof}{\contentsline {figure}{\numberline {80}{\ignorespaces Histograms showing the frequency distribution of observation values in the total births attribute.\relax }}{63}{figure.caption.87}\protected@file@percent }
\newlabel{fig:tot_births_hists}{{80}{63}{Histograms showing the frequency distribution of observation values in the total births attribute.\relax }{figure.caption.87}{}}
\@writefile{lof}{\contentsline {subfigure}{\numberline{(a)}{\ignorespaces {Histogram showing the frequency distribution of the total births attribute.}}}{63}{subfigure.80.1}\protected@file@percent }
\@writefile{lof}{\contentsline {subfigure}{\numberline{(b)}{\ignorespaces {Histogram showing the frequency distribution of the total births attribute which has been fitted with a normal distribution.}}}{63}{subfigure.80.2}\protected@file@percent }
\@writefile{lof}{\contentsline {figure}{\numberline {81}{\ignorespaces Result of the machine learning algorithm polynomial regression.\relax }}{64}{figure.caption.88}\protected@file@percent }
\newlabel{fig:bdm_polyfit_7}{{81}{64}{Result of the machine learning algorithm polynomial regression.\relax }{figure.caption.88}{}}
\@writefile{lot}{\contentsline {table}{\numberline {8}{\ignorespaces Predicted total births per quarter for the years $2022-2024$.\relax }}{64}{table.caption.89}\protected@file@percent }
\newlabel{tab:pred_births}{{8}{64}{Predicted total births per quarter for the years $2022-2024$.\relax }{table.caption.89}{}}
\@writefile{toc}{\contentsline {subsubsection}{\numberline {4.4.2}Results of Parental and Child Benefit Analyses.}{64}{subsubsection.4.4.2}\protected@file@percent }
\newlabel{fig:mat_ben_ml}{{82a}{64}{Subfigure 82a}{subfigure.82.1}{}}
\newlabel{sub@fig:mat_ben_ml}{{(a)}{a}{Subfigure 82a\relax }{subfigure.82.1}{}}
\newlabel{fig:mat_ben_fit}{{82b}{64}{Subfigure 82b}{subfigure.82.2}{}}
\newlabel{sub@fig:mat_ben_fit}{{(b)}{b}{Subfigure 82b\relax }{subfigure.82.2}{}}
\@writefile{lof}{\contentsline {figure}{\numberline {82}{\ignorespaces Plots showing the difference in results between the two approaches to linear regression which were taken.\relax }}{64}{figure.caption.90}\protected@file@percent }
\newlabel{fig:mat_ben_plots}{{82}{64}{Plots showing the difference in results between the two approaches to linear regression which were taken.\relax }{figure.caption.90}{}}
\@writefile{lof}{\contentsline {subfigure}{\numberline{(a)}{\ignorespaces {Results of the application of the linear regression machine learning algorithm to the given maternity benefit data.}}}{64}{subfigure.82.1}\protected@file@percent }
\@writefile{lof}{\contentsline {subfigure}{\numberline{(b)}{\ignorespaces {Results of the application of the linear regression curve\_fit function to the given maternity benefit data.}}}{64}{subfigure.82.2}\protected@file@percent }
\@writefile{lot}{\contentsline {table}{\numberline {9}{\ignorespaces Table showing the predicted uptake in maternity benefit as well as it's predicted cost.\relax }}{65}{table.caption.91}\protected@file@percent }
\newlabel{tab:mat_ben}{{9}{65}{Table showing the predicted uptake in maternity benefit as well as it's predicted cost.\relax }{table.caption.91}{}}
\@writefile{lof}{\contentsline {figure}{\numberline {83}{\ignorespaces Plot showing the result of linear regression using \lstinline [language=Python]$curve_fit$ on the paternity benefit uptake percentage.\relax }}{65}{figure.caption.92}\protected@file@percent }
\newlabel{fig:pat_ben_fit}{{83}{65}{Plot showing the result of linear regression using \lstinline [language=Python]$curve_fit$ on the paternity benefit uptake percentage.\relax }{figure.caption.92}{}}
\@writefile{lot}{\contentsline {table}{\numberline {10}{\ignorespaces Table showing predicted uptake in paternity benefit as well as predicted cost for the years $2022-2024$.\relax }}{65}{table.caption.93}\protected@file@percent }
\newlabel{tab:pat_ben}{{10}{65}{Table showing predicted uptake in paternity benefit as well as predicted cost for the years $2022-2024$.\relax }{table.caption.93}{}}
\@writefile{lot}{\contentsline {table}{\numberline {11}{\ignorespaces Table showing predicted costs per year for the child benefit scheme broken down by age group.\relax }}{66}{table.caption.94}\protected@file@percent }
\newlabel{tab:child_ben}{{11}{66}{Table showing predicted costs per year for the child benefit scheme broken down by age group.\relax }{table.caption.94}{}}
\@writefile{toc}{\contentsline {section}{\numberline {5}Discussion}{66}{section.5}\protected@file@percent }
\newlabel{sec:discussion}{{5}{66}{Discussion}{section.5}{}}
\@writefile{toc}{\contentsline {subsection}{\numberline {5.1}Healthcare – Primary Care}{66}{subsection.5.1}\protected@file@percent }
\citation{himadata}
\citation{stats1}
\citation{stats1}
\citation{stats1}
\citation{stats2}
\@writefile{toc}{\contentsline {subsection}{\numberline {5.2}Healthcare - End of Life Care}{67}{subsection.5.2}\protected@file@percent }
\@writefile{toc}{\contentsline {subsection}{\numberline {5.3}Social Protection}{67}{subsection.5.3}\protected@file@percent }
\newlabel{sec:disc_sp}{{5.3}{67}{Social Protection}{subsection.5.3}{}}
\bibdata{report/report}
\bibcite{alpaydin2020}{{1}{2020}{{Alpaydin}}{{}}}
\bibcite{benvenuto2020}{{2}{2020}{{Benvenuto et~al.}}{{Benvenuto, Giovanetti, Vassallo, Angeletti and\ Ciccozzi}}}
\bibcite{brownlee2020}{{3}{2020}{{Brownlee}}{{}}}
\bibcite{chapman2000}{{4}{2000}{{Chapman et~al.}}{{Chapman, Clinton, Kerber, Khabaza, Reinartz, Shearer, Wirth et~al.}}}
\bibcite{chu2016}{{5}{2016}{{Chu and\ Ilyas}}{{}}}
\bibcite{national2010}{{6}{2010}{{Council et~al.}}{{}}}
\bibcite{maternity}{{7}{2020}{{C.S.O.}}{{}}}
\bibcite{aidan2}{{8}{2021a}{{C.S.O.}}{{}}}
\@writefile{toc}{\contentsline {section}{\numberline {6}Conclusion}{69}{section.6}\protected@file@percent }
\newlabel{sec:conclusion}{{6}{69}{Conclusion}{section.6}{}}
\@writefile{toc}{\contentsline {subsection}{\numberline {6.1}Social Protection}{69}{subsection.6.1}\protected@file@percent }
\bibcite{aidan1}{{9}{2021b}{{C.S.O.}}{{}}}
\bibcite{himadata}{{10}{2021}{{data.gov.ie}}{{}}}
\bibcite{stats2}{{11}{2020a}{{D.S.P}}{{}}}
\bibcite{stats1}{{12}{2020b}{{D.S.P.}}{{}}}
\bibcite{geron2019}{{13}{2019}{{G{\'e}ron}}{{}}}
\bibcite{harris2020}{{14}{2020}{{Harris et~al.}}{{Harris, Millman, van~der Walt, Gommers, Virtanen, Cournapeau, Wieser, Taylor, Berg, Smith et~al.}}}
\bibcite{hellerstein2008}{{15}{2008}{{Hellerstein}}{{}}}
\bibcite{aidan3}{{16}{2020}{{H.S.E.}}{{}}}
\bibcite{hunter2007}{{17}{2007}{{Hunter}}{{}}}
\bibcite{li2014}{{18}{2014}{{Li et~al.}}{{Li, Hutfless, Scharfstein, Daniels, Hogan, Little, Roy, Law and\ Dickersin}}}
\bibcite{li2009}{{19}{2009}{{Li}}{{}}}
\bibcite{mastery}{{20}{2021}{{machinelearningmastery.com}}{{}}}
\bibcite{mckinney2010}{{21}{2010}{{McKinney et~al.}}{{}}}
\bibcite{mygreat}{{22}{2021}{{mygreatlearning.com}}{{}}}
\bibcite{aidan6}{{23}{2021}{{OECD}}{{}}}
\bibcite{pedregosa2011}{{24}{2011}{{Pedregosa et~al.}}{{Pedregosa, Varoquaux, Gramfort, Michel, Thirion, Grisel, Blondel, Prettenhofer, Weiss, Dubourg et~al.}}}
\bibcite{anova}{{25}{2021}{{pythonfordatascience.com}}{{}}}
\bibcite{aidan4}{{26}{2021}{{R.C.S.I.}}{{}}}
\bibcite{schroer2021}{{27}{2021}{{Schröer et~al.}}{{Schröer, Kruse and\ Gómez}}}
\bibcite{scikit}{{28}{2021}{{scikit learn.org}}{{}}}
\bibcite{seabold2010}{{29}{2010}{{Seabold and\ Perktold}}{{}}}
\bibcite{aidan5}{{30}{2016}{{Staines}}{{}}}
\bibcite{maternity3}{{31}{2019}{{Tickner et~al.}}{{Tickner, Heslinand and\ McGourty}}}
\bibcite{hastie2009}{{32}{2009}{{Trevor et~al.}}{{Trevor, Robert and\ Jerome}}}
\bibcite{tufte2001}{{33}{2001}{{Tufte}}{{}}}
\bibcite{aidan7}{{34}{2020}{{Unicef}}{{}}}
\bibcite{wirth2000}{{35}{2000}{{Wirth and\ Hipp}}{{}}}
\bibcite{yang2020}{{36}{2020}{{Yang and\ Chiang}}{{}}}
\gdef \@abspage@last{71}
