This is BibTeX, Version 0.99d (TeX Live 2021)
Capacity: max_strings=200000, hash_size=200000, hash_prime=170003
The top-level auxiliary file: report.aux
The style file: dcu.bst
Database file #1: report/report.bib
Too many commas in name 1 of "Staines, A., Balanda, K. P., Barron, S., Corcoran, Y., Fahy, L., Gallagher, L., Greally, T., Kilroe, J., Mohan, C. M., Matthews, A., McGovern, E., Nicholson, A., O'Farrell, A., Philip, R. K., & Whelton, H." for entry aidan5
while executing---line 1237 of file dcu.bst
Too many commas in name 1 of "Staines, A., Balanda, K. P., Barron, S., Corcoran, Y., Fahy, L., Gallagher, L., Greally, T., Kilroe, J., Mohan, C. M., Matthews, A., McGovern, E., Nicholson, A., O'Farrell, A., Philip, R. K., & Whelton, H." for entry aidan5
while executing---line 1237 of file dcu.bst
Too many commas in name 1 of "Staines, A., Balanda, K. P., Barron, S., Corcoran, Y., Fahy, L., Gallagher, L., Greally, T., Kilroe, J., Mohan, C. M., Matthews, A., McGovern, E., Nicholson, A., O'Farrell, A., Philip, R. K., & Whelton, H." for entry aidan5
while executing---line 1237 of file dcu.bst
Too many commas in name 1 of "Staines, A., Balanda, K. P., Barron, S., Corcoran, Y., Fahy, L., Gallagher, L., Greally, T., Kilroe, J., Mohan, C. M., Matthews, A., McGovern, E., Nicholson, A., O'Farrell, A., Philip, R. K., & Whelton, H." for entry aidan5
while executing---line 1237 of file dcu.bst
Too many commas in name 1 of "Staines, A., Balanda, K. P., Barron, S., Corcoran, Y., Fahy, L., Gallagher, L., Greally, T., Kilroe, J., Mohan, C. M., Matthews, A., McGovern, E., Nicholson, A., O'Farrell, A., Philip, R. K., & Whelton, H." for entry aidan5
while executing---line 1237 of file dcu.bst
Too many commas in name 1 of "Staines, A., Balanda, K. P., Barron, S., Corcoran, Y., Fahy, L., Gallagher, L., Greally, T., Kilroe, J., Mohan, C. M., Matthews, A., McGovern, E., Nicholson, A., O'Farrell, A., Philip, R. K., & Whelton, H." for entry aidan5
while executing---line 1237 of file dcu.bst
Too many commas in name 1 of "Staines, A., Balanda, K. P., Barron, S., Corcoran, Y., Fahy, L., Gallagher, L., Greally, T., Kilroe, J., Mohan, C. M., Matthews, A., McGovern, E., Nicholson, A., O'Farrell, A., Philip, R. K., & Whelton, H." for entry aidan5
while executing---line 1237 of file dcu.bst
Too many commas in name 1 of "Staines, A., Balanda, K. P., Barron, S., Corcoran, Y., Fahy, L., Gallagher, L., Greally, T., Kilroe, J., Mohan, C. M., Matthews, A., McGovern, E., Nicholson, A., O'Farrell, A., Philip, R. K., & Whelton, H." for entry aidan5
while executing---line 1237 of file dcu.bst
Too many commas in name 1 of "Staines, A., Balanda, K. P., Barron, S., Corcoran, Y., Fahy, L., Gallagher, L., Greally, T., Kilroe, J., Mohan, C. M., Matthews, A., McGovern, E., Nicholson, A., O'Farrell, A., Philip, R. K., & Whelton, H." for entry aidan5
while executing---line 1237 of file dcu.bst
Too many commas in name 1 of "Staines, A., Balanda, K. P., Barron, S., Corcoran, Y., Fahy, L., Gallagher, L., Greally, T., Kilroe, J., Mohan, C. M., Matthews, A., McGovern, E., Nicholson, A., O'Farrell, A., Philip, R. K., & Whelton, H." for entry aidan5
while executing---line 1237 of file dcu.bst
Too many commas in name 1 of "Staines, A., Balanda, K. P., Barron, S., Corcoran, Y., Fahy, L., Gallagher, L., Greally, T., Kilroe, J., Mohan, C. M., Matthews, A., McGovern, E., Nicholson, A., O'Farrell, A., Philip, R. K., & Whelton, H." for entry aidan5
while executing---line 1237 of file dcu.bst
Too many commas in name 1 of "Staines, A., Balanda, K. P., Barron, S., Corcoran, Y., Fahy, L., Gallagher, L., Greally, T., Kilroe, J., Mohan, C. M., Matthews, A., McGovern, E., Nicholson, A., O'Farrell, A., Philip, R. K., & Whelton, H." for entry aidan5
while executing---line 1237 of file dcu.bst
Too many commas in name 1 of "Staines, A., Balanda, K. P., Barron, S., Corcoran, Y., Fahy, L., Gallagher, L., Greally, T., Kilroe, J., Mohan, C. M., Matthews, A., McGovern, E., Nicholson, A., O'Farrell, A., Philip, R. K., & Whelton, H." for entry aidan5
while executing---line 1237 of file dcu.bst
Too many commas in name 1 of "Staines, A., Balanda, K. P., Barron, S., Corcoran, Y., Fahy, L., Gallagher, L., Greally, T., Kilroe, J., Mohan, C. M., Matthews, A., McGovern, E., Nicholson, A., O'Farrell, A., Philip, R. K., & Whelton, H." for entry aidan5
while executing---line 1237 of file dcu.bst
Too many commas in name 1 of "Staines, A., Balanda, K. P., Barron, S., Corcoran, Y., Fahy, L., Gallagher, L., Greally, T., Kilroe, J., Mohan, C. M., Matthews, A., McGovern, E., Nicholson, A., O'Farrell, A., Philip, R. K., & Whelton, H." for entry aidan5
while executing---line 1237 of file dcu.bst
Too many commas in name 1 of "Staines, A., Balanda, K. P., Barron, S., Corcoran, Y., Fahy, L., Gallagher, L., Greally, T., Kilroe, J., Mohan, C. M., Matthews, A., McGovern, E., Nicholson, A., O'Farrell, A., Philip, R. K., & Whelton, H." for entry aidan5
while executing---line 1237 of file dcu.bst
Too many commas in name 1 of "Staines, A., Balanda, K. P., Barron, S., Corcoran, Y., Fahy, L., Gallagher, L., Greally, T., Kilroe, J., Mohan, C. M., Matthews, A., McGovern, E., Nicholson, A., O'Farrell, A., Philip, R. K., & Whelton, H." for entry aidan5
while executing---line 1237 of file dcu.bst
Too many commas in name 1 of "Staines, A., Balanda, K. P., Barron, S., Corcoran, Y., Fahy, L., Gallagher, L., Greally, T., Kilroe, J., Mohan, C. M., Matthews, A., McGovern, E., Nicholson, A., O'Farrell, A., Philip, R. K., & Whelton, H." for entry aidan5
while executing---line 1237 of file dcu.bst
Too many commas in name 1 of "Staines, A., Balanda, K. P., Barron, S., Corcoran, Y., Fahy, L., Gallagher, L., Greally, T., Kilroe, J., Mohan, C. M., Matthews, A., McGovern, E., Nicholson, A., O'Farrell, A., Philip, R. K., & Whelton, H." for entry aidan5
while executing---line 1237 of file dcu.bst
Too many commas in name 1 of "Staines, A., Balanda, K. P., Barron, S., Corcoran, Y., Fahy, L., Gallagher, L., Greally, T., Kilroe, J., Mohan, C. M., Matthews, A., McGovern, E., Nicholson, A., O'Farrell, A., Philip, R. K., & Whelton, H." for entry aidan5
while executing---line 1237 of file dcu.bst
Too many commas in name 1 of "Staines, A., Balanda, K. P., Barron, S., Corcoran, Y., Fahy, L., Gallagher, L., Greally, T., Kilroe, J., Mohan, C. M., Matthews, A., McGovern, E., Nicholson, A., O'Farrell, A., Philip, R. K., & Whelton, H." for entry aidan5
while executing---line 1237 of file dcu.bst
Too many commas in name 1 of "Staines, A., Balanda, K. P., Barron, S., Corcoran, Y., Fahy, L., Gallagher, L., Greally, T., Kilroe, J., Mohan, C. M., Matthews, A., McGovern, E., Nicholson, A., O'Farrell, A., Philip, R. K., & Whelton, H." for entry aidan5
while executing---line 1237 of file dcu.bst
Too many commas in name 1 of "Staines, A., Balanda, K. P., Barron, S., Corcoran, Y., Fahy, L., Gallagher, L., Greally, T., Kilroe, J., Mohan, C. M., Matthews, A., McGovern, E., Nicholson, A., O'Farrell, A., Philip, R. K., & Whelton, H." for entry aidan5
while executing---line 1237 of file dcu.bst
Too many commas in name 1 of "Staines, A., Balanda, K. P., Barron, S., Corcoran, Y., Fahy, L., Gallagher, L., Greally, T., Kilroe, J., Mohan, C. M., Matthews, A., McGovern, E., Nicholson, A., O'Farrell, A., Philip, R. K., & Whelton, H." for entry aidan5
while executing---line 1237 of file dcu.bst
Too many commas in name 1 of "Staines, A., Balanda, K. P., Barron, S., Corcoran, Y., Fahy, L., Gallagher, L., Greally, T., Kilroe, J., Mohan, C. M., Matthews, A., McGovern, E., Nicholson, A., O'Farrell, A., Philip, R. K., & Whelton, H." for entry aidan5
while executing---line 1237 of file dcu.bst
Too many commas in name 1 of "Staines, A., Balanda, K. P., Barron, S., Corcoran, Y., Fahy, L., Gallagher, L., Greally, T., Kilroe, J., Mohan, C. M., Matthews, A., McGovern, E., Nicholson, A., O'Farrell, A., Philip, R. K., & Whelton, H." for entry aidan5
while executing---line 1237 of file dcu.bst
Too many commas in name 1 of "Staines, A., Balanda, K. P., Barron, S., Corcoran, Y., Fahy, L., Gallagher, L., Greally, T., Kilroe, J., Mohan, C. M., Matthews, A., McGovern, E., Nicholson, A., O'Farrell, A., Philip, R. K., & Whelton, H." for entry aidan5
while executing---line 1237 of file dcu.bst
Too many commas in name 1 of "Staines, A., Balanda, K. P., Barron, S., Corcoran, Y., Fahy, L., Gallagher, L., Greally, T., Kilroe, J., Mohan, C. M., Matthews, A., McGovern, E., Nicholson, A., O'Farrell, A., Philip, R. K., & Whelton, H." for entry aidan5
while executing---line 1237 of file dcu.bst
Too many commas in name 1 of "Staines, A., Balanda, K. P., Barron, S., Corcoran, Y., Fahy, L., Gallagher, L., Greally, T., Kilroe, J., Mohan, C. M., Matthews, A., McGovern, E., Nicholson, A., O'Farrell, A., Philip, R. K., & Whelton, H." for entry aidan5
while executing---line 1237 of file dcu.bst
Too many commas in name 1 of "Staines, A., Balanda, K. P., Barron, S., Corcoran, Y., Fahy, L., Gallagher, L., Greally, T., Kilroe, J., Mohan, C. M., Matthews, A., McGovern, E., Nicholson, A., O'Farrell, A., Philip, R. K., & Whelton, H." for entry aidan5
while executing---line 1237 of file dcu.bst
Too many commas in name 1 of "Staines, A., Balanda, K. P., Barron, S., Corcoran, Y., Fahy, L., Gallagher, L., Greally, T., Kilroe, J., Mohan, C. M., Matthews, A., McGovern, E., Nicholson, A., O'Farrell, A., Philip, R. K., & Whelton, H." for entry aidan5
while executing---line 1237 of file dcu.bst
Too many commas in name 1 of "Staines, A., Balanda, K. P., Barron, S., Corcoran, Y., Fahy, L., Gallagher, L., Greally, T., Kilroe, J., Mohan, C. M., Matthews, A., McGovern, E., Nicholson, A., O'Farrell, A., Philip, R. K., & Whelton, H." for entry aidan5
while executing---line 1237 of file dcu.bst
Too many commas in name 1 of "Staines, A., Balanda, K. P., Barron, S., Corcoran, Y., Fahy, L., Gallagher, L., Greally, T., Kilroe, J., Mohan, C. M., Matthews, A., McGovern, E., Nicholson, A., O'Farrell, A., Philip, R. K., & Whelton, H." for entry aidan5
while executing---line 1237 of file dcu.bst
Too many commas in name 1 of "Staines, A., Balanda, K. P., Barron, S., Corcoran, Y., Fahy, L., Gallagher, L., Greally, T., Kilroe, J., Mohan, C. M., Matthews, A., McGovern, E., Nicholson, A., O'Farrell, A., Philip, R. K., & Whelton, H." for entry aidan5
while executing---line 1237 of file dcu.bst
Too many commas in name 1 of "Staines, A., Balanda, K. P., Barron, S., Corcoran, Y., Fahy, L., Gallagher, L., Greally, T., Kilroe, J., Mohan, C. M., Matthews, A., McGovern, E., Nicholson, A., O'Farrell, A., Philip, R. K., & Whelton, H." for entry aidan5
while executing---line 1237 of file dcu.bst
Too many commas in name 1 of "Staines, A., Balanda, K. P., Barron, S., Corcoran, Y., Fahy, L., Gallagher, L., Greally, T., Kilroe, J., Mohan, C. M., Matthews, A., McGovern, E., Nicholson, A., O'Farrell, A., Philip, R. K., & Whelton, H." for entry aidan5
while executing---line 1237 of file dcu.bst
Too many commas in name 1 of "Staines, A., Balanda, K. P., Barron, S., Corcoran, Y., Fahy, L., Gallagher, L., Greally, T., Kilroe, J., Mohan, C. M., Matthews, A., McGovern, E., Nicholson, A., O'Farrell, A., Philip, R. K., & Whelton, H." for entry aidan5
while executing---line 1237 of file dcu.bst
Too many commas in name 1 of "Staines, A., Balanda, K. P., Barron, S., Corcoran, Y., Fahy, L., Gallagher, L., Greally, T., Kilroe, J., Mohan, C. M., Matthews, A., McGovern, E., Nicholson, A., O'Farrell, A., Philip, R. K., & Whelton, H." for entry aidan5
while executing---line 1237 of file dcu.bst
Too many commas in name 1 of "Staines, A., Balanda, K. P., Barron, S., Corcoran, Y., Fahy, L., Gallagher, L., Greally, T., Kilroe, J., Mohan, C. M., Matthews, A., McGovern, E., Nicholson, A., O'Farrell, A., Philip, R. K., & Whelton, H." for entry aidan5
while executing---line 1237 of file dcu.bst
Too many commas in name 1 of "Staines, A., Balanda, K. P., Barron, S., Corcoran, Y., Fahy, L., Gallagher, L., Greally, T., Kilroe, J., Mohan, C. M., Matthews, A., McGovern, E., Nicholson, A., O'Farrell, A., Philip, R. K., & Whelton, H." for entry aidan5
while executing---line 1237 of file dcu.bst
Too many commas in name 1 of "Staines, A., Balanda, K. P., Barron, S., Corcoran, Y., Fahy, L., Gallagher, L., Greally, T., Kilroe, J., Mohan, C. M., Matthews, A., McGovern, E., Nicholson, A., O'Farrell, A., Philip, R. K., & Whelton, H." for entry aidan5
while executing---line 1237 of file dcu.bst
Too many commas in name 1 of "Staines, A., Balanda, K. P., Barron, S., Corcoran, Y., Fahy, L., Gallagher, L., Greally, T., Kilroe, J., Mohan, C. M., Matthews, A., McGovern, E., Nicholson, A., O'Farrell, A., Philip, R. K., & Whelton, H." for entry aidan5
while executing---line 1237 of file dcu.bst
Too many commas in name 1 of "Staines, A., Balanda, K. P., Barron, S., Corcoran, Y., Fahy, L., Gallagher, L., Greally, T., Kilroe, J., Mohan, C. M., Matthews, A., McGovern, E., Nicholson, A., O'Farrell, A., Philip, R. K., & Whelton, H." for entry aidan5
while executing---line 1237 of file dcu.bst
Too many commas in name 1 of "Staines, A., Balanda, K. P., Barron, S., Corcoran, Y., Fahy, L., Gallagher, L., Greally, T., Kilroe, J., Mohan, C. M., Matthews, A., McGovern, E., Nicholson, A., O'Farrell, A., Philip, R. K., & Whelton, H." for entry aidan5
while executing---line 1237 of file dcu.bst
Too many commas in name 1 of "Staines, A., Balanda, K. P., Barron, S., Corcoran, Y., Fahy, L., Gallagher, L., Greally, T., Kilroe, J., Mohan, C. M., Matthews, A., McGovern, E., Nicholson, A., O'Farrell, A., Philip, R. K., & Whelton, H." for entry aidan5
while executing---line 1237 of file dcu.bst
Too many commas in name 1 of "Staines, A., Balanda, K. P., Barron, S., Corcoran, Y., Fahy, L., Gallagher, L., Greally, T., Kilroe, J., Mohan, C. M., Matthews, A., McGovern, E., Nicholson, A., O'Farrell, A., Philip, R. K., & Whelton, H." for entry aidan5
while executing---line 1237 of file dcu.bst
Too many commas in name 1 of "Staines, A., Balanda, K. P., Barron, S., Corcoran, Y., Fahy, L., Gallagher, L., Greally, T., Kilroe, J., Mohan, C. M., Matthews, A., McGovern, E., Nicholson, A., O'Farrell, A., Philip, R. K., & Whelton, H." for entry aidan5
while executing---line 1237 of file dcu.bst
Too many commas in name 1 of "Staines, A., Balanda, K. P., Barron, S., Corcoran, Y., Fahy, L., Gallagher, L., Greally, T., Kilroe, J., Mohan, C. M., Matthews, A., McGovern, E., Nicholson, A., O'Farrell, A., Philip, R. K., & Whelton, H." for entry aidan5
while executing---line 1237 of file dcu.bst
Too many commas in name 1 of "Staines, A., Balanda, K. P., Barron, S., Corcoran, Y., Fahy, L., Gallagher, L., Greally, T., Kilroe, J., Mohan, C. M., Matthews, A., McGovern, E., Nicholson, A., O'Farrell, A., Philip, R. K., & Whelton, H." for entry aidan5
while executing---line 1237 of file dcu.bst
Too many commas in name 1 of "Staines, A., Balanda, K. P., Barron, S., Corcoran, Y., Fahy, L., Gallagher, L., Greally, T., Kilroe, J., Mohan, C. M., Matthews, A., McGovern, E., Nicholson, A., O'Farrell, A., Philip, R. K., & Whelton, H." for entry aidan5
while executing---line 1237 of file dcu.bst
Too many commas in name 1 of "Staines, A., Balanda, K. P., Barron, S., Corcoran, Y., Fahy, L., Gallagher, L., Greally, T., Kilroe, J., Mohan, C. M., Matthews, A., McGovern, E., Nicholson, A., O'Farrell, A., Philip, R. K., & Whelton, H." for entry aidan5
while executing---line 1237 of file dcu.bst
Too many commas in name 1 of "Staines, A., Balanda, K. P., Barron, S., Corcoran, Y., Fahy, L., Gallagher, L., Greally, T., Kilroe, J., Mohan, C. M., Matthews, A., McGovern, E., Nicholson, A., O'Farrell, A., Philip, R. K., & Whelton, H." for entry aidan5
while executing---line 1237 of file dcu.bst
Too many commas in name 1 of "Staines, A., Balanda, K. P., Barron, S., Corcoran, Y., Fahy, L., Gallagher, L., Greally, T., Kilroe, J., Mohan, C. M., Matthews, A., McGovern, E., Nicholson, A., O'Farrell, A., Philip, R. K., & Whelton, H." for entry aidan5
while executing---line 1237 of file dcu.bst
Too many commas in name 1 of "Staines, A., Balanda, K. P., Barron, S., Corcoran, Y., Fahy, L., Gallagher, L., Greally, T., Kilroe, J., Mohan, C. M., Matthews, A., McGovern, E., Nicholson, A., O'Farrell, A., Philip, R. K., & Whelton, H." for entry aidan5
while executing---line 1237 of file dcu.bst
Too many commas in name 1 of "Staines, A., Balanda, K. P., Barron, S., Corcoran, Y., Fahy, L., Gallagher, L., Greally, T., Kilroe, J., Mohan, C. M., Matthews, A., McGovern, E., Nicholson, A., O'Farrell, A., Philip, R. K., & Whelton, H." for entry aidan5
while executing---line 1273 of file dcu.bst
Too many commas in name 1 of "Staines, A., Balanda, K. P., Barron, S., Corcoran, Y., Fahy, L., Gallagher, L., Greally, T., Kilroe, J., Mohan, C. M., Matthews, A., McGovern, E., Nicholson, A., O'Farrell, A., Philip, R. K., & Whelton, H." for entry aidan5
while executing---line 1273 of file dcu.bst
Too many commas in name 1 of "Staines, A., Balanda, K. P., Barron, S., Corcoran, Y., Fahy, L., Gallagher, L., Greally, T., Kilroe, J., Mohan, C. M., Matthews, A., McGovern, E., Nicholson, A., O'Farrell, A., Philip, R. K., & Whelton, H." for entry aidan5
while executing---line 1273 of file dcu.bst
Too many commas in name 1 of "Staines, A., Balanda, K. P., Barron, S., Corcoran, Y., Fahy, L., Gallagher, L., Greally, T., Kilroe, J., Mohan, C. M., Matthews, A., McGovern, E., Nicholson, A., O'Farrell, A., Philip, R. K., & Whelton, H." for entry aidan5
while executing---line 1273 of file dcu.bst
Too many commas in name 1 of "Staines, A., Balanda, K. P., Barron, S., Corcoran, Y., Fahy, L., Gallagher, L., Greally, T., Kilroe, J., Mohan, C. M., Matthews, A., McGovern, E., Nicholson, A., O'Farrell, A., Philip, R. K., & Whelton, H." for entry aidan5
while executing---line 1273 of file dcu.bst
Too many commas in name 1 of "Staines, A., Balanda, K. P., Barron, S., Corcoran, Y., Fahy, L., Gallagher, L., Greally, T., Kilroe, J., Mohan, C. M., Matthews, A., McGovern, E., Nicholson, A., O'Farrell, A., Philip, R. K., & Whelton, H." for entry aidan5
while executing---line 1273 of file dcu.bst
Too many commas in name 1 of "Staines, A., Balanda, K. P., Barron, S., Corcoran, Y., Fahy, L., Gallagher, L., Greally, T., Kilroe, J., Mohan, C. M., Matthews, A., McGovern, E., Nicholson, A., O'Farrell, A., Philip, R. K., & Whelton, H." for entry aidan5
while executing---line 1273 of file dcu.bst
Too many commas in name 1 of "Staines, A., Balanda, K. P., Barron, S., Corcoran, Y., Fahy, L., Gallagher, L., Greally, T., Kilroe, J., Mohan, C. M., Matthews, A., McGovern, E., Nicholson, A., O'Farrell, A., Philip, R. K., & Whelton, H." for entry aidan5
while executing---line 1273 of file dcu.bst
Too many commas in name 1 of "Staines, A., Balanda, K. P., Barron, S., Corcoran, Y., Fahy, L., Gallagher, L., Greally, T., Kilroe, J., Mohan, C. M., Matthews, A., McGovern, E., Nicholson, A., O'Farrell, A., Philip, R. K., & Whelton, H." for entry aidan5
while executing---line 1273 of file dcu.bst
Too many commas in name 1 of "Staines, A., Balanda, K. P., Barron, S., Corcoran, Y., Fahy, L., Gallagher, L., Greally, T., Kilroe, J., Mohan, C. M., Matthews, A., McGovern, E., Nicholson, A., O'Farrell, A., Philip, R. K., & Whelton, H." for entry aidan5
while executing---line 1273 of file dcu.bst
Too many commas in name 1 of "Staines, A., Balanda, K. P., Barron, S., Corcoran, Y., Fahy, L., Gallagher, L., Greally, T., Kilroe, J., Mohan, C. M., Matthews, A., McGovern, E., Nicholson, A., O'Farrell, A., Philip, R. K., & Whelton, H." for entry aidan5
while executing---line 1273 of file dcu.bst
Too many commas in name 1 of "Staines, A., Balanda, K. P., Barron, S., Corcoran, Y., Fahy, L., Gallagher, L., Greally, T., Kilroe, J., Mohan, C. M., Matthews, A., McGovern, E., Nicholson, A., O'Farrell, A., Philip, R. K., & Whelton, H." for entry aidan5
while executing---line 1273 of file dcu.bst
Too many commas in name 1 of "Staines, A., Balanda, K. P., Barron, S., Corcoran, Y., Fahy, L., Gallagher, L., Greally, T., Kilroe, J., Mohan, C. M., Matthews, A., McGovern, E., Nicholson, A., O'Farrell, A., Philip, R. K., & Whelton, H." for entry aidan5
while executing---line 1273 of file dcu.bst
Too many commas in name 1 of "Staines, A., Balanda, K. P., Barron, S., Corcoran, Y., Fahy, L., Gallagher, L., Greally, T., Kilroe, J., Mohan, C. M., Matthews, A., McGovern, E., Nicholson, A., O'Farrell, A., Philip, R. K., & Whelton, H." for entry aidan5
while executing---line 1273 of file dcu.bst
Too many commas in name 1 of "Staines, A., Balanda, K. P., Barron, S., Corcoran, Y., Fahy, L., Gallagher, L., Greally, T., Kilroe, J., Mohan, C. M., Matthews, A., McGovern, E., Nicholson, A., O'Farrell, A., Philip, R. K., & Whelton, H." for entry aidan5
while executing---line 1273 of file dcu.bst
Too many commas in name 1 of "Staines, A., Balanda, K. P., Barron, S., Corcoran, Y., Fahy, L., Gallagher, L., Greally, T., Kilroe, J., Mohan, C. M., Matthews, A., McGovern, E., Nicholson, A., O'Farrell, A., Philip, R. K., & Whelton, H." for entry aidan5
while executing---line 1273 of file dcu.bst
Too many commas in name 1 of "Staines, A., Balanda, K. P., Barron, S., Corcoran, Y., Fahy, L., Gallagher, L., Greally, T., Kilroe, J., Mohan, C. M., Matthews, A., McGovern, E., Nicholson, A., O'Farrell, A., Philip, R. K., & Whelton, H." for entry aidan5
while executing---line 1273 of file dcu.bst
Too many commas in name 1 of "Staines, A., Balanda, K. P., Barron, S., Corcoran, Y., Fahy, L., Gallagher, L., Greally, T., Kilroe, J., Mohan, C. M., Matthews, A., McGovern, E., Nicholson, A., O'Farrell, A., Philip, R. K., & Whelton, H." for entry aidan5
while executing---line 1273 of file dcu.bst
Too many commas in name 1 of "Staines, A., Balanda, K. P., Barron, S., Corcoran, Y., Fahy, L., Gallagher, L., Greally, T., Kilroe, J., Mohan, C. M., Matthews, A., McGovern, E., Nicholson, A., O'Farrell, A., Philip, R. K., & Whelton, H." for entry aidan5
while executing---line 1273 of file dcu.bst
Too many commas in name 1 of "Staines, A., Balanda, K. P., Barron, S., Corcoran, Y., Fahy, L., Gallagher, L., Greally, T., Kilroe, J., Mohan, C. M., Matthews, A., McGovern, E., Nicholson, A., O'Farrell, A., Philip, R. K., & Whelton, H." for entry aidan5
while executing---line 1273 of file dcu.bst
Too many commas in name 1 of "Staines, A., Balanda, K. P., Barron, S., Corcoran, Y., Fahy, L., Gallagher, L., Greally, T., Kilroe, J., Mohan, C. M., Matthews, A., McGovern, E., Nicholson, A., O'Farrell, A., Philip, R. K., & Whelton, H." for entry aidan5
while executing---line 1273 of file dcu.bst
Too many commas in name 1 of "Staines, A., Balanda, K. P., Barron, S., Corcoran, Y., Fahy, L., Gallagher, L., Greally, T., Kilroe, J., Mohan, C. M., Matthews, A., McGovern, E., Nicholson, A., O'Farrell, A., Philip, R. K., & Whelton, H." for entry aidan5
while executing---line 1273 of file dcu.bst
Too many commas in name 1 of "Staines, A., Balanda, K. P., Barron, S., Corcoran, Y., Fahy, L., Gallagher, L., Greally, T., Kilroe, J., Mohan, C. M., Matthews, A., McGovern, E., Nicholson, A., O'Farrell, A., Philip, R. K., & Whelton, H." for entry aidan5
while executing---line 1273 of file dcu.bst
Too many commas in name 1 of "Staines, A., Balanda, K. P., Barron, S., Corcoran, Y., Fahy, L., Gallagher, L., Greally, T., Kilroe, J., Mohan, C. M., Matthews, A., McGovern, E., Nicholson, A., O'Farrell, A., Philip, R. K., & Whelton, H." for entry aidan5
while executing---line 1273 of file dcu.bst
Too many commas in name 1 of "Staines, A., Balanda, K. P., Barron, S., Corcoran, Y., Fahy, L., Gallagher, L., Greally, T., Kilroe, J., Mohan, C. M., Matthews, A., McGovern, E., Nicholson, A., O'Farrell, A., Philip, R. K., & Whelton, H." for entry aidan5
while executing---line 1273 of file dcu.bst
Too many commas in name 1 of "Staines, A., Balanda, K. P., Barron, S., Corcoran, Y., Fahy, L., Gallagher, L., Greally, T., Kilroe, J., Mohan, C. M., Matthews, A., McGovern, E., Nicholson, A., O'Farrell, A., Philip, R. K., & Whelton, H." for entry aidan5
while executing---line 1273 of file dcu.bst
Too many commas in name 1 of "Staines, A., Balanda, K. P., Barron, S., Corcoran, Y., Fahy, L., Gallagher, L., Greally, T., Kilroe, J., Mohan, C. M., Matthews, A., McGovern, E., Nicholson, A., O'Farrell, A., Philip, R. K., & Whelton, H." for entry aidan5
while executing---line 1273 of file dcu.bst
Too many commas in name 1 of "Staines, A., Balanda, K. P., Barron, S., Corcoran, Y., Fahy, L., Gallagher, L., Greally, T., Kilroe, J., Mohan, C. M., Matthews, A., McGovern, E., Nicholson, A., O'Farrell, A., Philip, R. K., & Whelton, H." for entry aidan5
while executing---line 1277 of file dcu.bst
Too many commas in name 1 of "Staines, A., Balanda, K. P., Barron, S., Corcoran, Y., Fahy, L., Gallagher, L., Greally, T., Kilroe, J., Mohan, C. M., Matthews, A., McGovern, E., Nicholson, A., O'Farrell, A., Philip, R. K., & Whelton, H." for entry aidan5
while executing---line 1277 of file dcu.bst
Too many commas in name 1 of "Staines, A., Balanda, K. P., Barron, S., Corcoran, Y., Fahy, L., Gallagher, L., Greally, T., Kilroe, J., Mohan, C. M., Matthews, A., McGovern, E., Nicholson, A., O'Farrell, A., Philip, R. K., & Whelton, H." for entry aidan5
while executing---line 1277 of file dcu.bst
Too many commas in name 1 of "Staines, A., Balanda, K. P., Barron, S., Corcoran, Y., Fahy, L., Gallagher, L., Greally, T., Kilroe, J., Mohan, C. M., Matthews, A., McGovern, E., Nicholson, A., O'Farrell, A., Philip, R. K., & Whelton, H." for entry aidan5
while executing---line 1277 of file dcu.bst
Too many commas in name 1 of "Staines, A., Balanda, K. P., Barron, S., Corcoran, Y., Fahy, L., Gallagher, L., Greally, T., Kilroe, J., Mohan, C. M., Matthews, A., McGovern, E., Nicholson, A., O'Farrell, A., Philip, R. K., & Whelton, H." for entry aidan5
while executing---line 1277 of file dcu.bst
Too many commas in name 1 of "Staines, A., Balanda, K. P., Barron, S., Corcoran, Y., Fahy, L., Gallagher, L., Greally, T., Kilroe, J., Mohan, C. M., Matthews, A., McGovern, E., Nicholson, A., O'Farrell, A., Philip, R. K., & Whelton, H." for entry aidan5
while executing---line 1277 of file dcu.bst
Too many commas in name 1 of "Staines, A., Balanda, K. P., Barron, S., Corcoran, Y., Fahy, L., Gallagher, L., Greally, T., Kilroe, J., Mohan, C. M., Matthews, A., McGovern, E., Nicholson, A., O'Farrell, A., Philip, R. K., & Whelton, H." for entry aidan5
while executing---line 1277 of file dcu.bst
Too many commas in name 1 of "Staines, A., Balanda, K. P., Barron, S., Corcoran, Y., Fahy, L., Gallagher, L., Greally, T., Kilroe, J., Mohan, C. M., Matthews, A., McGovern, E., Nicholson, A., O'Farrell, A., Philip, R. K., & Whelton, H." for entry aidan5
while executing---line 1277 of file dcu.bst
Too many commas in name 1 of "Staines, A., Balanda, K. P., Barron, S., Corcoran, Y., Fahy, L., Gallagher, L., Greally, T., Kilroe, J., Mohan, C. M., Matthews, A., McGovern, E., Nicholson, A., O'Farrell, A., Philip, R. K., & Whelton, H." for entry aidan5
while executing---line 1277 of file dcu.bst
Too many commas in name 1 of "Staines, A., Balanda, K. P., Barron, S., Corcoran, Y., Fahy, L., Gallagher, L., Greally, T., Kilroe, J., Mohan, C. M., Matthews, A., McGovern, E., Nicholson, A., O'Farrell, A., Philip, R. K., & Whelton, H." for entry aidan5
while executing---line 1277 of file dcu.bst
Too many commas in name 1 of "Staines, A., Balanda, K. P., Barron, S., Corcoran, Y., Fahy, L., Gallagher, L., Greally, T., Kilroe, J., Mohan, C. M., Matthews, A., McGovern, E., Nicholson, A., O'Farrell, A., Philip, R. K., & Whelton, H." for entry aidan5
while executing---line 1277 of file dcu.bst
Too many commas in name 1 of "Staines, A., Balanda, K. P., Barron, S., Corcoran, Y., Fahy, L., Gallagher, L., Greally, T., Kilroe, J., Mohan, C. M., Matthews, A., McGovern, E., Nicholson, A., O'Farrell, A., Philip, R. K., & Whelton, H." for entry aidan5
while executing---line 1277 of file dcu.bst
Too many commas in name 1 of "Staines, A., Balanda, K. P., Barron, S., Corcoran, Y., Fahy, L., Gallagher, L., Greally, T., Kilroe, J., Mohan, C. M., Matthews, A., McGovern, E., Nicholson, A., O'Farrell, A., Philip, R. K., & Whelton, H." for entry aidan5
while executing---line 1277 of file dcu.bst
Too many commas in name 1 of "Staines, A., Balanda, K. P., Barron, S., Corcoran, Y., Fahy, L., Gallagher, L., Greally, T., Kilroe, J., Mohan, C. M., Matthews, A., McGovern, E., Nicholson, A., O'Farrell, A., Philip, R. K., & Whelton, H." for entry aidan5
while executing---line 1277 of file dcu.bst
Too many commas in name 1 of "Staines, A., Balanda, K. P., Barron, S., Corcoran, Y., Fahy, L., Gallagher, L., Greally, T., Kilroe, J., Mohan, C. M., Matthews, A., McGovern, E., Nicholson, A., O'Farrell, A., Philip, R. K., & Whelton, H." for entry aidan5
while executing---line 1277 of file dcu.bst
Too many commas in name 1 of "Staines, A., Balanda, K. P., Barron, S., Corcoran, Y., Fahy, L., Gallagher, L., Greally, T., Kilroe, J., Mohan, C. M., Matthews, A., McGovern, E., Nicholson, A., O'Farrell, A., Philip, R. K., & Whelton, H." for entry aidan5
while executing---line 1277 of file dcu.bst
Too many commas in name 1 of "Staines, A., Balanda, K. P., Barron, S., Corcoran, Y., Fahy, L., Gallagher, L., Greally, T., Kilroe, J., Mohan, C. M., Matthews, A., McGovern, E., Nicholson, A., O'Farrell, A., Philip, R. K., & Whelton, H." for entry aidan5
while executing---line 1277 of file dcu.bst
Too many commas in name 1 of "Staines, A., Balanda, K. P., Barron, S., Corcoran, Y., Fahy, L., Gallagher, L., Greally, T., Kilroe, J., Mohan, C. M., Matthews, A., McGovern, E., Nicholson, A., O'Farrell, A., Philip, R. K., & Whelton, H." for entry aidan5
while executing---line 1277 of file dcu.bst
Too many commas in name 1 of "Staines, A., Balanda, K. P., Barron, S., Corcoran, Y., Fahy, L., Gallagher, L., Greally, T., Kilroe, J., Mohan, C. M., Matthews, A., McGovern, E., Nicholson, A., O'Farrell, A., Philip, R. K., & Whelton, H." for entry aidan5
while executing---line 1277 of file dcu.bst
Too many commas in name 1 of "Staines, A., Balanda, K. P., Barron, S., Corcoran, Y., Fahy, L., Gallagher, L., Greally, T., Kilroe, J., Mohan, C. M., Matthews, A., McGovern, E., Nicholson, A., O'Farrell, A., Philip, R. K., & Whelton, H." for entry aidan5
while executing---line 1277 of file dcu.bst
Too many commas in name 1 of "Staines, A., Balanda, K. P., Barron, S., Corcoran, Y., Fahy, L., Gallagher, L., Greally, T., Kilroe, J., Mohan, C. M., Matthews, A., McGovern, E., Nicholson, A., O'Farrell, A., Philip, R. K., & Whelton, H." for entry aidan5
while executing---line 1277 of file dcu.bst
Too many commas in name 1 of "Staines, A., Balanda, K. P., Barron, S., Corcoran, Y., Fahy, L., Gallagher, L., Greally, T., Kilroe, J., Mohan, C. M., Matthews, A., McGovern, E., Nicholson, A., O'Farrell, A., Philip, R. K., & Whelton, H." for entry aidan5
while executing---line 1277 of file dcu.bst
Too many commas in name 1 of "Staines, A., Balanda, K. P., Barron, S., Corcoran, Y., Fahy, L., Gallagher, L., Greally, T., Kilroe, J., Mohan, C. M., Matthews, A., McGovern, E., Nicholson, A., O'Farrell, A., Philip, R. K., & Whelton, H." for entry aidan5
while executing---line 1277 of file dcu.bst
Too many commas in name 1 of "Staines, A., Balanda, K. P., Barron, S., Corcoran, Y., Fahy, L., Gallagher, L., Greally, T., Kilroe, J., Mohan, C. M., Matthews, A., McGovern, E., Nicholson, A., O'Farrell, A., Philip, R. K., & Whelton, H." for entry aidan5
while executing---line 1277 of file dcu.bst
Too many commas in name 1 of "Staines, A., Balanda, K. P., Barron, S., Corcoran, Y., Fahy, L., Gallagher, L., Greally, T., Kilroe, J., Mohan, C. M., Matthews, A., McGovern, E., Nicholson, A., O'Farrell, A., Philip, R. K., & Whelton, H." for entry aidan5
while executing---line 1277 of file dcu.bst
Too many commas in name 1 of "Staines, A., Balanda, K. P., Barron, S., Corcoran, Y., Fahy, L., Gallagher, L., Greally, T., Kilroe, J., Mohan, C. M., Matthews, A., McGovern, E., Nicholson, A., O'Farrell, A., Philip, R. K., & Whelton, H." for entry aidan5
while executing---line 1277 of file dcu.bst
Too many commas in name 1 of "Staines, A., Balanda, K. P., Barron, S., Corcoran, Y., Fahy, L., Gallagher, L., Greally, T., Kilroe, J., Mohan, C. M., Matthews, A., McGovern, E., Nicholson, A., O'Farrell, A., Philip, R. K., & Whelton, H." for entry aidan5
while executing---line 1277 of file dcu.bst
Too many commas in name 1 of "Staines, A., Balanda, K. P., Barron, S., Corcoran, Y., Fahy, L., Gallagher, L., Greally, T., Kilroe, J., Mohan, C. M., Matthews, A., McGovern, E., Nicholson, A., O'Farrell, A., Philip, R. K., & Whelton, H." for entry aidan5
while executing---line 1309 of file dcu.bst
Too many commas in name 1 of "Staines, A., Balanda, K. P., Barron, S., Corcoran, Y., Fahy, L., Gallagher, L., Greally, T., Kilroe, J., Mohan, C. M., Matthews, A., McGovern, E., Nicholson, A., O'Farrell, A., Philip, R. K., & Whelton, H." for entry aidan5
while executing---line 1309 of file dcu.bst
Too many commas in name 1 of "Staines, A., Balanda, K. P., Barron, S., Corcoran, Y., Fahy, L., Gallagher, L., Greally, T., Kilroe, J., Mohan, C. M., Matthews, A., McGovern, E., Nicholson, A., O'Farrell, A., Philip, R. K., & Whelton, H." for entry aidan5
while executing---line 1309 of file dcu.bst
Too many commas in name 1 of "Staines, A., Balanda, K. P., Barron, S., Corcoran, Y., Fahy, L., Gallagher, L., Greally, T., Kilroe, J., Mohan, C. M., Matthews, A., McGovern, E., Nicholson, A., O'Farrell, A., Philip, R. K., & Whelton, H." for entry aidan5
while executing---line 1309 of file dcu.bst
Too many commas in name 1 of "Staines, A., Balanda, K. P., Barron, S., Corcoran, Y., Fahy, L., Gallagher, L., Greally, T., Kilroe, J., Mohan, C. M., Matthews, A., McGovern, E., Nicholson, A., O'Farrell, A., Philip, R. K., & Whelton, H." for entry aidan5
while executing---line 1309 of file dcu.bst
Too many commas in name 1 of "Staines, A., Balanda, K. P., Barron, S., Corcoran, Y., Fahy, L., Gallagher, L., Greally, T., Kilroe, J., Mohan, C. M., Matthews, A., McGovern, E., Nicholson, A., O'Farrell, A., Philip, R. K., & Whelton, H." for entry aidan5
while executing---line 1309 of file dcu.bst
Too many commas in name 1 of "Staines, A., Balanda, K. P., Barron, S., Corcoran, Y., Fahy, L., Gallagher, L., Greally, T., Kilroe, J., Mohan, C. M., Matthews, A., McGovern, E., Nicholson, A., O'Farrell, A., Philip, R. K., & Whelton, H." for entry aidan5
while executing---line 1309 of file dcu.bst
Too many commas in name 1 of "Staines, A., Balanda, K. P., Barron, S., Corcoran, Y., Fahy, L., Gallagher, L., Greally, T., Kilroe, J., Mohan, C. M., Matthews, A., McGovern, E., Nicholson, A., O'Farrell, A., Philip, R. K., & Whelton, H." for entry aidan5
while executing---line 1309 of file dcu.bst
Too many commas in name 1 of "Staines, A., Balanda, K. P., Barron, S., Corcoran, Y., Fahy, L., Gallagher, L., Greally, T., Kilroe, J., Mohan, C. M., Matthews, A., McGovern, E., Nicholson, A., O'Farrell, A., Philip, R. K., & Whelton, H." for entry aidan5
while executing---line 1309 of file dcu.bst
Too many commas in name 1 of "Staines, A., Balanda, K. P., Barron, S., Corcoran, Y., Fahy, L., Gallagher, L., Greally, T., Kilroe, J., Mohan, C. M., Matthews, A., McGovern, E., Nicholson, A., O'Farrell, A., Philip, R. K., & Whelton, H." for entry aidan5
while executing---line 1309 of file dcu.bst
Too many commas in name 1 of "Staines, A., Balanda, K. P., Barron, S., Corcoran, Y., Fahy, L., Gallagher, L., Greally, T., Kilroe, J., Mohan, C. M., Matthews, A., McGovern, E., Nicholson, A., O'Farrell, A., Philip, R. K., & Whelton, H." for entry aidan5
while executing---line 1309 of file dcu.bst
Too many commas in name 1 of "Staines, A., Balanda, K. P., Barron, S., Corcoran, Y., Fahy, L., Gallagher, L., Greally, T., Kilroe, J., Mohan, C. M., Matthews, A., McGovern, E., Nicholson, A., O'Farrell, A., Philip, R. K., & Whelton, H." for entry aidan5
while executing---line 1309 of file dcu.bst
Too many commas in name 1 of "Staines, A., Balanda, K. P., Barron, S., Corcoran, Y., Fahy, L., Gallagher, L., Greally, T., Kilroe, J., Mohan, C. M., Matthews, A., McGovern, E., Nicholson, A., O'Farrell, A., Philip, R. K., & Whelton, H." for entry aidan5
while executing---line 1309 of file dcu.bst
Too many commas in name 1 of "Staines, A., Balanda, K. P., Barron, S., Corcoran, Y., Fahy, L., Gallagher, L., Greally, T., Kilroe, J., Mohan, C. M., Matthews, A., McGovern, E., Nicholson, A., O'Farrell, A., Philip, R. K., & Whelton, H." for entry aidan5
while executing---line 1309 of file dcu.bst
Too many commas in name 1 of "Staines, A., Balanda, K. P., Barron, S., Corcoran, Y., Fahy, L., Gallagher, L., Greally, T., Kilroe, J., Mohan, C. M., Matthews, A., McGovern, E., Nicholson, A., O'Farrell, A., Philip, R. K., & Whelton, H." for entry aidan5
while executing---line 1309 of file dcu.bst
Too many commas in name 1 of "Staines, A., Balanda, K. P., Barron, S., Corcoran, Y., Fahy, L., Gallagher, L., Greally, T., Kilroe, J., Mohan, C. M., Matthews, A., McGovern, E., Nicholson, A., O'Farrell, A., Philip, R. K., & Whelton, H." for entry aidan5
while executing---line 1309 of file dcu.bst
Too many commas in name 1 of "Staines, A., Balanda, K. P., Barron, S., Corcoran, Y., Fahy, L., Gallagher, L., Greally, T., Kilroe, J., Mohan, C. M., Matthews, A., McGovern, E., Nicholson, A., O'Farrell, A., Philip, R. K., & Whelton, H." for entry aidan5
while executing---line 1309 of file dcu.bst
Too many commas in name 1 of "Staines, A., Balanda, K. P., Barron, S., Corcoran, Y., Fahy, L., Gallagher, L., Greally, T., Kilroe, J., Mohan, C. M., Matthews, A., McGovern, E., Nicholson, A., O'Farrell, A., Philip, R. K., & Whelton, H." for entry aidan5
while executing---line 1309 of file dcu.bst
Too many commas in name 1 of "Staines, A., Balanda, K. P., Barron, S., Corcoran, Y., Fahy, L., Gallagher, L., Greally, T., Kilroe, J., Mohan, C. M., Matthews, A., McGovern, E., Nicholson, A., O'Farrell, A., Philip, R. K., & Whelton, H." for entry aidan5
while executing---line 1309 of file dcu.bst
Too many commas in name 1 of "Staines, A., Balanda, K. P., Barron, S., Corcoran, Y., Fahy, L., Gallagher, L., Greally, T., Kilroe, J., Mohan, C. M., Matthews, A., McGovern, E., Nicholson, A., O'Farrell, A., Philip, R. K., & Whelton, H." for entry aidan5
while executing---line 1309 of file dcu.bst
Too many commas in name 1 of "Staines, A., Balanda, K. P., Barron, S., Corcoran, Y., Fahy, L., Gallagher, L., Greally, T., Kilroe, J., Mohan, C. M., Matthews, A., McGovern, E., Nicholson, A., O'Farrell, A., Philip, R. K., & Whelton, H." for entry aidan5
while executing---line 1309 of file dcu.bst
Too many commas in name 1 of "Staines, A., Balanda, K. P., Barron, S., Corcoran, Y., Fahy, L., Gallagher, L., Greally, T., Kilroe, J., Mohan, C. M., Matthews, A., McGovern, E., Nicholson, A., O'Farrell, A., Philip, R. K., & Whelton, H." for entry aidan5
while executing---line 1309 of file dcu.bst
Too many commas in name 1 of "Staines, A., Balanda, K. P., Barron, S., Corcoran, Y., Fahy, L., Gallagher, L., Greally, T., Kilroe, J., Mohan, C. M., Matthews, A., McGovern, E., Nicholson, A., O'Farrell, A., Philip, R. K., & Whelton, H." for entry aidan5
while executing---line 1309 of file dcu.bst
Too many commas in name 1 of "Staines, A., Balanda, K. P., Barron, S., Corcoran, Y., Fahy, L., Gallagher, L., Greally, T., Kilroe, J., Mohan, C. M., Matthews, A., McGovern, E., Nicholson, A., O'Farrell, A., Philip, R. K., & Whelton, H." for entry aidan5
while executing---line 1309 of file dcu.bst
Too many commas in name 1 of "Staines, A., Balanda, K. P., Barron, S., Corcoran, Y., Fahy, L., Gallagher, L., Greally, T., Kilroe, J., Mohan, C. M., Matthews, A., McGovern, E., Nicholson, A., O'Farrell, A., Philip, R. K., & Whelton, H." for entry aidan5
while executing---line 1309 of file dcu.bst
Too many commas in name 1 of "Staines, A., Balanda, K. P., Barron, S., Corcoran, Y., Fahy, L., Gallagher, L., Greally, T., Kilroe, J., Mohan, C. M., Matthews, A., McGovern, E., Nicholson, A., O'Farrell, A., Philip, R. K., & Whelton, H." for entry aidan5
while executing---line 1309 of file dcu.bst
Too many commas in name 1 of "Staines, A., Balanda, K. P., Barron, S., Corcoran, Y., Fahy, L., Gallagher, L., Greally, T., Kilroe, J., Mohan, C. M., Matthews, A., McGovern, E., Nicholson, A., O'Farrell, A., Philip, R. K., & Whelton, H." for entry aidan5
while executing---line 1309 of file dcu.bst
Too many commas in name 1 of "Staines, A., Balanda, K. P., Barron, S., Corcoran, Y., Fahy, L., Gallagher, L., Greally, T., Kilroe, J., Mohan, C. M., Matthews, A., McGovern, E., Nicholson, A., O'Farrell, A., Philip, R. K., & Whelton, H." for entry aidan5
while executing---line 1309 of file dcu.bst
Too many commas in name 1 of "Staines, A., Balanda, K. P., Barron, S., Corcoran, Y., Fahy, L., Gallagher, L., Greally, T., Kilroe, J., Mohan, C. M., Matthews, A., McGovern, E., Nicholson, A., O'Farrell, A., Philip, R. K., & Whelton, H." for entry aidan5
while executing---line 1309 of file dcu.bst
Too many commas in name 1 of "Staines, A., Balanda, K. P., Barron, S., Corcoran, Y., Fahy, L., Gallagher, L., Greally, T., Kilroe, J., Mohan, C. M., Matthews, A., McGovern, E., Nicholson, A., O'Farrell, A., Philip, R. K., & Whelton, H." for entry aidan5
while executing---line 1309 of file dcu.bst
Too many commas in name 1 of "Staines, A., Balanda, K. P., Barron, S., Corcoran, Y., Fahy, L., Gallagher, L., Greally, T., Kilroe, J., Mohan, C. M., Matthews, A., McGovern, E., Nicholson, A., O'Farrell, A., Philip, R. K., & Whelton, H." for entry aidan5
while executing---line 1309 of file dcu.bst
Too many commas in name 1 of "Staines, A., Balanda, K. P., Barron, S., Corcoran, Y., Fahy, L., Gallagher, L., Greally, T., Kilroe, J., Mohan, C. M., Matthews, A., McGovern, E., Nicholson, A., O'Farrell, A., Philip, R. K., & Whelton, H." for entry aidan5
while executing---line 1309 of file dcu.bst
Too many commas in name 1 of "Staines, A., Balanda, K. P., Barron, S., Corcoran, Y., Fahy, L., Gallagher, L., Greally, T., Kilroe, J., Mohan, C. M., Matthews, A., McGovern, E., Nicholson, A., O'Farrell, A., Philip, R. K., & Whelton, H." for entry aidan5
while executing---line 1309 of file dcu.bst
Too many commas in name 1 of "Staines, A., Balanda, K. P., Barron, S., Corcoran, Y., Fahy, L., Gallagher, L., Greally, T., Kilroe, J., Mohan, C. M., Matthews, A., McGovern, E., Nicholson, A., O'Farrell, A., Philip, R. K., & Whelton, H." for entry aidan5
while executing---line 1309 of file dcu.bst
Too many commas in name 1 of "Staines, A., Balanda, K. P., Barron, S., Corcoran, Y., Fahy, L., Gallagher, L., Greally, T., Kilroe, J., Mohan, C. M., Matthews, A., McGovern, E., Nicholson, A., O'Farrell, A., Philip, R. K., & Whelton, H." for entry aidan5
while executing---line 1309 of file dcu.bst
Too many commas in name 1 of "Staines, A., Balanda, K. P., Barron, S., Corcoran, Y., Fahy, L., Gallagher, L., Greally, T., Kilroe, J., Mohan, C. M., Matthews, A., McGovern, E., Nicholson, A., O'Farrell, A., Philip, R. K., & Whelton, H." for entry aidan5
while executing---line 1309 of file dcu.bst
Too many commas in name 1 of "Staines, A., Balanda, K. P., Barron, S., Corcoran, Y., Fahy, L., Gallagher, L., Greally, T., Kilroe, J., Mohan, C. M., Matthews, A., McGovern, E., Nicholson, A., O'Farrell, A., Philip, R. K., & Whelton, H." for entry aidan5
while executing---line 1309 of file dcu.bst
Too many commas in name 1 of "Staines, A., Balanda, K. P., Barron, S., Corcoran, Y., Fahy, L., Gallagher, L., Greally, T., Kilroe, J., Mohan, C. M., Matthews, A., McGovern, E., Nicholson, A., O'Farrell, A., Philip, R. K., & Whelton, H." for entry aidan5
while executing---line 1309 of file dcu.bst
Too many commas in name 1 of "Staines, A., Balanda, K. P., Barron, S., Corcoran, Y., Fahy, L., Gallagher, L., Greally, T., Kilroe, J., Mohan, C. M., Matthews, A., McGovern, E., Nicholson, A., O'Farrell, A., Philip, R. K., & Whelton, H." for entry aidan5
while executing---line 1309 of file dcu.bst
Too many commas in name 1 of "Staines, A., Balanda, K. P., Barron, S., Corcoran, Y., Fahy, L., Gallagher, L., Greally, T., Kilroe, J., Mohan, C. M., Matthews, A., McGovern, E., Nicholson, A., O'Farrell, A., Philip, R. K., & Whelton, H." for entry aidan5
while executing---line 1309 of file dcu.bst
Too many commas in name 1 of "Staines, A., Balanda, K. P., Barron, S., Corcoran, Y., Fahy, L., Gallagher, L., Greally, T., Kilroe, J., Mohan, C. M., Matthews, A., McGovern, E., Nicholson, A., O'Farrell, A., Philip, R. K., & Whelton, H." for entry aidan5
while executing---line 1309 of file dcu.bst
Too many commas in name 1 of "Staines, A., Balanda, K. P., Barron, S., Corcoran, Y., Fahy, L., Gallagher, L., Greally, T., Kilroe, J., Mohan, C. M., Matthews, A., McGovern, E., Nicholson, A., O'Farrell, A., Philip, R. K., & Whelton, H." for entry aidan5
while executing---line 1309 of file dcu.bst
Too many commas in name 1 of "Staines, A., Balanda, K. P., Barron, S., Corcoran, Y., Fahy, L., Gallagher, L., Greally, T., Kilroe, J., Mohan, C. M., Matthews, A., McGovern, E., Nicholson, A., O'Farrell, A., Philip, R. K., & Whelton, H." for entry aidan5
while executing---line 1309 of file dcu.bst
Too many commas in name 1 of "Staines, A., Balanda, K. P., Barron, S., Corcoran, Y., Fahy, L., Gallagher, L., Greally, T., Kilroe, J., Mohan, C. M., Matthews, A., McGovern, E., Nicholson, A., O'Farrell, A., Philip, R. K., & Whelton, H." for entry aidan5
while executing---line 1309 of file dcu.bst
Too many commas in name 1 of "Staines, A., Balanda, K. P., Barron, S., Corcoran, Y., Fahy, L., Gallagher, L., Greally, T., Kilroe, J., Mohan, C. M., Matthews, A., McGovern, E., Nicholson, A., O'Farrell, A., Philip, R. K., & Whelton, H." for entry aidan5
while executing---line 1309 of file dcu.bst
Too many commas in name 1 of "Staines, A., Balanda, K. P., Barron, S., Corcoran, Y., Fahy, L., Gallagher, L., Greally, T., Kilroe, J., Mohan, C. M., Matthews, A., McGovern, E., Nicholson, A., O'Farrell, A., Philip, R. K., & Whelton, H." for entry aidan5
while executing---line 1309 of file dcu.bst
Too many commas in name 1 of "Staines, A., Balanda, K. P., Barron, S., Corcoran, Y., Fahy, L., Gallagher, L., Greally, T., Kilroe, J., Mohan, C. M., Matthews, A., McGovern, E., Nicholson, A., O'Farrell, A., Philip, R. K., & Whelton, H." for entry aidan5
while executing---line 1309 of file dcu.bst
Too many commas in name 1 of "Staines, A., Balanda, K. P., Barron, S., Corcoran, Y., Fahy, L., Gallagher, L., Greally, T., Kilroe, J., Mohan, C. M., Matthews, A., McGovern, E., Nicholson, A., O'Farrell, A., Philip, R. K., & Whelton, H." for entry aidan5
while executing---line 1309 of file dcu.bst
Too many commas in name 1 of "Staines, A., Balanda, K. P., Barron, S., Corcoran, Y., Fahy, L., Gallagher, L., Greally, T., Kilroe, J., Mohan, C. M., Matthews, A., McGovern, E., Nicholson, A., O'Farrell, A., Philip, R. K., & Whelton, H." for entry aidan5
while executing---line 1309 of file dcu.bst
Too many commas in name 1 of "Staines, A., Balanda, K. P., Barron, S., Corcoran, Y., Fahy, L., Gallagher, L., Greally, T., Kilroe, J., Mohan, C. M., Matthews, A., McGovern, E., Nicholson, A., O'Farrell, A., Philip, R. K., & Whelton, H." for entry aidan5
while executing---line 1309 of file dcu.bst
Too many commas in name 1 of "Staines, A., Balanda, K. P., Barron, S., Corcoran, Y., Fahy, L., Gallagher, L., Greally, T., Kilroe, J., Mohan, C. M., Matthews, A., McGovern, E., Nicholson, A., O'Farrell, A., Philip, R. K., & Whelton, H." for entry aidan5
while executing---line 1309 of file dcu.bst
Too many commas in name 1 of "Staines, A., Balanda, K. P., Barron, S., Corcoran, Y., Fahy, L., Gallagher, L., Greally, T., Kilroe, J., Mohan, C. M., Matthews, A., McGovern, E., Nicholson, A., O'Farrell, A., Philip, R. K., & Whelton, H." for entry aidan5
while executing---line 1309 of file dcu.bst
Too many commas in name 1 of "Staines, A., Balanda, K. P., Barron, S., Corcoran, Y., Fahy, L., Gallagher, L., Greally, T., Kilroe, J., Mohan, C. M., Matthews, A., McGovern, E., Nicholson, A., O'Farrell, A., Philip, R. K., & Whelton, H." for entry aidan5
while executing---line 1309 of file dcu.bst
Too many commas in name 1 of "Staines, A., Balanda, K. P., Barron, S., Corcoran, Y., Fahy, L., Gallagher, L., Greally, T., Kilroe, J., Mohan, C. M., Matthews, A., McGovern, E., Nicholson, A., O'Farrell, A., Philip, R. K., & Whelton, H." for entry aidan5
while executing---line 1309 of file dcu.bst
Too many commas in name 1 of "Staines, A., Balanda, K. P., Barron, S., Corcoran, Y., Fahy, L., Gallagher, L., Greally, T., Kilroe, J., Mohan, C. M., Matthews, A., McGovern, E., Nicholson, A., O'Farrell, A., Philip, R. K., & Whelton, H." for entry aidan5
while executing---line 1342 of file dcu.bst
Too many commas in name 1 of "Staines, A., Balanda, K. P., Barron, S., Corcoran, Y., Fahy, L., Gallagher, L., Greally, T., Kilroe, J., Mohan, C. M., Matthews, A., McGovern, E., Nicholson, A., O'Farrell, A., Philip, R. K., & Whelton, H." for entry aidan5
while executing---line 1342 of file dcu.bst
Too many commas in name 1 of "Staines, A., Balanda, K. P., Barron, S., Corcoran, Y., Fahy, L., Gallagher, L., Greally, T., Kilroe, J., Mohan, C. M., Matthews, A., McGovern, E., Nicholson, A., O'Farrell, A., Philip, R. K., & Whelton, H." for entry aidan5
while executing---line 1342 of file dcu.bst
Too many commas in name 1 of "Staines, A., Balanda, K. P., Barron, S., Corcoran, Y., Fahy, L., Gallagher, L., Greally, T., Kilroe, J., Mohan, C. M., Matthews, A., McGovern, E., Nicholson, A., O'Farrell, A., Philip, R. K., & Whelton, H." for entry aidan5
while executing---line 1342 of file dcu.bst
Too many commas in name 1 of "Staines, A., Balanda, K. P., Barron, S., Corcoran, Y., Fahy, L., Gallagher, L., Greally, T., Kilroe, J., Mohan, C. M., Matthews, A., McGovern, E., Nicholson, A., O'Farrell, A., Philip, R. K., & Whelton, H." for entry aidan5
while executing---line 1342 of file dcu.bst
Too many commas in name 1 of "Staines, A., Balanda, K. P., Barron, S., Corcoran, Y., Fahy, L., Gallagher, L., Greally, T., Kilroe, J., Mohan, C. M., Matthews, A., McGovern, E., Nicholson, A., O'Farrell, A., Philip, R. K., & Whelton, H." for entry aidan5
while executing---line 1342 of file dcu.bst
Too many commas in name 1 of "Staines, A., Balanda, K. P., Barron, S., Corcoran, Y., Fahy, L., Gallagher, L., Greally, T., Kilroe, J., Mohan, C. M., Matthews, A., McGovern, E., Nicholson, A., O'Farrell, A., Philip, R. K., & Whelton, H." for entry aidan5
while executing---line 1342 of file dcu.bst
Too many commas in name 1 of "Staines, A., Balanda, K. P., Barron, S., Corcoran, Y., Fahy, L., Gallagher, L., Greally, T., Kilroe, J., Mohan, C. M., Matthews, A., McGovern, E., Nicholson, A., O'Farrell, A., Philip, R. K., & Whelton, H." for entry aidan5
while executing---line 1342 of file dcu.bst
Too many commas in name 1 of "Staines, A., Balanda, K. P., Barron, S., Corcoran, Y., Fahy, L., Gallagher, L., Greally, T., Kilroe, J., Mohan, C. M., Matthews, A., McGovern, E., Nicholson, A., O'Farrell, A., Philip, R. K., & Whelton, H." for entry aidan5
while executing---line 1342 of file dcu.bst
Too many commas in name 1 of "Staines, A., Balanda, K. P., Barron, S., Corcoran, Y., Fahy, L., Gallagher, L., Greally, T., Kilroe, J., Mohan, C. M., Matthews, A., McGovern, E., Nicholson, A., O'Farrell, A., Philip, R. K., & Whelton, H." for entry aidan5
while executing---line 1342 of file dcu.bst
Too many commas in name 1 of "Staines, A., Balanda, K. P., Barron, S., Corcoran, Y., Fahy, L., Gallagher, L., Greally, T., Kilroe, J., Mohan, C. M., Matthews, A., McGovern, E., Nicholson, A., O'Farrell, A., Philip, R. K., & Whelton, H." for entry aidan5
while executing---line 1342 of file dcu.bst
Too many commas in name 1 of "Staines, A., Balanda, K. P., Barron, S., Corcoran, Y., Fahy, L., Gallagher, L., Greally, T., Kilroe, J., Mohan, C. M., Matthews, A., McGovern, E., Nicholson, A., O'Farrell, A., Philip, R. K., & Whelton, H." for entry aidan5
while executing---line 1342 of file dcu.bst
Too many commas in name 1 of "Staines, A., Balanda, K. P., Barron, S., Corcoran, Y., Fahy, L., Gallagher, L., Greally, T., Kilroe, J., Mohan, C. M., Matthews, A., McGovern, E., Nicholson, A., O'Farrell, A., Philip, R. K., & Whelton, H." for entry aidan5
while executing---line 1342 of file dcu.bst
Too many commas in name 1 of "Staines, A., Balanda, K. P., Barron, S., Corcoran, Y., Fahy, L., Gallagher, L., Greally, T., Kilroe, J., Mohan, C. M., Matthews, A., McGovern, E., Nicholson, A., O'Farrell, A., Philip, R. K., & Whelton, H." for entry aidan5
while executing---line 1342 of file dcu.bst
Too many commas in name 1 of "Staines, A., Balanda, K. P., Barron, S., Corcoran, Y., Fahy, L., Gallagher, L., Greally, T., Kilroe, J., Mohan, C. M., Matthews, A., McGovern, E., Nicholson, A., O'Farrell, A., Philip, R. K., & Whelton, H." for entry aidan5
while executing---line 1342 of file dcu.bst
Too many commas in name 1 of "Staines, A., Balanda, K. P., Barron, S., Corcoran, Y., Fahy, L., Gallagher, L., Greally, T., Kilroe, J., Mohan, C. M., Matthews, A., McGovern, E., Nicholson, A., O'Farrell, A., Philip, R. K., & Whelton, H." for entry aidan5
while executing---line 1342 of file dcu.bst
Too many commas in name 1 of "Staines, A., Balanda, K. P., Barron, S., Corcoran, Y., Fahy, L., Gallagher, L., Greally, T., Kilroe, J., Mohan, C. M., Matthews, A., McGovern, E., Nicholson, A., O'Farrell, A., Philip, R. K., & Whelton, H." for entry aidan5
while executing---line 1342 of file dcu.bst
Too many commas in name 1 of "Staines, A., Balanda, K. P., Barron, S., Corcoran, Y., Fahy, L., Gallagher, L., Greally, T., Kilroe, J., Mohan, C. M., Matthews, A., McGovern, E., Nicholson, A., O'Farrell, A., Philip, R. K., & Whelton, H." for entry aidan5
while executing---line 1342 of file dcu.bst
Too many commas in name 1 of "Staines, A., Balanda, K. P., Barron, S., Corcoran, Y., Fahy, L., Gallagher, L., Greally, T., Kilroe, J., Mohan, C. M., Matthews, A., McGovern, E., Nicholson, A., O'Farrell, A., Philip, R. K., & Whelton, H." for entry aidan5
while executing---line 1342 of file dcu.bst
Too many commas in name 1 of "Staines, A., Balanda, K. P., Barron, S., Corcoran, Y., Fahy, L., Gallagher, L., Greally, T., Kilroe, J., Mohan, C. M., Matthews, A., McGovern, E., Nicholson, A., O'Farrell, A., Philip, R. K., & Whelton, H." for entry aidan5
while executing---line 1342 of file dcu.bst
Too many commas in name 1 of "Staines, A., Balanda, K. P., Barron, S., Corcoran, Y., Fahy, L., Gallagher, L., Greally, T., Kilroe, J., Mohan, C. M., Matthews, A., McGovern, E., Nicholson, A., O'Farrell, A., Philip, R. K., & Whelton, H." for entry aidan5
while executing---line 1342 of file dcu.bst
Too many commas in name 1 of "Staines, A., Balanda, K. P., Barron, S., Corcoran, Y., Fahy, L., Gallagher, L., Greally, T., Kilroe, J., Mohan, C. M., Matthews, A., McGovern, E., Nicholson, A., O'Farrell, A., Philip, R. K., & Whelton, H." for entry aidan5
while executing---line 1342 of file dcu.bst
Too many commas in name 1 of "Staines, A., Balanda, K. P., Barron, S., Corcoran, Y., Fahy, L., Gallagher, L., Greally, T., Kilroe, J., Mohan, C. M., Matthews, A., McGovern, E., Nicholson, A., O'Farrell, A., Philip, R. K., & Whelton, H." for entry aidan5
while executing---line 1342 of file dcu.bst
Too many commas in name 1 of "Staines, A., Balanda, K. P., Barron, S., Corcoran, Y., Fahy, L., Gallagher, L., Greally, T., Kilroe, J., Mohan, C. M., Matthews, A., McGovern, E., Nicholson, A., O'Farrell, A., Philip, R. K., & Whelton, H." for entry aidan5
while executing---line 1342 of file dcu.bst
Too many commas in name 1 of "Staines, A., Balanda, K. P., Barron, S., Corcoran, Y., Fahy, L., Gallagher, L., Greally, T., Kilroe, J., Mohan, C. M., Matthews, A., McGovern, E., Nicholson, A., O'Farrell, A., Philip, R. K., & Whelton, H." for entry aidan5
while executing---line 1342 of file dcu.bst
Too many commas in name 1 of "Staines, A., Balanda, K. P., Barron, S., Corcoran, Y., Fahy, L., Gallagher, L., Greally, T., Kilroe, J., Mohan, C. M., Matthews, A., McGovern, E., Nicholson, A., O'Farrell, A., Philip, R. K., & Whelton, H." for entry aidan5
while executing---line 1342 of file dcu.bst
Too many commas in name 1 of "Staines, A., Balanda, K. P., Barron, S., Corcoran, Y., Fahy, L., Gallagher, L., Greally, T., Kilroe, J., Mohan, C. M., Matthews, A., McGovern, E., Nicholson, A., O'Farrell, A., Philip, R. K., & Whelton, H." for entry aidan5
while executing---line 1342 of file dcu.bst
Too many commas in name 1 of "Staines, A., Balanda, K. P., Barron, S., Corcoran, Y., Fahy, L., Gallagher, L., Greally, T., Kilroe, J., Mohan, C. M., Matthews, A., McGovern, E., Nicholson, A., O'Farrell, A., Philip, R. K., & Whelton, H." for entry aidan5
while executing---line 1361 of file dcu.bst
Too many commas in name 1 of "Staines, A., Balanda, K. P., Barron, S., Corcoran, Y., Fahy, L., Gallagher, L., Greally, T., Kilroe, J., Mohan, C. M., Matthews, A., McGovern, E., Nicholson, A., O'Farrell, A., Philip, R. K., & Whelton, H." for entry aidan5
while executing---line 1361 of file dcu.bst
Too many commas in name 1 of "Staines, A., Balanda, K. P., Barron, S., Corcoran, Y., Fahy, L., Gallagher, L., Greally, T., Kilroe, J., Mohan, C. M., Matthews, A., McGovern, E., Nicholson, A., O'Farrell, A., Philip, R. K., & Whelton, H." for entry aidan5
while executing---line 1361 of file dcu.bst
Too many commas in name 1 of "Staines, A., Balanda, K. P., Barron, S., Corcoran, Y., Fahy, L., Gallagher, L., Greally, T., Kilroe, J., Mohan, C. M., Matthews, A., McGovern, E., Nicholson, A., O'Farrell, A., Philip, R. K., & Whelton, H." for entry aidan5
while executing---line 1361 of file dcu.bst
Too many commas in name 1 of "Staines, A., Balanda, K. P., Barron, S., Corcoran, Y., Fahy, L., Gallagher, L., Greally, T., Kilroe, J., Mohan, C. M., Matthews, A., McGovern, E., Nicholson, A., O'Farrell, A., Philip, R. K., & Whelton, H." for entry aidan5
while executing---line 1361 of file dcu.bst
Too many commas in name 1 of "Staines, A., Balanda, K. P., Barron, S., Corcoran, Y., Fahy, L., Gallagher, L., Greally, T., Kilroe, J., Mohan, C. M., Matthews, A., McGovern, E., Nicholson, A., O'Farrell, A., Philip, R. K., & Whelton, H." for entry aidan5
while executing---line 1361 of file dcu.bst
Too many commas in name 1 of "Staines, A., Balanda, K. P., Barron, S., Corcoran, Y., Fahy, L., Gallagher, L., Greally, T., Kilroe, J., Mohan, C. M., Matthews, A., McGovern, E., Nicholson, A., O'Farrell, A., Philip, R. K., & Whelton, H." for entry aidan5
while executing---line 1361 of file dcu.bst
Too many commas in name 1 of "Staines, A., Balanda, K. P., Barron, S., Corcoran, Y., Fahy, L., Gallagher, L., Greally, T., Kilroe, J., Mohan, C. M., Matthews, A., McGovern, E., Nicholson, A., O'Farrell, A., Philip, R. K., & Whelton, H." for entry aidan5
while executing---line 1361 of file dcu.bst
Too many commas in name 1 of "Staines, A., Balanda, K. P., Barron, S., Corcoran, Y., Fahy, L., Gallagher, L., Greally, T., Kilroe, J., Mohan, C. M., Matthews, A., McGovern, E., Nicholson, A., O'Farrell, A., Philip, R. K., & Whelton, H." for entry aidan5
while executing---line 1361 of file dcu.bst
Too many commas in name 1 of "Staines, A., Balanda, K. P., Barron, S., Corcoran, Y., Fahy, L., Gallagher, L., Greally, T., Kilroe, J., Mohan, C. M., Matthews, A., McGovern, E., Nicholson, A., O'Farrell, A., Philip, R. K., & Whelton, H." for entry aidan5
while executing---line 1361 of file dcu.bst
Too many commas in name 1 of "Staines, A., Balanda, K. P., Barron, S., Corcoran, Y., Fahy, L., Gallagher, L., Greally, T., Kilroe, J., Mohan, C. M., Matthews, A., McGovern, E., Nicholson, A., O'Farrell, A., Philip, R. K., & Whelton, H." for entry aidan5
while executing---line 1361 of file dcu.bst
Too many commas in name 1 of "Staines, A., Balanda, K. P., Barron, S., Corcoran, Y., Fahy, L., Gallagher, L., Greally, T., Kilroe, J., Mohan, C. M., Matthews, A., McGovern, E., Nicholson, A., O'Farrell, A., Philip, R. K., & Whelton, H." for entry aidan5
while executing---line 1361 of file dcu.bst
Too many commas in name 1 of "Staines, A., Balanda, K. P., Barron, S., Corcoran, Y., Fahy, L., Gallagher, L., Greally, T., Kilroe, J., Mohan, C. M., Matthews, A., McGovern, E., Nicholson, A., O'Farrell, A., Philip, R. K., & Whelton, H." for entry aidan5
while executing---line 1361 of file dcu.bst
Too many commas in name 1 of "Staines, A., Balanda, K. P., Barron, S., Corcoran, Y., Fahy, L., Gallagher, L., Greally, T., Kilroe, J., Mohan, C. M., Matthews, A., McGovern, E., Nicholson, A., O'Farrell, A., Philip, R. K., & Whelton, H." for entry aidan5
while executing---line 1361 of file dcu.bst
Too many commas in name 1 of "Staines, A., Balanda, K. P., Barron, S., Corcoran, Y., Fahy, L., Gallagher, L., Greally, T., Kilroe, J., Mohan, C. M., Matthews, A., McGovern, E., Nicholson, A., O'Farrell, A., Philip, R. K., & Whelton, H." for entry aidan5
while executing---line 1361 of file dcu.bst
Too many commas in name 1 of "Staines, A., Balanda, K. P., Barron, S., Corcoran, Y., Fahy, L., Gallagher, L., Greally, T., Kilroe, J., Mohan, C. M., Matthews, A., McGovern, E., Nicholson, A., O'Farrell, A., Philip, R. K., & Whelton, H." for entry aidan5
while executing---line 1361 of file dcu.bst
Too many commas in name 1 of "Staines, A., Balanda, K. P., Barron, S., Corcoran, Y., Fahy, L., Gallagher, L., Greally, T., Kilroe, J., Mohan, C. M., Matthews, A., McGovern, E., Nicholson, A., O'Farrell, A., Philip, R. K., & Whelton, H." for entry aidan5
while executing---line 1361 of file dcu.bst
Too many commas in name 1 of "Staines, A., Balanda, K. P., Barron, S., Corcoran, Y., Fahy, L., Gallagher, L., Greally, T., Kilroe, J., Mohan, C. M., Matthews, A., McGovern, E., Nicholson, A., O'Farrell, A., Philip, R. K., & Whelton, H." for entry aidan5
while executing---line 1361 of file dcu.bst
Too many commas in name 1 of "Staines, A., Balanda, K. P., Barron, S., Corcoran, Y., Fahy, L., Gallagher, L., Greally, T., Kilroe, J., Mohan, C. M., Matthews, A., McGovern, E., Nicholson, A., O'Farrell, A., Philip, R. K., & Whelton, H." for entry aidan5
while executing---line 1361 of file dcu.bst
Too many commas in name 1 of "Staines, A., Balanda, K. P., Barron, S., Corcoran, Y., Fahy, L., Gallagher, L., Greally, T., Kilroe, J., Mohan, C. M., Matthews, A., McGovern, E., Nicholson, A., O'Farrell, A., Philip, R. K., & Whelton, H." for entry aidan5
while executing---line 1361 of file dcu.bst
Too many commas in name 1 of "Staines, A., Balanda, K. P., Barron, S., Corcoran, Y., Fahy, L., Gallagher, L., Greally, T., Kilroe, J., Mohan, C. M., Matthews, A., McGovern, E., Nicholson, A., O'Farrell, A., Philip, R. K., & Whelton, H." for entry aidan5
while executing---line 1361 of file dcu.bst
Too many commas in name 1 of "Staines, A., Balanda, K. P., Barron, S., Corcoran, Y., Fahy, L., Gallagher, L., Greally, T., Kilroe, J., Mohan, C. M., Matthews, A., McGovern, E., Nicholson, A., O'Farrell, A., Philip, R. K., & Whelton, H." for entry aidan5
while executing---line 1361 of file dcu.bst
Too many commas in name 1 of "Staines, A., Balanda, K. P., Barron, S., Corcoran, Y., Fahy, L., Gallagher, L., Greally, T., Kilroe, J., Mohan, C. M., Matthews, A., McGovern, E., Nicholson, A., O'Farrell, A., Philip, R. K., & Whelton, H." for entry aidan5
while executing---line 1361 of file dcu.bst
Too many commas in name 1 of "Staines, A., Balanda, K. P., Barron, S., Corcoran, Y., Fahy, L., Gallagher, L., Greally, T., Kilroe, J., Mohan, C. M., Matthews, A., McGovern, E., Nicholson, A., O'Farrell, A., Philip, R. K., & Whelton, H." for entry aidan5
while executing---line 1361 of file dcu.bst
Too many commas in name 1 of "Staines, A., Balanda, K. P., Barron, S., Corcoran, Y., Fahy, L., Gallagher, L., Greally, T., Kilroe, J., Mohan, C. M., Matthews, A., McGovern, E., Nicholson, A., O'Farrell, A., Philip, R. K., & Whelton, H." for entry aidan5
while executing---line 1361 of file dcu.bst
Too many commas in name 1 of "Staines, A., Balanda, K. P., Barron, S., Corcoran, Y., Fahy, L., Gallagher, L., Greally, T., Kilroe, J., Mohan, C. M., Matthews, A., McGovern, E., Nicholson, A., O'Farrell, A., Philip, R. K., & Whelton, H." for entry aidan5
while executing---line 1361 of file dcu.bst
Too many commas in name 1 of "Staines, A., Balanda, K. P., Barron, S., Corcoran, Y., Fahy, L., Gallagher, L., Greally, T., Kilroe, J., Mohan, C. M., Matthews, A., McGovern, E., Nicholson, A., O'Farrell, A., Philip, R. K., & Whelton, H." for entry aidan5
while executing---line 1361 of file dcu.bst
Too many commas in name 1 of "Staines, A., Balanda, K. P., Barron, S., Corcoran, Y., Fahy, L., Gallagher, L., Greally, T., Kilroe, J., Mohan, C. M., Matthews, A., McGovern, E., Nicholson, A., O'Farrell, A., Philip, R. K., & Whelton, H." for entry aidan5
while executing---line 1361 of file dcu.bst
Too many commas in name 1 of "Staines, A., Balanda, K. P., Barron, S., Corcoran, Y., Fahy, L., Gallagher, L., Greally, T., Kilroe, J., Mohan, C. M., Matthews, A., McGovern, E., Nicholson, A., O'Farrell, A., Philip, R. K., & Whelton, H." for entry aidan5
while executing---line 1361 of file dcu.bst
Too many commas in name 1 of "Staines, A., Balanda, K. P., Barron, S., Corcoran, Y., Fahy, L., Gallagher, L., Greally, T., Kilroe, J., Mohan, C. M., Matthews, A., McGovern, E., Nicholson, A., O'Farrell, A., Philip, R. K., & Whelton, H." for entry aidan5
while executing---line 1361 of file dcu.bst
Too many commas in name 1 of "Staines, A., Balanda, K. P., Barron, S., Corcoran, Y., Fahy, L., Gallagher, L., Greally, T., Kilroe, J., Mohan, C. M., Matthews, A., McGovern, E., Nicholson, A., O'Farrell, A., Philip, R. K., & Whelton, H." for entry aidan5
while executing---line 1361 of file dcu.bst
Too many commas in name 1 of "Staines, A., Balanda, K. P., Barron, S., Corcoran, Y., Fahy, L., Gallagher, L., Greally, T., Kilroe, J., Mohan, C. M., Matthews, A., McGovern, E., Nicholson, A., O'Farrell, A., Philip, R. K., & Whelton, H." for entry aidan5
while executing---line 1361 of file dcu.bst
Too many commas in name 1 of "Staines, A., Balanda, K. P., Barron, S., Corcoran, Y., Fahy, L., Gallagher, L., Greally, T., Kilroe, J., Mohan, C. M., Matthews, A., McGovern, E., Nicholson, A., O'Farrell, A., Philip, R. K., & Whelton, H." for entry aidan5
while executing---line 1361 of file dcu.bst
Too many commas in name 1 of "Staines, A., Balanda, K. P., Barron, S., Corcoran, Y., Fahy, L., Gallagher, L., Greally, T., Kilroe, J., Mohan, C. M., Matthews, A., McGovern, E., Nicholson, A., O'Farrell, A., Philip, R. K., & Whelton, H." for entry aidan5
while executing---line 1361 of file dcu.bst
Too many commas in name 1 of "Staines, A., Balanda, K. P., Barron, S., Corcoran, Y., Fahy, L., Gallagher, L., Greally, T., Kilroe, J., Mohan, C. M., Matthews, A., McGovern, E., Nicholson, A., O'Farrell, A., Philip, R. K., & Whelton, H." for entry aidan5
while executing---line 1361 of file dcu.bst
Too many commas in name 1 of "Staines, A., Balanda, K. P., Barron, S., Corcoran, Y., Fahy, L., Gallagher, L., Greally, T., Kilroe, J., Mohan, C. M., Matthews, A., McGovern, E., Nicholson, A., O'Farrell, A., Philip, R. K., & Whelton, H." for entry aidan5
while executing---line 1361 of file dcu.bst
Too many commas in name 1 of "Staines, A., Balanda, K. P., Barron, S., Corcoran, Y., Fahy, L., Gallagher, L., Greally, T., Kilroe, J., Mohan, C. M., Matthews, A., McGovern, E., Nicholson, A., O'Farrell, A., Philip, R. K., & Whelton, H." for entry aidan5
while executing---line 1361 of file dcu.bst
Too many commas in name 1 of "Staines, A., Balanda, K. P., Barron, S., Corcoran, Y., Fahy, L., Gallagher, L., Greally, T., Kilroe, J., Mohan, C. M., Matthews, A., McGovern, E., Nicholson, A., O'Farrell, A., Philip, R. K., & Whelton, H." for entry aidan5
while executing---line 1361 of file dcu.bst
Too many commas in name 1 of "Staines, A., Balanda, K. P., Barron, S., Corcoran, Y., Fahy, L., Gallagher, L., Greally, T., Kilroe, J., Mohan, C. M., Matthews, A., McGovern, E., Nicholson, A., O'Farrell, A., Philip, R. K., & Whelton, H." for entry aidan5
while executing---line 1361 of file dcu.bst
Too many commas in name 1 of "Staines, A., Balanda, K. P., Barron, S., Corcoran, Y., Fahy, L., Gallagher, L., Greally, T., Kilroe, J., Mohan, C. M., Matthews, A., McGovern, E., Nicholson, A., O'Farrell, A., Philip, R. K., & Whelton, H." for entry aidan5
while executing---line 1361 of file dcu.bst
Too many commas in name 1 of "Staines, A., Balanda, K. P., Barron, S., Corcoran, Y., Fahy, L., Gallagher, L., Greally, T., Kilroe, J., Mohan, C. M., Matthews, A., McGovern, E., Nicholson, A., O'Farrell, A., Philip, R. K., & Whelton, H." for entry aidan5
while executing---line 1361 of file dcu.bst
Too many commas in name 1 of "Staines, A., Balanda, K. P., Barron, S., Corcoran, Y., Fahy, L., Gallagher, L., Greally, T., Kilroe, J., Mohan, C. M., Matthews, A., McGovern, E., Nicholson, A., O'Farrell, A., Philip, R. K., & Whelton, H." for entry aidan5
while executing---line 1361 of file dcu.bst
Too many commas in name 1 of "Staines, A., Balanda, K. P., Barron, S., Corcoran, Y., Fahy, L., Gallagher, L., Greally, T., Kilroe, J., Mohan, C. M., Matthews, A., McGovern, E., Nicholson, A., O'Farrell, A., Philip, R. K., & Whelton, H." for entry aidan5
while executing---line 1361 of file dcu.bst
Too many commas in name 1 of "Staines, A., Balanda, K. P., Barron, S., Corcoran, Y., Fahy, L., Gallagher, L., Greally, T., Kilroe, J., Mohan, C. M., Matthews, A., McGovern, E., Nicholson, A., O'Farrell, A., Philip, R. K., & Whelton, H." for entry aidan5
while executing---line 1361 of file dcu.bst
Too many commas in name 1 of "Staines, A., Balanda, K. P., Barron, S., Corcoran, Y., Fahy, L., Gallagher, L., Greally, T., Kilroe, J., Mohan, C. M., Matthews, A., McGovern, E., Nicholson, A., O'Farrell, A., Philip, R. K., & Whelton, H." for entry aidan5
while executing---line 1361 of file dcu.bst
Too many commas in name 1 of "Staines, A., Balanda, K. P., Barron, S., Corcoran, Y., Fahy, L., Gallagher, L., Greally, T., Kilroe, J., Mohan, C. M., Matthews, A., McGovern, E., Nicholson, A., O'Farrell, A., Philip, R. K., & Whelton, H." for entry aidan5
while executing---line 1361 of file dcu.bst
Too many commas in name 1 of "Staines, A., Balanda, K. P., Barron, S., Corcoran, Y., Fahy, L., Gallagher, L., Greally, T., Kilroe, J., Mohan, C. M., Matthews, A., McGovern, E., Nicholson, A., O'Farrell, A., Philip, R. K., & Whelton, H." for entry aidan5
while executing---line 1361 of file dcu.bst
Too many commas in name 1 of "Staines, A., Balanda, K. P., Barron, S., Corcoran, Y., Fahy, L., Gallagher, L., Greally, T., Kilroe, J., Mohan, C. M., Matthews, A., McGovern, E., Nicholson, A., O'Farrell, A., Philip, R. K., & Whelton, H." for entry aidan5
while executing---line 1361 of file dcu.bst
Too many commas in name 1 of "Staines, A., Balanda, K. P., Barron, S., Corcoran, Y., Fahy, L., Gallagher, L., Greally, T., Kilroe, J., Mohan, C. M., Matthews, A., McGovern, E., Nicholson, A., O'Farrell, A., Philip, R. K., & Whelton, H." for entry aidan5
while executing---line 1361 of file dcu.bst
Too many commas in name 1 of "Staines, A., Balanda, K. P., Barron, S., Corcoran, Y., Fahy, L., Gallagher, L., Greally, T., Kilroe, J., Mohan, C. M., Matthews, A., McGovern, E., Nicholson, A., O'Farrell, A., Philip, R. K., & Whelton, H." for entry aidan5
while executing---line 1361 of file dcu.bst
Too many commas in name 1 of "Staines, A., Balanda, K. P., Barron, S., Corcoran, Y., Fahy, L., Gallagher, L., Greally, T., Kilroe, J., Mohan, C. M., Matthews, A., McGovern, E., Nicholson, A., O'Farrell, A., Philip, R. K., & Whelton, H." for entry aidan5
while executing---line 1361 of file dcu.bst
Too many commas in name 1 of "Staines, A., Balanda, K. P., Barron, S., Corcoran, Y., Fahy, L., Gallagher, L., Greally, T., Kilroe, J., Mohan, C. M., Matthews, A., McGovern, E., Nicholson, A., O'Farrell, A., Philip, R. K., & Whelton, H." for entry aidan5
while executing---line 1361 of file dcu.bst
Too many commas in name 1 of "Staines, A., Balanda, K. P., Barron, S., Corcoran, Y., Fahy, L., Gallagher, L., Greally, T., Kilroe, J., Mohan, C. M., Matthews, A., McGovern, E., Nicholson, A., O'Farrell, A., Philip, R. K., & Whelton, H." for entry aidan5
while executing---line 1361 of file dcu.bst
Too many commas in name 1 of "Staines, A., Balanda, K. P., Barron, S., Corcoran, Y., Fahy, L., Gallagher, L., Greally, T., Kilroe, J., Mohan, C. M., Matthews, A., McGovern, E., Nicholson, A., O'Farrell, A., Philip, R. K., & Whelton, H." for entry aidan5
while executing---line 1361 of file dcu.bst
You've used 36 entries,
            2921 wiz_defined-function locations,
            826 strings with 11397 characters,
and the built_in function-call counts, 150131 in all, are:
= -- 24523
> -- 1979
< -- 4
+ -- 11760
- -- 609
* -- 12781
:= -- 30327
add.period$ -- 74
call.type$ -- 36
change.case$ -- 488
chr.to.int$ -- 34
cite$ -- 36
duplicate$ -- 458
empty$ -- 1025
format.name$ -- 709
if$ -- 26881
int.to.chr$ -- 7
int.to.str$ -- 0
missing$ -- 26
newline$ -- 167
num.names$ -- 368
pop$ -- 241
preamble$ -- 1
purify$ -- 540
quote$ -- 0
skip$ -- 392
stack$ -- 0
substring$ -- 34689
swap$ -- 52
text.length$ -- 508
text.prefix$ -- 0
top$ -- 0
type$ -- 134
warning$ -- 0
while$ -- 777
width$ -- 0
write$ -- 505
(There were 243 error messages)
