PWD /home/damien/working/MSc_DA/CA_1/report
INPUT /opt/texlive/2021/texmf.cnf
INPUT /opt/texlive/2021/texmf-dist/web2c/texmf.cnf
INPUT /opt/texlive/2021/texmf-var/web2c/pdftex/pdflatex.fmt
INPUT report.tex
OUTPUT report.log
INPUT /opt/texlive/2021/texmf-dist/tex/latex/base/article.cls
INPUT /opt/texlive/2021/texmf-dist/tex/latex/base/article.cls
INPUT /opt/texlive/2021/texmf-dist/tex/latex/base/article.cls
INPUT /opt/texlive/2021/texmf-dist/tex/latex/base/article.cls
INPUT /opt/texlive/2021/texmf-dist/tex/latex/base/article.cls
INPUT /opt/texlive/2021/texmf-dist/tex/latex/base/article.cls
INPUT /opt/texlive/2021/texmf-dist/tex/latex/base/article.cls
INPUT /opt/texlive/2021/texmf-dist/tex/latex/base/article.cls
INPUT /opt/texlive/2021/texmf-dist/tex/latex/base/article.cls
INPUT /opt/texlive/2021/texmf-dist/tex/latex/base/article.cls
INPUT /opt/texlive/2021/texmf-dist/tex/latex/base/article.cls
INPUT /opt/texlive/2021/texmf-dist/tex/latex/base/size10.clo
INPUT /opt/texlive/2021/texmf-dist/tex/latex/base/size10.clo
INPUT /opt/texlive/2021/texmf-dist/tex/latex/base/size10.clo
INPUT /opt/texlive/2021/texmf-dist/tex/latex/base/size10.clo
INPUT /opt/texlive/2021/texmf-dist/tex/latex/natbib/natbib.sty
INPUT /opt/texlive/2021/texmf-dist/tex/latex/natbib/natbib.sty
INPUT /opt/texlive/2021/texmf-dist/tex/latex/natbib/natbib.sty
INPUT /opt/texlive/2021/texmf-dist/tex/latex/natbib/natbib.sty
INPUT /opt/texlive/2021/texmf-dist/tex/latex/natbib/natbib.sty
INPUT /opt/texlive/2021/texmf-dist/tex/latex/natbib/natbib.sty
INPUT /opt/texlive/2021/texmf-dist/tex/latex/natbib/natbib.sty
INPUT /opt/texlive/2021/texmf-dist/tex/latex/natbib/natbib.sty
INPUT /opt/texlive/2021/texmf-dist/tex/latex/natbib/natbib.sty
INPUT /opt/texlive/2021/texmf-dist/tex/latex/natbib/natbib.sty
INPUT /opt/texlive/2021/texmf-dist/tex/latex/natbib/natbib.sty
INPUT /opt/texlive/2021/texmf-dist/tex/latex/datetime/datetime.sty
INPUT /opt/texlive/2021/texmf-dist/tex/latex/datetime/datetime.sty
INPUT /opt/texlive/2021/texmf-dist/tex/latex/datetime/datetime.sty
INPUT /opt/texlive/2021/texmf-dist/tex/latex/datetime/datetime.sty
INPUT /opt/texlive/2021/texmf-dist/tex/latex/datetime/datetime.sty
INPUT /opt/texlive/2021/texmf-dist/tex/latex/datetime/datetime.sty
INPUT /opt/texlive/2021/texmf-dist/tex/latex/datetime/datetime.sty
INPUT /opt/texlive/2021/texmf-dist/tex/latex/datetime/datetime.sty
INPUT /opt/texlive/2021/texmf-dist/tex/latex/datetime/datetime.sty
INPUT /opt/texlive/2021/texmf-dist/tex/latex/datetime/datetime.sty
INPUT /opt/texlive/2021/texmf-dist/tex/latex/datetime/datetime.sty
INPUT /opt/texlive/2021/texmf-dist/tex/latex/etoolbox/etoolbox.sty
INPUT /opt/texlive/2021/texmf-dist/tex/latex/etoolbox/etoolbox.sty
INPUT /opt/texlive/2021/texmf-dist/tex/latex/etoolbox/etoolbox.sty
INPUT /opt/texlive/2021/texmf-dist/tex/latex/etoolbox/etoolbox.sty
INPUT /opt/texlive/2021/texmf-dist/tex/latex/etoolbox/etoolbox.sty
INPUT /opt/texlive/2021/texmf-dist/tex/latex/etoolbox/etoolbox.sty
INPUT /opt/texlive/2021/texmf-dist/tex/latex/etoolbox/etoolbox.sty
INPUT /opt/texlive/2021/texmf-dist/tex/latex/etoolbox/etoolbox.sty
INPUT /opt/texlive/2021/texmf-dist/tex/latex/etoolbox/etoolbox.sty
INPUT /opt/texlive/2021/texmf-dist/tex/latex/etoolbox/etoolbox.sty
INPUT /opt/texlive/2021/texmf-dist/tex/latex/etoolbox/etoolbox.sty
INPUT /opt/texlive/2021/texmf-dist/tex/latex/fmtcount/fmtcount.sty
INPUT /opt/texlive/2021/texmf-dist/tex/latex/fmtcount/fmtcount.sty
INPUT /opt/texlive/2021/texmf-dist/tex/latex/fmtcount/fmtcount.sty
INPUT /opt/texlive/2021/texmf-dist/tex/latex/fmtcount/fmtcount.sty
INPUT /opt/texlive/2021/texmf-dist/tex/latex/fmtcount/fmtcount.sty
INPUT /opt/texlive/2021/texmf-dist/tex/latex/fmtcount/fmtcount.sty
INPUT /opt/texlive/2021/texmf-dist/tex/latex/fmtcount/fmtcount.sty
INPUT /opt/texlive/2021/texmf-dist/tex/latex/fmtcount/fmtcount.sty
INPUT /opt/texlive/2021/texmf-dist/tex/latex/fmtcount/fmtcount.sty
INPUT /opt/texlive/2021/texmf-dist/tex/latex/fmtcount/fmtcount.sty
INPUT /opt/texlive/2021/texmf-dist/tex/latex/fmtcount/fmtcount.sty
INPUT /opt/texlive/2021/texmf-dist/tex/latex/base/ifthen.sty
INPUT /opt/texlive/2021/texmf-dist/tex/latex/base/ifthen.sty
INPUT /opt/texlive/2021/texmf-dist/tex/latex/base/ifthen.sty
INPUT /opt/texlive/2021/texmf-dist/tex/latex/base/ifthen.sty
INPUT /opt/texlive/2021/texmf-dist/tex/latex/base/ifthen.sty
INPUT /opt/texlive/2021/texmf-dist/tex/latex/base/ifthen.sty
INPUT /opt/texlive/2021/texmf-dist/tex/latex/base/ifthen.sty
INPUT /opt/texlive/2021/texmf-dist/tex/latex/base/ifthen.sty
INPUT /opt/texlive/2021/texmf-dist/tex/latex/base/ifthen.sty
INPUT /opt/texlive/2021/texmf-dist/tex/latex/base/ifthen.sty
INPUT /opt/texlive/2021/texmf-dist/tex/latex/base/ifthen.sty
INPUT /opt/texlive/2021/texmf-dist/tex/latex/xkeyval/xkeyval.sty
INPUT /opt/texlive/2021/texmf-dist/tex/latex/xkeyval/xkeyval.sty
INPUT /opt/texlive/2021/texmf-dist/tex/latex/xkeyval/xkeyval.sty
INPUT /opt/texlive/2021/texmf-dist/tex/latex/xkeyval/xkeyval.sty
INPUT /opt/texlive/2021/texmf-dist/tex/latex/xkeyval/xkeyval.sty
INPUT /opt/texlive/2021/texmf-dist/tex/latex/xkeyval/xkeyval.sty
INPUT /opt/texlive/2021/texmf-dist/tex/latex/xkeyval/xkeyval.sty
INPUT /opt/texlive/2021/texmf-dist/tex/latex/xkeyval/xkeyval.sty
INPUT /opt/texlive/2021/texmf-dist/tex/latex/xkeyval/xkeyval.sty
INPUT /opt/texlive/2021/texmf-dist/tex/latex/xkeyval/xkeyval.sty
INPUT /opt/texlive/2021/texmf-dist/tex/latex/xkeyval/xkeyval.sty
INPUT /opt/texlive/2021/texmf-dist/tex/generic/xkeyval/xkeyval.tex
INPUT /opt/texlive/2021/texmf-dist/tex/generic/xkeyval/xkvutils.tex
INPUT /opt/texlive/2021/texmf-dist/tex/generic/xkeyval/keyval.tex
INPUT /opt/texlive/2021/texmf-dist/tex/latex/etoolbox/etoolbox.sty
INPUT /opt/texlive/2021/texmf-dist/tex/latex/fmtcount/fcprefix.sty
INPUT /opt/texlive/2021/texmf-dist/tex/latex/fmtcount/fcprefix.sty
INPUT /opt/texlive/2021/texmf-dist/tex/latex/fmtcount/fcprefix.sty
INPUT /opt/texlive/2021/texmf-dist/tex/latex/fmtcount/fcprefix.sty
INPUT /opt/texlive/2021/texmf-dist/tex/latex/fmtcount/fcprefix.sty
INPUT /opt/texlive/2021/texmf-dist/tex/latex/fmtcount/fcprefix.sty
INPUT /opt/texlive/2021/texmf-dist/tex/latex/fmtcount/fcprefix.sty
INPUT /opt/texlive/2021/texmf-dist/tex/latex/fmtcount/fcprefix.sty
INPUT /opt/texlive/2021/texmf-dist/tex/latex/fmtcount/fcprefix.sty
INPUT /opt/texlive/2021/texmf-dist/tex/latex/fmtcount/fcprefix.sty
INPUT /opt/texlive/2021/texmf-dist/tex/latex/fmtcount/fcprefix.sty
INPUT /opt/texlive/2021/texmf-dist/tex/latex/base/ifthen.sty
INPUT /opt/texlive/2021/texmf-dist/tex/latex/graphics/keyval.sty
INPUT /opt/texlive/2021/texmf-dist/tex/latex/fmtcount/fcnumparser.sty
INPUT /opt/texlive/2021/texmf-dist/tex/latex/fmtcount/fcnumparser.sty
INPUT /opt/texlive/2021/texmf-dist/tex/latex/fmtcount/fcnumparser.sty
INPUT /opt/texlive/2021/texmf-dist/tex/latex/fmtcount/fcnumparser.sty
INPUT /opt/texlive/2021/texmf-dist/tex/latex/fmtcount/fcnumparser.sty
INPUT /opt/texlive/2021/texmf-dist/tex/latex/fmtcount/fcnumparser.sty
INPUT /opt/texlive/2021/texmf-dist/tex/latex/fmtcount/fcnumparser.sty
INPUT /opt/texlive/2021/texmf-dist/tex/latex/fmtcount/fcnumparser.sty
INPUT /opt/texlive/2021/texmf-dist/tex/latex/fmtcount/fcnumparser.sty
INPUT /opt/texlive/2021/texmf-dist/tex/latex/fmtcount/fcnumparser.sty
INPUT /opt/texlive/2021/texmf-dist/tex/latex/fmtcount/fcnumparser.sty
INPUT /opt/texlive/2021/texmf-dist/tex/latex/amsmath/amsgen.sty
INPUT /opt/texlive/2021/texmf-dist/tex/latex/amsmath/amsgen.sty
INPUT /opt/texlive/2021/texmf-dist/tex/latex/amsmath/amsgen.sty
INPUT /opt/texlive/2021/texmf-dist/tex/latex/amsmath/amsgen.sty
INPUT /opt/texlive/2021/texmf-dist/tex/latex/amsmath/amsgen.sty
INPUT /opt/texlive/2021/texmf-dist/tex/latex/amsmath/amsgen.sty
INPUT /opt/texlive/2021/texmf-dist/tex/latex/amsmath/amsgen.sty
INPUT /opt/texlive/2021/texmf-dist/tex/latex/amsmath/amsgen.sty
INPUT /opt/texlive/2021/texmf-dist/tex/latex/amsmath/amsgen.sty
INPUT /opt/texlive/2021/texmf-dist/tex/latex/amsmath/amsgen.sty
INPUT /opt/texlive/2021/texmf-dist/tex/latex/amsmath/amsgen.sty
INPUT /opt/texlive/2021/texmf-dist/tex/latex/base/ifthen.sty
INPUT /opt/texlive/2021/texmf-dist/tex/latex/datetime/datetime-defaults.sty
INPUT /opt/texlive/2021/texmf-dist/tex/latex/datetime/datetime-defaults.sty
INPUT /opt/texlive/2021/texmf-dist/tex/latex/datetime/datetime-defaults.sty
INPUT /opt/texlive/2021/texmf-dist/tex/latex/datetime/datetime-defaults.sty
INPUT /opt/texlive/2021/texmf-dist/tex/latex/datetime/datetime-defaults.sty
INPUT /opt/texlive/2021/texmf-dist/tex/latex/datetime/datetime-defaults.sty
INPUT /opt/texlive/2021/texmf-dist/tex/latex/datetime/datetime-defaults.sty
INPUT /opt/texlive/2021/texmf-dist/tex/latex/datetime/datetime-defaults.sty
INPUT /opt/texlive/2021/texmf-dist/tex/latex/datetime/datetime-defaults.sty
INPUT /opt/texlive/2021/texmf-dist/tex/latex/datetime/datetime-defaults.sty
INPUT /opt/texlive/2021/texmf-dist/tex/latex/datetime/datetime-defaults.sty
INPUT /opt/texlive/2021/texmf-dist/tex/latex/fmtcount/fmtcount.sty
INPUT /opt/texlive/2021/texmf-dist/tex/latex/har2nat/har2nat.sty
INPUT /opt/texlive/2021/texmf-dist/tex/latex/har2nat/har2nat.sty
INPUT /opt/texlive/2021/texmf-dist/tex/latex/har2nat/har2nat.sty
INPUT /opt/texlive/2021/texmf-dist/tex/latex/har2nat/har2nat.sty
INPUT /opt/texlive/2021/texmf-dist/tex/latex/har2nat/har2nat.sty
INPUT /opt/texlive/2021/texmf-dist/tex/latex/har2nat/har2nat.sty
INPUT /opt/texlive/2021/texmf-dist/tex/latex/har2nat/har2nat.sty
INPUT /opt/texlive/2021/texmf-dist/tex/latex/har2nat/har2nat.sty
INPUT /opt/texlive/2021/texmf-dist/tex/latex/har2nat/har2nat.sty
INPUT /opt/texlive/2021/texmf-dist/tex/latex/har2nat/har2nat.sty
INPUT /opt/texlive/2021/texmf-dist/tex/latex/har2nat/har2nat.sty
INPUT /opt/texlive/2021/texmf-dist/tex/latex/bigfoot/suffix.sty
INPUT /opt/texlive/2021/texmf-dist/tex/latex/bigfoot/suffix.sty
INPUT /opt/texlive/2021/texmf-dist/tex/latex/bigfoot/suffix.sty
INPUT /opt/texlive/2021/texmf-dist/tex/latex/bigfoot/suffix.sty
INPUT /opt/texlive/2021/texmf-dist/tex/latex/bigfoot/suffix.sty
INPUT /opt/texlive/2021/texmf-dist/tex/latex/bigfoot/suffix.sty
INPUT /opt/texlive/2021/texmf-dist/tex/latex/bigfoot/suffix.sty
INPUT /opt/texlive/2021/texmf-dist/tex/latex/bigfoot/suffix.sty
INPUT /opt/texlive/2021/texmf-dist/tex/latex/bigfoot/suffix.sty
INPUT /opt/texlive/2021/texmf-dist/tex/latex/bigfoot/suffix.sty
INPUT /opt/texlive/2021/texmf-dist/tex/latex/bigfoot/suffix.sty
INPUT /opt/texlive/2021/texmf-dist/tex/latex/natbib/natbib.sty
INPUT /opt/texlive/2021/texmf-dist/tex/latex/geometry/geometry.sty
INPUT /opt/texlive/2021/texmf-dist/tex/latex/geometry/geometry.sty
INPUT /opt/texlive/2021/texmf-dist/tex/latex/geometry/geometry.sty
INPUT /opt/texlive/2021/texmf-dist/tex/latex/geometry/geometry.sty
INPUT /opt/texlive/2021/texmf-dist/tex/latex/geometry/geometry.sty
INPUT /opt/texlive/2021/texmf-dist/tex/latex/geometry/geometry.sty
INPUT /opt/texlive/2021/texmf-dist/tex/latex/geometry/geometry.sty
INPUT /opt/texlive/2021/texmf-dist/tex/latex/geometry/geometry.sty
INPUT /opt/texlive/2021/texmf-dist/tex/latex/geometry/geometry.sty
INPUT /opt/texlive/2021/texmf-dist/tex/latex/geometry/geometry.sty
INPUT /opt/texlive/2021/texmf-dist/tex/latex/geometry/geometry.sty
INPUT /opt/texlive/2021/texmf-dist/tex/latex/graphics/keyval.sty
INPUT /opt/texlive/2021/texmf-dist/tex/generic/iftex/ifvtex.sty
INPUT /opt/texlive/2021/texmf-dist/tex/generic/iftex/ifvtex.sty
INPUT /opt/texlive/2021/texmf-dist/tex/generic/iftex/ifvtex.sty
INPUT /opt/texlive/2021/texmf-dist/tex/generic/iftex/ifvtex.sty
INPUT /opt/texlive/2021/texmf-dist/tex/generic/iftex/ifvtex.sty
INPUT /opt/texlive/2021/texmf-dist/tex/generic/iftex/ifvtex.sty
INPUT /opt/texlive/2021/texmf-dist/tex/generic/iftex/ifvtex.sty
INPUT /opt/texlive/2021/texmf-dist/tex/generic/iftex/ifvtex.sty
INPUT /opt/texlive/2021/texmf-dist/tex/generic/iftex/ifvtex.sty
INPUT /opt/texlive/2021/texmf-dist/tex/generic/iftex/ifvtex.sty
INPUT /opt/texlive/2021/texmf-dist/tex/generic/iftex/ifvtex.sty
INPUT /opt/texlive/2021/texmf-dist/tex/generic/iftex/iftex.sty
INPUT /opt/texlive/2021/texmf-dist/tex/generic/iftex/iftex.sty
INPUT /opt/texlive/2021/texmf-dist/tex/generic/iftex/iftex.sty
INPUT /opt/texlive/2021/texmf-dist/tex/generic/iftex/iftex.sty
INPUT /opt/texlive/2021/texmf-dist/tex/generic/iftex/iftex.sty
INPUT /opt/texlive/2021/texmf-dist/tex/generic/iftex/iftex.sty
INPUT /opt/texlive/2021/texmf-dist/tex/generic/iftex/iftex.sty
INPUT /opt/texlive/2021/texmf-dist/tex/generic/iftex/iftex.sty
INPUT /opt/texlive/2021/texmf-dist/tex/generic/iftex/iftex.sty
INPUT /opt/texlive/2021/texmf-dist/tex/generic/iftex/iftex.sty
INPUT /opt/texlive/2021/texmf-dist/tex/generic/iftex/iftex.sty
INPUT /opt/texlive/2021/texmf-dist/tex/latex/graphics/graphicx.sty
INPUT /opt/texlive/2021/texmf-dist/tex/latex/graphics/graphicx.sty
INPUT /opt/texlive/2021/texmf-dist/tex/latex/graphics/graphicx.sty
INPUT /opt/texlive/2021/texmf-dist/tex/latex/graphics/graphicx.sty
INPUT /opt/texlive/2021/texmf-dist/tex/latex/graphics/graphicx.sty
INPUT /opt/texlive/2021/texmf-dist/tex/latex/graphics/graphicx.sty
INPUT /opt/texlive/2021/texmf-dist/tex/latex/graphics/graphicx.sty
INPUT /opt/texlive/2021/texmf-dist/tex/latex/graphics/graphicx.sty
INPUT /opt/texlive/2021/texmf-dist/tex/latex/graphics/graphicx.sty
INPUT /opt/texlive/2021/texmf-dist/tex/latex/graphics/graphicx.sty
INPUT /opt/texlive/2021/texmf-dist/tex/latex/graphics/graphicx.sty
INPUT /opt/texlive/2021/texmf-dist/tex/latex/graphics/keyval.sty
INPUT /opt/texlive/2021/texmf-dist/tex/latex/graphics/graphics.sty
INPUT /opt/texlive/2021/texmf-dist/tex/latex/graphics/graphics.sty
INPUT /opt/texlive/2021/texmf-dist/tex/latex/graphics/graphics.sty
INPUT /opt/texlive/2021/texmf-dist/tex/latex/graphics/graphics.sty
INPUT /opt/texlive/2021/texmf-dist/tex/latex/graphics/graphics.sty
INPUT /opt/texlive/2021/texmf-dist/tex/latex/graphics/graphics.sty
INPUT /opt/texlive/2021/texmf-dist/tex/latex/graphics/graphics.sty
INPUT /opt/texlive/2021/texmf-dist/tex/latex/graphics/graphics.sty
INPUT /opt/texlive/2021/texmf-dist/tex/latex/graphics/graphics.sty
INPUT /opt/texlive/2021/texmf-dist/tex/latex/graphics/graphics.sty
INPUT /opt/texlive/2021/texmf-dist/tex/latex/graphics/graphics.sty
INPUT /opt/texlive/2021/texmf-dist/tex/latex/graphics/trig.sty
INPUT /opt/texlive/2021/texmf-dist/tex/latex/graphics/trig.sty
INPUT /opt/texlive/2021/texmf-dist/tex/latex/graphics/trig.sty
INPUT /opt/texlive/2021/texmf-dist/tex/latex/graphics/trig.sty
INPUT /opt/texlive/2021/texmf-dist/tex/latex/graphics/trig.sty
INPUT /opt/texlive/2021/texmf-dist/tex/latex/graphics/trig.sty
INPUT /opt/texlive/2021/texmf-dist/tex/latex/graphics/trig.sty
INPUT /opt/texlive/2021/texmf-dist/tex/latex/graphics/trig.sty
INPUT /opt/texlive/2021/texmf-dist/tex/latex/graphics/trig.sty
INPUT /opt/texlive/2021/texmf-dist/tex/latex/graphics/trig.sty
INPUT /opt/texlive/2021/texmf-dist/tex/latex/graphics/trig.sty
INPUT /opt/texlive/2021/texmf-dist/tex/latex/graphics-cfg/graphics.cfg
INPUT /opt/texlive/2021/texmf-dist/tex/latex/graphics-cfg/graphics.cfg
INPUT /opt/texlive/2021/texmf-dist/tex/latex/graphics-cfg/graphics.cfg
INPUT /opt/texlive/2021/texmf-dist/tex/latex/graphics-cfg/graphics.cfg
INPUT /opt/texlive/2021/texmf-dist/tex/latex/graphics-def/pdftex.def
INPUT /opt/texlive/2021/texmf-dist/tex/latex/graphics-def/pdftex.def
INPUT /opt/texlive/2021/texmf-dist/tex/latex/graphics-def/pdftex.def
INPUT /opt/texlive/2021/texmf-dist/tex/latex/graphics-def/pdftex.def
INPUT /opt/texlive/2021/texmf-dist/tex/latex/hyperref/hyperref.sty
INPUT /opt/texlive/2021/texmf-dist/tex/latex/hyperref/hyperref.sty
INPUT /opt/texlive/2021/texmf-dist/tex/latex/hyperref/hyperref.sty
INPUT /opt/texlive/2021/texmf-dist/tex/latex/hyperref/hyperref.sty
INPUT /opt/texlive/2021/texmf-dist/tex/latex/hyperref/hyperref.sty
INPUT /opt/texlive/2021/texmf-dist/tex/latex/hyperref/hyperref.sty
INPUT /opt/texlive/2021/texmf-dist/tex/latex/hyperref/hyperref.sty
INPUT /opt/texlive/2021/texmf-dist/tex/latex/hyperref/hyperref.sty
INPUT /opt/texlive/2021/texmf-dist/tex/latex/hyperref/hyperref.sty
INPUT /opt/texlive/2021/texmf-dist/tex/latex/hyperref/hyperref.sty
INPUT /opt/texlive/2021/texmf-dist/tex/latex/hyperref/hyperref.sty
INPUT /opt/texlive/2021/texmf-dist/tex/generic/ltxcmds/ltxcmds.sty
INPUT /opt/texlive/2021/texmf-dist/tex/generic/ltxcmds/ltxcmds.sty
INPUT /opt/texlive/2021/texmf-dist/tex/generic/ltxcmds/ltxcmds.sty
INPUT /opt/texlive/2021/texmf-dist/tex/generic/ltxcmds/ltxcmds.sty
INPUT /opt/texlive/2021/texmf-dist/tex/generic/ltxcmds/ltxcmds.sty
INPUT /opt/texlive/2021/texmf-dist/tex/generic/ltxcmds/ltxcmds.sty
INPUT /opt/texlive/2021/texmf-dist/tex/generic/ltxcmds/ltxcmds.sty
INPUT /opt/texlive/2021/texmf-dist/tex/generic/ltxcmds/ltxcmds.sty
INPUT /opt/texlive/2021/texmf-dist/tex/generic/ltxcmds/ltxcmds.sty
INPUT /opt/texlive/2021/texmf-dist/tex/generic/ltxcmds/ltxcmds.sty
INPUT /opt/texlive/2021/texmf-dist/tex/generic/ltxcmds/ltxcmds.sty
INPUT /opt/texlive/2021/texmf-dist/tex/generic/iftex/iftex.sty
INPUT /opt/texlive/2021/texmf-dist/tex/generic/pdftexcmds/pdftexcmds.sty
INPUT /opt/texlive/2021/texmf-dist/tex/generic/pdftexcmds/pdftexcmds.sty
INPUT /opt/texlive/2021/texmf-dist/tex/generic/pdftexcmds/pdftexcmds.sty
INPUT /opt/texlive/2021/texmf-dist/tex/generic/pdftexcmds/pdftexcmds.sty
INPUT /opt/texlive/2021/texmf-dist/tex/generic/pdftexcmds/pdftexcmds.sty
INPUT /opt/texlive/2021/texmf-dist/tex/generic/pdftexcmds/pdftexcmds.sty
INPUT /opt/texlive/2021/texmf-dist/tex/generic/pdftexcmds/pdftexcmds.sty
INPUT /opt/texlive/2021/texmf-dist/tex/generic/pdftexcmds/pdftexcmds.sty
INPUT /opt/texlive/2021/texmf-dist/tex/generic/pdftexcmds/pdftexcmds.sty
INPUT /opt/texlive/2021/texmf-dist/tex/generic/pdftexcmds/pdftexcmds.sty
INPUT /opt/texlive/2021/texmf-dist/tex/generic/pdftexcmds/pdftexcmds.sty
INPUT /opt/texlive/2021/texmf-dist/tex/generic/infwarerr/infwarerr.sty
INPUT /opt/texlive/2021/texmf-dist/tex/generic/infwarerr/infwarerr.sty
INPUT /opt/texlive/2021/texmf-dist/tex/generic/infwarerr/infwarerr.sty
INPUT /opt/texlive/2021/texmf-dist/tex/generic/infwarerr/infwarerr.sty
INPUT /opt/texlive/2021/texmf-dist/tex/generic/infwarerr/infwarerr.sty
INPUT /opt/texlive/2021/texmf-dist/tex/generic/infwarerr/infwarerr.sty
INPUT /opt/texlive/2021/texmf-dist/tex/generic/infwarerr/infwarerr.sty
INPUT /opt/texlive/2021/texmf-dist/tex/generic/infwarerr/infwarerr.sty
INPUT /opt/texlive/2021/texmf-dist/tex/generic/infwarerr/infwarerr.sty
INPUT /opt/texlive/2021/texmf-dist/tex/generic/infwarerr/infwarerr.sty
INPUT /opt/texlive/2021/texmf-dist/tex/generic/infwarerr/infwarerr.sty
INPUT /opt/texlive/2021/texmf-dist/tex/generic/iftex/iftex.sty
INPUT /opt/texlive/2021/texmf-dist/tex/generic/ltxcmds/ltxcmds.sty
INPUT /opt/texlive/2021/texmf-dist/tex/generic/infwarerr/infwarerr.sty
INPUT /opt/texlive/2021/texmf-dist/tex/latex/graphics/keyval.sty
INPUT /opt/texlive/2021/texmf-dist/tex/generic/kvsetkeys/kvsetkeys.sty
INPUT /opt/texlive/2021/texmf-dist/tex/generic/kvsetkeys/kvsetkeys.sty
INPUT /opt/texlive/2021/texmf-dist/tex/generic/kvsetkeys/kvsetkeys.sty
INPUT /opt/texlive/2021/texmf-dist/tex/generic/kvsetkeys/kvsetkeys.sty
INPUT /opt/texlive/2021/texmf-dist/tex/generic/kvsetkeys/kvsetkeys.sty
INPUT /opt/texlive/2021/texmf-dist/tex/generic/kvsetkeys/kvsetkeys.sty
INPUT /opt/texlive/2021/texmf-dist/tex/generic/kvsetkeys/kvsetkeys.sty
INPUT /opt/texlive/2021/texmf-dist/tex/generic/kvsetkeys/kvsetkeys.sty
INPUT /opt/texlive/2021/texmf-dist/tex/generic/kvsetkeys/kvsetkeys.sty
INPUT /opt/texlive/2021/texmf-dist/tex/generic/kvsetkeys/kvsetkeys.sty
INPUT /opt/texlive/2021/texmf-dist/tex/generic/kvsetkeys/kvsetkeys.sty
INPUT /opt/texlive/2021/texmf-dist/tex/generic/kvdefinekeys/kvdefinekeys.sty
INPUT /opt/texlive/2021/texmf-dist/tex/generic/kvdefinekeys/kvdefinekeys.sty
INPUT /opt/texlive/2021/texmf-dist/tex/generic/kvdefinekeys/kvdefinekeys.sty
INPUT /opt/texlive/2021/texmf-dist/tex/generic/kvdefinekeys/kvdefinekeys.sty
INPUT /opt/texlive/2021/texmf-dist/tex/generic/kvdefinekeys/kvdefinekeys.sty
INPUT /opt/texlive/2021/texmf-dist/tex/generic/kvdefinekeys/kvdefinekeys.sty
INPUT /opt/texlive/2021/texmf-dist/tex/generic/kvdefinekeys/kvdefinekeys.sty
INPUT /opt/texlive/2021/texmf-dist/tex/generic/kvdefinekeys/kvdefinekeys.sty
INPUT /opt/texlive/2021/texmf-dist/tex/generic/kvdefinekeys/kvdefinekeys.sty
INPUT /opt/texlive/2021/texmf-dist/tex/generic/kvdefinekeys/kvdefinekeys.sty
INPUT /opt/texlive/2021/texmf-dist/tex/generic/kvdefinekeys/kvdefinekeys.sty
INPUT /opt/texlive/2021/texmf-dist/tex/generic/pdfescape/pdfescape.sty
INPUT /opt/texlive/2021/texmf-dist/tex/generic/pdfescape/pdfescape.sty
INPUT /opt/texlive/2021/texmf-dist/tex/generic/pdfescape/pdfescape.sty
INPUT /opt/texlive/2021/texmf-dist/tex/generic/pdfescape/pdfescape.sty
INPUT /opt/texlive/2021/texmf-dist/tex/generic/pdfescape/pdfescape.sty
INPUT /opt/texlive/2021/texmf-dist/tex/generic/pdfescape/pdfescape.sty
INPUT /opt/texlive/2021/texmf-dist/tex/generic/pdfescape/pdfescape.sty
INPUT /opt/texlive/2021/texmf-dist/tex/generic/pdfescape/pdfescape.sty
INPUT /opt/texlive/2021/texmf-dist/tex/generic/pdfescape/pdfescape.sty
INPUT /opt/texlive/2021/texmf-dist/tex/generic/pdfescape/pdfescape.sty
INPUT /opt/texlive/2021/texmf-dist/tex/generic/pdfescape/pdfescape.sty
INPUT /opt/texlive/2021/texmf-dist/tex/generic/ltxcmds/ltxcmds.sty
INPUT /opt/texlive/2021/texmf-dist/tex/generic/pdftexcmds/pdftexcmds.sty
INPUT /opt/texlive/2021/texmf-dist/tex/latex/hycolor/hycolor.sty
INPUT /opt/texlive/2021/texmf-dist/tex/latex/hycolor/hycolor.sty
INPUT /opt/texlive/2021/texmf-dist/tex/latex/hycolor/hycolor.sty
INPUT /opt/texlive/2021/texmf-dist/tex/latex/hycolor/hycolor.sty
INPUT /opt/texlive/2021/texmf-dist/tex/latex/hycolor/hycolor.sty
INPUT /opt/texlive/2021/texmf-dist/tex/latex/hycolor/hycolor.sty
INPUT /opt/texlive/2021/texmf-dist/tex/latex/hycolor/hycolor.sty
INPUT /opt/texlive/2021/texmf-dist/tex/latex/hycolor/hycolor.sty
INPUT /opt/texlive/2021/texmf-dist/tex/latex/hycolor/hycolor.sty
INPUT /opt/texlive/2021/texmf-dist/tex/latex/hycolor/hycolor.sty
INPUT /opt/texlive/2021/texmf-dist/tex/latex/hycolor/hycolor.sty
INPUT /opt/texlive/2021/texmf-dist/tex/latex/letltxmacro/letltxmacro.sty
INPUT /opt/texlive/2021/texmf-dist/tex/latex/letltxmacro/letltxmacro.sty
INPUT /opt/texlive/2021/texmf-dist/tex/latex/letltxmacro/letltxmacro.sty
INPUT /opt/texlive/2021/texmf-dist/tex/latex/letltxmacro/letltxmacro.sty
INPUT /opt/texlive/2021/texmf-dist/tex/latex/letltxmacro/letltxmacro.sty
INPUT /opt/texlive/2021/texmf-dist/tex/latex/letltxmacro/letltxmacro.sty
INPUT /opt/texlive/2021/texmf-dist/tex/latex/letltxmacro/letltxmacro.sty
INPUT /opt/texlive/2021/texmf-dist/tex/latex/letltxmacro/letltxmacro.sty
INPUT /opt/texlive/2021/texmf-dist/tex/latex/letltxmacro/letltxmacro.sty
INPUT /opt/texlive/2021/texmf-dist/tex/latex/letltxmacro/letltxmacro.sty
INPUT /opt/texlive/2021/texmf-dist/tex/latex/letltxmacro/letltxmacro.sty
INPUT /opt/texlive/2021/texmf-dist/tex/latex/auxhook/auxhook.sty
INPUT /opt/texlive/2021/texmf-dist/tex/latex/auxhook/auxhook.sty
INPUT /opt/texlive/2021/texmf-dist/tex/latex/auxhook/auxhook.sty
INPUT /opt/texlive/2021/texmf-dist/tex/latex/auxhook/auxhook.sty
INPUT /opt/texlive/2021/texmf-dist/tex/latex/auxhook/auxhook.sty
INPUT /opt/texlive/2021/texmf-dist/tex/latex/auxhook/auxhook.sty
INPUT /opt/texlive/2021/texmf-dist/tex/latex/auxhook/auxhook.sty
INPUT /opt/texlive/2021/texmf-dist/tex/latex/auxhook/auxhook.sty
INPUT /opt/texlive/2021/texmf-dist/tex/latex/auxhook/auxhook.sty
INPUT /opt/texlive/2021/texmf-dist/tex/latex/auxhook/auxhook.sty
INPUT /opt/texlive/2021/texmf-dist/tex/latex/auxhook/auxhook.sty
INPUT /opt/texlive/2021/texmf-dist/tex/latex/kvoptions/kvoptions.sty
INPUT /opt/texlive/2021/texmf-dist/tex/latex/kvoptions/kvoptions.sty
INPUT /opt/texlive/2021/texmf-dist/tex/latex/kvoptions/kvoptions.sty
INPUT /opt/texlive/2021/texmf-dist/tex/latex/kvoptions/kvoptions.sty
INPUT /opt/texlive/2021/texmf-dist/tex/latex/kvoptions/kvoptions.sty
INPUT /opt/texlive/2021/texmf-dist/tex/latex/kvoptions/kvoptions.sty
INPUT /opt/texlive/2021/texmf-dist/tex/latex/kvoptions/kvoptions.sty
INPUT /opt/texlive/2021/texmf-dist/tex/latex/kvoptions/kvoptions.sty
INPUT /opt/texlive/2021/texmf-dist/tex/latex/kvoptions/kvoptions.sty
INPUT /opt/texlive/2021/texmf-dist/tex/latex/kvoptions/kvoptions.sty
INPUT /opt/texlive/2021/texmf-dist/tex/latex/kvoptions/kvoptions.sty
INPUT /opt/texlive/2021/texmf-dist/tex/generic/ltxcmds/ltxcmds.sty
INPUT /opt/texlive/2021/texmf-dist/tex/generic/kvsetkeys/kvsetkeys.sty
INPUT /opt/texlive/2021/texmf-dist/tex/latex/hyperref/pd1enc.def
INPUT /opt/texlive/2021/texmf-dist/tex/latex/hyperref/pd1enc.def
INPUT /opt/texlive/2021/texmf-dist/tex/latex/hyperref/pd1enc.def
INPUT /opt/texlive/2021/texmf-dist/tex/latex/hyperref/pd1enc.def
INPUT /opt/texlive/2021/texmf-dist/tex/latex/hyperref/hyperref-langpatches.def
INPUT /opt/texlive/2021/texmf-dist/tex/latex/hyperref/hyperref-langpatches.def
INPUT /opt/texlive/2021/texmf-dist/tex/latex/hyperref/hyperref-langpatches.def
INPUT /opt/texlive/2021/texmf-dist/tex/latex/hyperref/hyperref-langpatches.def
INPUT /opt/texlive/2021/texmf-dist/tex/generic/intcalc/intcalc.sty
INPUT /opt/texlive/2021/texmf-dist/tex/generic/intcalc/intcalc.sty
INPUT /opt/texlive/2021/texmf-dist/tex/generic/intcalc/intcalc.sty
INPUT /opt/texlive/2021/texmf-dist/tex/generic/intcalc/intcalc.sty
INPUT /opt/texlive/2021/texmf-dist/tex/generic/intcalc/intcalc.sty
INPUT /opt/texlive/2021/texmf-dist/tex/generic/intcalc/intcalc.sty
INPUT /opt/texlive/2021/texmf-dist/tex/generic/intcalc/intcalc.sty
INPUT /opt/texlive/2021/texmf-dist/tex/generic/intcalc/intcalc.sty
INPUT /opt/texlive/2021/texmf-dist/tex/generic/intcalc/intcalc.sty
INPUT /opt/texlive/2021/texmf-dist/tex/generic/intcalc/intcalc.sty
INPUT /opt/texlive/2021/texmf-dist/tex/generic/intcalc/intcalc.sty
INPUT /opt/texlive/2021/texmf-dist/tex/generic/etexcmds/etexcmds.sty
INPUT /opt/texlive/2021/texmf-dist/tex/generic/etexcmds/etexcmds.sty
INPUT /opt/texlive/2021/texmf-dist/tex/generic/etexcmds/etexcmds.sty
INPUT /opt/texlive/2021/texmf-dist/tex/generic/etexcmds/etexcmds.sty
INPUT /opt/texlive/2021/texmf-dist/tex/generic/etexcmds/etexcmds.sty
INPUT /opt/texlive/2021/texmf-dist/tex/generic/etexcmds/etexcmds.sty
INPUT /opt/texlive/2021/texmf-dist/tex/generic/etexcmds/etexcmds.sty
INPUT /opt/texlive/2021/texmf-dist/tex/generic/etexcmds/etexcmds.sty
INPUT /opt/texlive/2021/texmf-dist/tex/generic/etexcmds/etexcmds.sty
INPUT /opt/texlive/2021/texmf-dist/tex/generic/etexcmds/etexcmds.sty
INPUT /opt/texlive/2021/texmf-dist/tex/generic/etexcmds/etexcmds.sty
INPUT /opt/texlive/2021/texmf-dist/tex/generic/infwarerr/infwarerr.sty
INPUT /opt/texlive/2021/texmf-dist/tex/generic/iftex/iftex.sty
INPUT /opt/texlive/2021/texmf-dist/tex/latex/hyperref/puenc.def
INPUT /opt/texlive/2021/texmf-dist/tex/latex/hyperref/puenc.def
INPUT /opt/texlive/2021/texmf-dist/tex/latex/hyperref/puenc.def
INPUT /opt/texlive/2021/texmf-dist/tex/latex/hyperref/puenc.def
INPUT /opt/texlive/2021/texmf-dist/tex/latex/url/url.sty
INPUT /opt/texlive/2021/texmf-dist/tex/latex/url/url.sty
INPUT /opt/texlive/2021/texmf-dist/tex/latex/url/url.sty
INPUT /opt/texlive/2021/texmf-dist/tex/latex/url/url.sty
INPUT /opt/texlive/2021/texmf-dist/tex/latex/url/url.sty
INPUT /opt/texlive/2021/texmf-dist/tex/latex/url/url.sty
INPUT /opt/texlive/2021/texmf-dist/tex/latex/url/url.sty
INPUT /opt/texlive/2021/texmf-dist/tex/latex/url/url.sty
INPUT /opt/texlive/2021/texmf-dist/tex/latex/url/url.sty
INPUT /opt/texlive/2021/texmf-dist/tex/latex/url/url.sty
INPUT /opt/texlive/2021/texmf-dist/tex/latex/url/url.sty
INPUT /opt/texlive/2021/texmf-dist/tex/generic/bitset/bitset.sty
INPUT /opt/texlive/2021/texmf-dist/tex/generic/bitset/bitset.sty
INPUT /opt/texlive/2021/texmf-dist/tex/generic/bitset/bitset.sty
INPUT /opt/texlive/2021/texmf-dist/tex/generic/bitset/bitset.sty
INPUT /opt/texlive/2021/texmf-dist/tex/generic/bitset/bitset.sty
INPUT /opt/texlive/2021/texmf-dist/tex/generic/bitset/bitset.sty
INPUT /opt/texlive/2021/texmf-dist/tex/generic/bitset/bitset.sty
INPUT /opt/texlive/2021/texmf-dist/tex/generic/bitset/bitset.sty
INPUT /opt/texlive/2021/texmf-dist/tex/generic/bitset/bitset.sty
INPUT /opt/texlive/2021/texmf-dist/tex/generic/bitset/bitset.sty
INPUT /opt/texlive/2021/texmf-dist/tex/generic/bitset/bitset.sty
INPUT /opt/texlive/2021/texmf-dist/tex/generic/infwarerr/infwarerr.sty
INPUT /opt/texlive/2021/texmf-dist/tex/generic/intcalc/intcalc.sty
INPUT /opt/texlive/2021/texmf-dist/tex/generic/bigintcalc/bigintcalc.sty
INPUT /opt/texlive/2021/texmf-dist/tex/generic/bigintcalc/bigintcalc.sty
INPUT /opt/texlive/2021/texmf-dist/tex/generic/bigintcalc/bigintcalc.sty
INPUT /opt/texlive/2021/texmf-dist/tex/generic/bigintcalc/bigintcalc.sty
INPUT /opt/texlive/2021/texmf-dist/tex/generic/bigintcalc/bigintcalc.sty
INPUT /opt/texlive/2021/texmf-dist/tex/generic/bigintcalc/bigintcalc.sty
INPUT /opt/texlive/2021/texmf-dist/tex/generic/bigintcalc/bigintcalc.sty
INPUT /opt/texlive/2021/texmf-dist/tex/generic/bigintcalc/bigintcalc.sty
INPUT /opt/texlive/2021/texmf-dist/tex/generic/bigintcalc/bigintcalc.sty
INPUT /opt/texlive/2021/texmf-dist/tex/generic/bigintcalc/bigintcalc.sty
INPUT /opt/texlive/2021/texmf-dist/tex/generic/bigintcalc/bigintcalc.sty
INPUT /opt/texlive/2021/texmf-dist/tex/generic/pdftexcmds/pdftexcmds.sty
INPUT /opt/texlive/2021/texmf-dist/tex/generic/atbegshi/atbegshi.sty
INPUT /opt/texlive/2021/texmf-dist/tex/generic/atbegshi/atbegshi.sty
INPUT /opt/texlive/2021/texmf-dist/tex/generic/atbegshi/atbegshi.sty
INPUT /opt/texlive/2021/texmf-dist/tex/latex/base/atbegshi-ltx.sty
INPUT /opt/texlive/2021/texmf-dist/tex/generic/atbegshi/atbegshi.sty
INPUT /opt/texlive/2021/texmf-dist/tex/generic/atbegshi/atbegshi.sty
INPUT /opt/texlive/2021/texmf-dist/tex/latex/base/atbegshi-ltx.sty
INPUT /opt/texlive/2021/texmf-dist/tex/generic/atbegshi/atbegshi.sty
INPUT /opt/texlive/2021/texmf-dist/tex/latex/base/atbegshi-ltx.sty
INPUT /opt/texlive/2021/texmf-dist/tex/latex/base/atbegshi-ltx.sty
INPUT /opt/texlive/2021/texmf-dist/tex/generic/atbegshi/atbegshi.sty
INPUT /opt/texlive/2021/texmf-dist/tex/generic/atbegshi/atbegshi.sty
INPUT /opt/texlive/2021/texmf-dist/tex/latex/base/atbegshi-ltx.sty
INPUT /opt/texlive/2021/texmf-dist/tex/latex/base/atbegshi-ltx.sty
INPUT /opt/texlive/2021/texmf-dist/tex/generic/atbegshi/atbegshi.sty
INPUT /opt/texlive/2021/texmf-dist/tex/latex/base/atbegshi-ltx.sty
INPUT /opt/texlive/2021/texmf-dist/tex/latex/hyperref/hpdftex.def
INPUT /opt/texlive/2021/texmf-dist/tex/latex/hyperref/hpdftex.def
INPUT /opt/texlive/2021/texmf-dist/tex/latex/hyperref/hpdftex.def
INPUT /opt/texlive/2021/texmf-dist/tex/latex/hyperref/hpdftex.def
INPUT /opt/texlive/2021/texmf-dist/tex/latex/atveryend/atveryend.sty
INPUT /opt/texlive/2021/texmf-dist/tex/latex/atveryend/atveryend.sty
INPUT /opt/texlive/2021/texmf-dist/tex/latex/atveryend/atveryend.sty
INPUT /opt/texlive/2021/texmf-dist/tex/latex/base/atveryend-ltx.sty
INPUT /opt/texlive/2021/texmf-dist/tex/latex/atveryend/atveryend.sty
INPUT /opt/texlive/2021/texmf-dist/tex/latex/atveryend/atveryend.sty
INPUT /opt/texlive/2021/texmf-dist/tex/latex/base/atveryend-ltx.sty
INPUT /opt/texlive/2021/texmf-dist/tex/latex/atveryend/atveryend.sty
INPUT /opt/texlive/2021/texmf-dist/tex/latex/base/atveryend-ltx.sty
INPUT /opt/texlive/2021/texmf-dist/tex/latex/base/atveryend-ltx.sty
INPUT /opt/texlive/2021/texmf-dist/tex/latex/atveryend/atveryend.sty
INPUT /opt/texlive/2021/texmf-dist/tex/latex/atveryend/atveryend.sty
INPUT /opt/texlive/2021/texmf-dist/tex/latex/base/atveryend-ltx.sty
INPUT /opt/texlive/2021/texmf-dist/tex/latex/base/atveryend-ltx.sty
INPUT /opt/texlive/2021/texmf-dist/tex/latex/atveryend/atveryend.sty
INPUT /opt/texlive/2021/texmf-dist/tex/latex/base/atveryend-ltx.sty
INPUT /opt/texlive/2021/texmf-dist/tex/latex/rerunfilecheck/rerunfilecheck.sty
INPUT /opt/texlive/2021/texmf-dist/tex/latex/rerunfilecheck/rerunfilecheck.sty
INPUT /opt/texlive/2021/texmf-dist/tex/latex/rerunfilecheck/rerunfilecheck.sty
INPUT /opt/texlive/2021/texmf-dist/tex/latex/rerunfilecheck/rerunfilecheck.sty
INPUT /opt/texlive/2021/texmf-dist/tex/latex/rerunfilecheck/rerunfilecheck.sty
INPUT /opt/texlive/2021/texmf-dist/tex/latex/rerunfilecheck/rerunfilecheck.sty
INPUT /opt/texlive/2021/texmf-dist/tex/latex/rerunfilecheck/rerunfilecheck.sty
INPUT /opt/texlive/2021/texmf-dist/tex/latex/rerunfilecheck/rerunfilecheck.sty
INPUT /opt/texlive/2021/texmf-dist/tex/latex/rerunfilecheck/rerunfilecheck.sty
INPUT /opt/texlive/2021/texmf-dist/tex/latex/rerunfilecheck/rerunfilecheck.sty
INPUT /opt/texlive/2021/texmf-dist/tex/latex/rerunfilecheck/rerunfilecheck.sty
INPUT /opt/texlive/2021/texmf-dist/tex/latex/kvoptions/kvoptions.sty
INPUT /opt/texlive/2021/texmf-dist/tex/generic/infwarerr/infwarerr.sty
INPUT /opt/texlive/2021/texmf-dist/tex/generic/pdftexcmds/pdftexcmds.sty
INPUT /opt/texlive/2021/texmf-dist/tex/latex/atveryend/atveryend.sty
INPUT /opt/texlive/2021/texmf-dist/tex/generic/uniquecounter/uniquecounter.sty
INPUT /opt/texlive/2021/texmf-dist/tex/generic/uniquecounter/uniquecounter.sty
INPUT /opt/texlive/2021/texmf-dist/tex/generic/uniquecounter/uniquecounter.sty
INPUT /opt/texlive/2021/texmf-dist/tex/generic/uniquecounter/uniquecounter.sty
INPUT /opt/texlive/2021/texmf-dist/tex/generic/uniquecounter/uniquecounter.sty
INPUT /opt/texlive/2021/texmf-dist/tex/generic/uniquecounter/uniquecounter.sty
INPUT /opt/texlive/2021/texmf-dist/tex/generic/uniquecounter/uniquecounter.sty
INPUT /opt/texlive/2021/texmf-dist/tex/generic/uniquecounter/uniquecounter.sty
INPUT /opt/texlive/2021/texmf-dist/tex/generic/uniquecounter/uniquecounter.sty
INPUT /opt/texlive/2021/texmf-dist/tex/generic/uniquecounter/uniquecounter.sty
INPUT /opt/texlive/2021/texmf-dist/tex/generic/uniquecounter/uniquecounter.sty
INPUT /opt/texlive/2021/texmf-dist/tex/generic/bigintcalc/bigintcalc.sty
INPUT /opt/texlive/2021/texmf-dist/tex/generic/infwarerr/infwarerr.sty
INPUT /opt/texlive/2021/texmf-dist/tex/latex/listings/listings.sty
INPUT /opt/texlive/2021/texmf-dist/tex/latex/listings/listings.sty
INPUT /opt/texlive/2021/texmf-dist/tex/latex/listings/listings.sty
INPUT /opt/texlive/2021/texmf-dist/tex/latex/listings/listings.sty
INPUT /opt/texlive/2021/texmf-dist/tex/latex/listings/listings.sty
INPUT /opt/texlive/2021/texmf-dist/tex/latex/listings/listings.sty
INPUT /opt/texlive/2021/texmf-dist/tex/latex/listings/listings.sty
INPUT /opt/texlive/2021/texmf-dist/tex/latex/listings/listings.sty
INPUT /opt/texlive/2021/texmf-dist/tex/latex/listings/listings.sty
INPUT /opt/texlive/2021/texmf-dist/tex/latex/listings/listings.sty
INPUT /opt/texlive/2021/texmf-dist/tex/latex/listings/listings.sty
INPUT /opt/texlive/2021/texmf-dist/tex/latex/graphics/keyval.sty
INPUT /opt/texlive/2021/texmf-dist/tex/latex/listings/lstmisc.sty
INPUT /opt/texlive/2021/texmf-dist/tex/latex/listings/lstmisc.sty
INPUT /opt/texlive/2021/texmf-dist/tex/latex/listings/lstmisc.sty
INPUT /opt/texlive/2021/texmf-dist/tex/latex/listings/lstmisc.sty
INPUT /opt/texlive/2021/texmf-dist/tex/latex/listings/listings.cfg
INPUT /opt/texlive/2021/texmf-dist/tex/latex/listings/listings.cfg
INPUT /opt/texlive/2021/texmf-dist/tex/latex/listings/listings.cfg
INPUT /opt/texlive/2021/texmf-dist/tex/latex/listings/listings.cfg
INPUT /opt/texlive/2021/texmf-dist/tex/latex/pdfpages/pdfpages.sty
INPUT /opt/texlive/2021/texmf-dist/tex/latex/pdfpages/pdfpages.sty
INPUT /opt/texlive/2021/texmf-dist/tex/latex/pdfpages/pdfpages.sty
INPUT /opt/texlive/2021/texmf-dist/tex/latex/pdfpages/pdfpages.sty
INPUT /opt/texlive/2021/texmf-dist/tex/latex/pdfpages/pdfpages.sty
INPUT /opt/texlive/2021/texmf-dist/tex/latex/pdfpages/pdfpages.sty
INPUT /opt/texlive/2021/texmf-dist/tex/latex/pdfpages/pdfpages.sty
INPUT /opt/texlive/2021/texmf-dist/tex/latex/pdfpages/pdfpages.sty
INPUT /opt/texlive/2021/texmf-dist/tex/latex/pdfpages/pdfpages.sty
INPUT /opt/texlive/2021/texmf-dist/tex/latex/pdfpages/pdfpages.sty
INPUT /opt/texlive/2021/texmf-dist/tex/latex/pdfpages/pdfpages.sty
INPUT /opt/texlive/2021/texmf-dist/tex/latex/base/ifthen.sty
INPUT /opt/texlive/2021/texmf-dist/tex/latex/tools/calc.sty
INPUT /opt/texlive/2021/texmf-dist/tex/latex/tools/calc.sty
INPUT /opt/texlive/2021/texmf-dist/tex/latex/tools/calc.sty
INPUT /opt/texlive/2021/texmf-dist/tex/latex/tools/calc.sty
INPUT /opt/texlive/2021/texmf-dist/tex/latex/tools/calc.sty
INPUT /opt/texlive/2021/texmf-dist/tex/latex/tools/calc.sty
INPUT /opt/texlive/2021/texmf-dist/tex/latex/tools/calc.sty
INPUT /opt/texlive/2021/texmf-dist/tex/latex/tools/calc.sty
INPUT /opt/texlive/2021/texmf-dist/tex/latex/tools/calc.sty
INPUT /opt/texlive/2021/texmf-dist/tex/latex/tools/calc.sty
INPUT /opt/texlive/2021/texmf-dist/tex/latex/tools/calc.sty
INPUT /opt/texlive/2021/texmf-dist/tex/latex/eso-pic/eso-pic.sty
INPUT /opt/texlive/2021/texmf-dist/tex/latex/eso-pic/eso-pic.sty
INPUT /opt/texlive/2021/texmf-dist/tex/latex/eso-pic/eso-pic.sty
INPUT /opt/texlive/2021/texmf-dist/tex/latex/eso-pic/eso-pic.sty
INPUT /opt/texlive/2021/texmf-dist/tex/latex/eso-pic/eso-pic.sty
INPUT /opt/texlive/2021/texmf-dist/tex/latex/eso-pic/eso-pic.sty
INPUT /opt/texlive/2021/texmf-dist/tex/latex/eso-pic/eso-pic.sty
INPUT /opt/texlive/2021/texmf-dist/tex/latex/eso-pic/eso-pic.sty
INPUT /opt/texlive/2021/texmf-dist/tex/latex/eso-pic/eso-pic.sty
INPUT /opt/texlive/2021/texmf-dist/tex/latex/eso-pic/eso-pic.sty
INPUT /opt/texlive/2021/texmf-dist/tex/latex/eso-pic/eso-pic.sty
INPUT /opt/texlive/2021/texmf-dist/tex/latex/graphics/keyval.sty
INPUT /opt/texlive/2021/texmf-dist/tex/latex/xcolor/xcolor.sty
INPUT /opt/texlive/2021/texmf-dist/tex/latex/xcolor/xcolor.sty
INPUT /opt/texlive/2021/texmf-dist/tex/latex/xcolor/xcolor.sty
INPUT /opt/texlive/2021/texmf-dist/tex/latex/xcolor/xcolor.sty
INPUT /opt/texlive/2021/texmf-dist/tex/latex/xcolor/xcolor.sty
INPUT /opt/texlive/2021/texmf-dist/tex/latex/xcolor/xcolor.sty
INPUT /opt/texlive/2021/texmf-dist/tex/latex/xcolor/xcolor.sty
INPUT /opt/texlive/2021/texmf-dist/tex/latex/xcolor/xcolor.sty
INPUT /opt/texlive/2021/texmf-dist/tex/latex/xcolor/xcolor.sty
INPUT /opt/texlive/2021/texmf-dist/tex/latex/xcolor/xcolor.sty
INPUT /opt/texlive/2021/texmf-dist/tex/latex/xcolor/xcolor.sty
INPUT /opt/texlive/2021/texmf-dist/tex/latex/xcolor/xcolor.sty
INPUT /opt/texlive/2021/texmf-dist/tex/latex/xcolor/xcolor.sty
INPUT /opt/texlive/2021/texmf-dist/tex/latex/graphics-cfg/color.cfg
INPUT /opt/texlive/2021/texmf-dist/tex/latex/graphics-cfg/color.cfg
INPUT /opt/texlive/2021/texmf-dist/tex/latex/graphics-cfg/color.cfg
INPUT /opt/texlive/2021/texmf-dist/tex/latex/graphics-cfg/color.cfg
INPUT /opt/texlive/2021/texmf-dist/tex/latex/graphics/graphicx.sty
INPUT /opt/texlive/2021/texmf-dist/tex/latex/pdfpages/pppdftex.def
INPUT /opt/texlive/2021/texmf-dist/tex/latex/pdfpages/pppdftex.def
INPUT /opt/texlive/2021/texmf-dist/tex/latex/pdfpages/pppdftex.def
INPUT /opt/texlive/2021/texmf-dist/tex/latex/pdfpages/pppdftex.def
INPUT /opt/texlive/2021/texmf-dist/tex/latex/subfig/subfig.sty
INPUT /opt/texlive/2021/texmf-dist/tex/latex/subfig/subfig.sty
INPUT /opt/texlive/2021/texmf-dist/tex/latex/subfig/subfig.sty
INPUT /opt/texlive/2021/texmf-dist/tex/latex/subfig/subfig.sty
INPUT /opt/texlive/2021/texmf-dist/tex/latex/subfig/subfig.sty
INPUT /opt/texlive/2021/texmf-dist/tex/latex/subfig/subfig.sty
INPUT /opt/texlive/2021/texmf-dist/tex/latex/subfig/subfig.sty
INPUT /opt/texlive/2021/texmf-dist/tex/latex/subfig/subfig.sty
INPUT /opt/texlive/2021/texmf-dist/tex/latex/subfig/subfig.sty
INPUT /opt/texlive/2021/texmf-dist/tex/latex/subfig/subfig.sty
INPUT /opt/texlive/2021/texmf-dist/tex/latex/subfig/subfig.sty
INPUT /opt/texlive/2021/texmf-dist/tex/latex/graphics/keyval.sty
INPUT /opt/texlive/2021/texmf-dist/tex/latex/caption/caption.sty
INPUT /opt/texlive/2021/texmf-dist/tex/latex/caption/caption.sty
INPUT /opt/texlive/2021/texmf-dist/tex/latex/caption/caption.sty
INPUT /opt/texlive/2021/texmf-dist/tex/latex/caption/caption.sty
INPUT /opt/texlive/2021/texmf-dist/tex/latex/caption/caption.sty
INPUT /opt/texlive/2021/texmf-dist/tex/latex/caption/caption.sty
INPUT /opt/texlive/2021/texmf-dist/tex/latex/caption/caption.sty
INPUT /opt/texlive/2021/texmf-dist/tex/latex/caption/caption.sty
INPUT /opt/texlive/2021/texmf-dist/tex/latex/caption/caption.sty
INPUT /opt/texlive/2021/texmf-dist/tex/latex/caption/caption.sty
INPUT /opt/texlive/2021/texmf-dist/tex/latex/caption/caption.sty
INPUT /opt/texlive/2021/texmf-dist/tex/latex/caption/caption3.sty
INPUT /opt/texlive/2021/texmf-dist/tex/latex/caption/caption3.sty
INPUT /opt/texlive/2021/texmf-dist/tex/latex/caption/caption3.sty
INPUT /opt/texlive/2021/texmf-dist/tex/latex/caption/caption3.sty
INPUT /opt/texlive/2021/texmf-dist/tex/latex/caption/caption3.sty
INPUT /opt/texlive/2021/texmf-dist/tex/latex/caption/caption3.sty
INPUT /opt/texlive/2021/texmf-dist/tex/latex/caption/caption3.sty
INPUT /opt/texlive/2021/texmf-dist/tex/latex/caption/caption3.sty
INPUT /opt/texlive/2021/texmf-dist/tex/latex/caption/caption3.sty
INPUT /opt/texlive/2021/texmf-dist/tex/latex/caption/caption3.sty
INPUT /opt/texlive/2021/texmf-dist/tex/latex/caption/caption3.sty
INPUT /opt/texlive/2021/texmf-dist/tex/latex/graphics/keyval.sty
INPUT /opt/texlive/2021/texmf-dist/tex/latex/booktabs/booktabs.sty
INPUT /opt/texlive/2021/texmf-dist/tex/latex/booktabs/booktabs.sty
INPUT /opt/texlive/2021/texmf-dist/tex/latex/booktabs/booktabs.sty
INPUT /opt/texlive/2021/texmf-dist/tex/latex/booktabs/booktabs.sty
INPUT /opt/texlive/2021/texmf-dist/tex/latex/booktabs/booktabs.sty
INPUT /opt/texlive/2021/texmf-dist/tex/latex/booktabs/booktabs.sty
INPUT /opt/texlive/2021/texmf-dist/tex/latex/booktabs/booktabs.sty
INPUT /opt/texlive/2021/texmf-dist/tex/latex/booktabs/booktabs.sty
INPUT /opt/texlive/2021/texmf-dist/tex/latex/booktabs/booktabs.sty
INPUT /opt/texlive/2021/texmf-dist/tex/latex/booktabs/booktabs.sty
INPUT /opt/texlive/2021/texmf-dist/tex/latex/booktabs/booktabs.sty
INPUT /opt/texlive/2021/texmf-dist/tex/latex/subfiles/subfiles.sty
INPUT /opt/texlive/2021/texmf-dist/tex/latex/subfiles/subfiles.sty
INPUT /opt/texlive/2021/texmf-dist/tex/latex/subfiles/subfiles.sty
INPUT /opt/texlive/2021/texmf-dist/tex/latex/subfiles/subfiles.sty
INPUT /opt/texlive/2021/texmf-dist/tex/latex/subfiles/subfiles.sty
INPUT /opt/texlive/2021/texmf-dist/tex/latex/subfiles/subfiles.sty
INPUT /opt/texlive/2021/texmf-dist/tex/latex/subfiles/subfiles.sty
INPUT /opt/texlive/2021/texmf-dist/tex/latex/subfiles/subfiles.sty
INPUT /opt/texlive/2021/texmf-dist/tex/latex/subfiles/subfiles.sty
INPUT /opt/texlive/2021/texmf-dist/tex/latex/subfiles/subfiles.sty
INPUT /opt/texlive/2021/texmf-dist/tex/latex/subfiles/subfiles.sty
INPUT /opt/texlive/2021/texmf-dist/tex/latex/import/import.sty
INPUT /opt/texlive/2021/texmf-dist/tex/latex/import/import.sty
INPUT /opt/texlive/2021/texmf-dist/tex/latex/import/import.sty
INPUT /opt/texlive/2021/texmf-dist/tex/latex/import/import.sty
INPUT /opt/texlive/2021/texmf-dist/tex/latex/import/import.sty
INPUT /opt/texlive/2021/texmf-dist/tex/latex/import/import.sty
INPUT /opt/texlive/2021/texmf-dist/tex/latex/import/import.sty
INPUT /opt/texlive/2021/texmf-dist/tex/latex/import/import.sty
INPUT /opt/texlive/2021/texmf-dist/tex/latex/import/import.sty
INPUT /opt/texlive/2021/texmf-dist/tex/latex/import/import.sty
INPUT /opt/texlive/2021/texmf-dist/tex/latex/import/import.sty
INPUT /opt/texlive/2021/texmf-dist/tex/latex/siunitx/siunitx.sty
INPUT /opt/texlive/2021/texmf-dist/tex/latex/siunitx/siunitx.sty
INPUT /opt/texlive/2021/texmf-dist/tex/latex/siunitx/siunitx.sty
INPUT /opt/texlive/2021/texmf-dist/tex/latex/siunitx/siunitx.sty
INPUT /opt/texlive/2021/texmf-dist/tex/latex/siunitx/siunitx.sty
INPUT /opt/texlive/2021/texmf-dist/tex/latex/siunitx/siunitx.sty
INPUT /opt/texlive/2021/texmf-dist/tex/latex/siunitx/siunitx.sty
INPUT /opt/texlive/2021/texmf-dist/tex/latex/siunitx/siunitx.sty
INPUT /opt/texlive/2021/texmf-dist/tex/latex/siunitx/siunitx.sty
INPUT /opt/texlive/2021/texmf-dist/tex/latex/siunitx/siunitx.sty
INPUT /opt/texlive/2021/texmf-dist/tex/latex/siunitx/siunitx.sty
INPUT /opt/texlive/2021/texmf-dist/tex/latex/amsmath/amstext.sty
INPUT /opt/texlive/2021/texmf-dist/tex/latex/amsmath/amstext.sty
INPUT /opt/texlive/2021/texmf-dist/tex/latex/amsmath/amstext.sty
INPUT /opt/texlive/2021/texmf-dist/tex/latex/amsmath/amstext.sty
INPUT /opt/texlive/2021/texmf-dist/tex/latex/amsmath/amstext.sty
INPUT /opt/texlive/2021/texmf-dist/tex/latex/amsmath/amstext.sty
INPUT /opt/texlive/2021/texmf-dist/tex/latex/amsmath/amstext.sty
INPUT /opt/texlive/2021/texmf-dist/tex/latex/amsmath/amstext.sty
INPUT /opt/texlive/2021/texmf-dist/tex/latex/amsmath/amstext.sty
INPUT /opt/texlive/2021/texmf-dist/tex/latex/amsmath/amstext.sty
INPUT /opt/texlive/2021/texmf-dist/tex/latex/amsmath/amstext.sty
INPUT /opt/texlive/2021/texmf-dist/tex/latex/amsmath/amsgen.sty
INPUT /opt/texlive/2021/texmf-dist/tex/latex/graphics/color.sty
INPUT /opt/texlive/2021/texmf-dist/tex/latex/l3packages/l3keys2e/l3keys2e.sty
INPUT /opt/texlive/2021/texmf-dist/tex/latex/l3packages/l3keys2e/l3keys2e.sty
INPUT /opt/texlive/2021/texmf-dist/tex/latex/l3packages/l3keys2e/l3keys2e.sty
INPUT /opt/texlive/2021/texmf-dist/tex/latex/l3packages/l3keys2e/l3keys2e.sty
INPUT /opt/texlive/2021/texmf-dist/tex/latex/l3packages/l3keys2e/l3keys2e.sty
INPUT /opt/texlive/2021/texmf-dist/tex/latex/l3packages/l3keys2e/l3keys2e.sty
INPUT /opt/texlive/2021/texmf-dist/tex/latex/l3packages/l3keys2e/l3keys2e.sty
INPUT /opt/texlive/2021/texmf-dist/tex/latex/l3packages/l3keys2e/l3keys2e.sty
INPUT /opt/texlive/2021/texmf-dist/tex/latex/l3packages/l3keys2e/l3keys2e.sty
INPUT /opt/texlive/2021/texmf-dist/tex/latex/l3packages/l3keys2e/l3keys2e.sty
INPUT /opt/texlive/2021/texmf-dist/tex/latex/l3packages/l3keys2e/l3keys2e.sty
INPUT /opt/texlive/2021/texmf-dist/tex/latex/l3kernel/expl3.sty
INPUT /opt/texlive/2021/texmf-dist/tex/latex/l3kernel/expl3.sty
INPUT /opt/texlive/2021/texmf-dist/tex/latex/l3kernel/expl3.sty
INPUT /opt/texlive/2021/texmf-dist/tex/latex/l3kernel/expl3.sty
INPUT /opt/texlive/2021/texmf-dist/tex/latex/l3kernel/expl3.sty
INPUT /opt/texlive/2021/texmf-dist/tex/latex/l3kernel/expl3.sty
INPUT /opt/texlive/2021/texmf-dist/tex/latex/l3kernel/expl3.sty
INPUT /opt/texlive/2021/texmf-dist/tex/latex/l3kernel/expl3.sty
INPUT /opt/texlive/2021/texmf-dist/tex/latex/l3kernel/expl3.sty
INPUT /opt/texlive/2021/texmf-dist/tex/latex/l3kernel/expl3.sty
INPUT /opt/texlive/2021/texmf-dist/tex/latex/l3kernel/expl3.sty
INPUT /opt/texlive/2021/texmf-dist/tex/latex/l3backend/l3backend-pdftex.def
INPUT /opt/texlive/2021/texmf-dist/tex/latex/l3backend/l3backend-pdftex.def
INPUT /opt/texlive/2021/texmf-dist/tex/latex/l3backend/l3backend-pdftex.def
INPUT /opt/texlive/2021/texmf-dist/tex/latex/l3backend/l3backend-pdftex.def
INPUT /opt/texlive/2021/texmf-dist/tex/latex/l3backend/l3backend-pdftex.def
INPUT /opt/texlive/2021/texmf-dist/tex/latex/l3backend/l3backend-pdftex.def
INPUT /opt/texlive/2021/texmf-dist/tex/latex/l3backend/l3backend-pdftex.def
INPUT /opt/texlive/2021/texmf-dist/tex/latex/l3backend/l3backend-pdftex.def
INPUT /opt/texlive/2021/texmf-dist/tex/latex/l3backend/l3backend-pdftex.def
INPUT /opt/texlive/2021/texmf-dist/tex/latex/l3backend/l3backend-pdftex.def
INPUT /opt/texlive/2021/texmf-dist/tex/latex/l3backend/l3backend-pdftex.def
INPUT /opt/texlive/2021/texmf-dist/tex/latex/tools/array.sty
INPUT /opt/texlive/2021/texmf-dist/tex/latex/tools/array.sty
INPUT /opt/texlive/2021/texmf-dist/tex/latex/tools/array.sty
INPUT /opt/texlive/2021/texmf-dist/tex/latex/tools/array.sty
INPUT /opt/texlive/2021/texmf-dist/tex/latex/tools/array.sty
INPUT /opt/texlive/2021/texmf-dist/tex/latex/tools/array.sty
INPUT /opt/texlive/2021/texmf-dist/tex/latex/tools/array.sty
INPUT /opt/texlive/2021/texmf-dist/tex/latex/tools/array.sty
INPUT /opt/texlive/2021/texmf-dist/tex/latex/tools/array.sty
INPUT /opt/texlive/2021/texmf-dist/tex/latex/tools/array.sty
INPUT /opt/texlive/2021/texmf-dist/tex/latex/tools/array.sty
INPUT /opt/texlive/2021/texmf-dist/tex/latex/microtype/microtype.sty
INPUT /opt/texlive/2021/texmf-dist/tex/latex/microtype/microtype.sty
INPUT /opt/texlive/2021/texmf-dist/tex/latex/microtype/microtype.sty
INPUT /opt/texlive/2021/texmf-dist/tex/latex/microtype/microtype.sty
INPUT /opt/texlive/2021/texmf-dist/tex/latex/microtype/microtype.sty
INPUT /opt/texlive/2021/texmf-dist/tex/latex/microtype/microtype.sty
INPUT /opt/texlive/2021/texmf-dist/tex/latex/microtype/microtype.sty
INPUT /opt/texlive/2021/texmf-dist/tex/latex/microtype/microtype.sty
INPUT /opt/texlive/2021/texmf-dist/tex/latex/microtype/microtype.sty
INPUT /opt/texlive/2021/texmf-dist/tex/latex/microtype/microtype.sty
INPUT /opt/texlive/2021/texmf-dist/tex/latex/microtype/microtype.sty
INPUT /opt/texlive/2021/texmf-dist/tex/latex/graphics/keyval.sty
INPUT /opt/texlive/2021/texmf-dist/tex/latex/microtype/microtype-pdftex.def
INPUT /opt/texlive/2021/texmf-dist/tex/latex/microtype/microtype-pdftex.def
INPUT /opt/texlive/2021/texmf-dist/tex/latex/microtype/microtype-pdftex.def
INPUT /opt/texlive/2021/texmf-dist/tex/latex/microtype/microtype-pdftex.def
INPUT /opt/texlive/2021/texmf-dist/tex/latex/microtype/microtype.cfg
INPUT /opt/texlive/2021/texmf-dist/tex/latex/microtype/microtype.cfg
INPUT /opt/texlive/2021/texmf-dist/tex/latex/microtype/microtype.cfg
INPUT /opt/texlive/2021/texmf-dist/tex/latex/microtype/microtype.cfg
INPUT /opt/texlive/2021/texmf-dist/tex/latex/microtype/microtype.cfg
INPUT /opt/texlive/2021/texmf-dist/tex/latex/microtype/microtype.cfg
INPUT /opt/texlive/2021/texmf-dist/tex/latex/wrapfig/wrapfig.sty
INPUT /opt/texlive/2021/texmf-dist/tex/latex/wrapfig/wrapfig.sty
INPUT /opt/texlive/2021/texmf-dist/tex/latex/wrapfig/wrapfig.sty
INPUT /opt/texlive/2021/texmf-dist/tex/latex/wrapfig/wrapfig.sty
INPUT /opt/texlive/2021/texmf-dist/tex/latex/wrapfig/wrapfig.sty
INPUT /opt/texlive/2021/texmf-dist/tex/latex/wrapfig/wrapfig.sty
INPUT /opt/texlive/2021/texmf-dist/tex/latex/wrapfig/wrapfig.sty
INPUT /opt/texlive/2021/texmf-dist/tex/latex/wrapfig/wrapfig.sty
INPUT /opt/texlive/2021/texmf-dist/tex/latex/wrapfig/wrapfig.sty
INPUT /opt/texlive/2021/texmf-dist/tex/latex/wrapfig/wrapfig.sty
INPUT /opt/texlive/2021/texmf-dist/tex/latex/wrapfig/wrapfig.sty
INPUT /opt/texlive/2021/texmf-dist/tex/latex/eurosym/eurosym.sty
INPUT /opt/texlive/2021/texmf-dist/tex/latex/eurosym/eurosym.sty
INPUT /opt/texlive/2021/texmf-dist/tex/latex/eurosym/eurosym.sty
INPUT /opt/texlive/2021/texmf-dist/tex/latex/eurosym/eurosym.sty
INPUT /opt/texlive/2021/texmf-dist/tex/latex/eurosym/eurosym.sty
INPUT /opt/texlive/2021/texmf-dist/tex/latex/eurosym/eurosym.sty
INPUT /opt/texlive/2021/texmf-dist/tex/latex/eurosym/eurosym.sty
INPUT /opt/texlive/2021/texmf-dist/tex/latex/eurosym/eurosym.sty
INPUT /opt/texlive/2021/texmf-dist/tex/latex/eurosym/eurosym.sty
INPUT /opt/texlive/2021/texmf-dist/tex/latex/eurosym/eurosym.sty
INPUT /opt/texlive/2021/texmf-dist/tex/latex/eurosym/eurosym.sty
INPUT /opt/texlive/2021/texmf-dist/tex/latex/float/float.sty
INPUT /opt/texlive/2021/texmf-dist/tex/latex/float/float.sty
INPUT /opt/texlive/2021/texmf-dist/tex/latex/float/float.sty
INPUT /opt/texlive/2021/texmf-dist/tex/latex/float/float.sty
INPUT /opt/texlive/2021/texmf-dist/tex/latex/float/float.sty
INPUT /opt/texlive/2021/texmf-dist/tex/latex/float/float.sty
INPUT /opt/texlive/2021/texmf-dist/tex/latex/float/float.sty
INPUT /opt/texlive/2021/texmf-dist/tex/latex/float/float.sty
INPUT /opt/texlive/2021/texmf-dist/tex/latex/float/float.sty
INPUT /opt/texlive/2021/texmf-dist/tex/latex/float/float.sty
INPUT /opt/texlive/2021/texmf-dist/tex/latex/float/float.sty
INPUT /opt/texlive/2021/texmf-dist/tex/latex/booktabs/booktabs.sty
INPUT /opt/texlive/2021/texmf-dist/tex/latex/amsmath/amsmath.sty
INPUT /opt/texlive/2021/texmf-dist/tex/latex/amsmath/amsmath.sty
INPUT /opt/texlive/2021/texmf-dist/tex/latex/amsmath/amsmath.sty
INPUT /opt/texlive/2021/texmf-dist/tex/latex/amsmath/amsmath.sty
INPUT /opt/texlive/2021/texmf-dist/tex/latex/amsmath/amsmath.sty
INPUT /opt/texlive/2021/texmf-dist/tex/latex/amsmath/amsmath.sty
INPUT /opt/texlive/2021/texmf-dist/tex/latex/amsmath/amsmath.sty
INPUT /opt/texlive/2021/texmf-dist/tex/latex/amsmath/amsmath.sty
INPUT /opt/texlive/2021/texmf-dist/tex/latex/amsmath/amsmath.sty
INPUT /opt/texlive/2021/texmf-dist/tex/latex/amsmath/amsmath.sty
INPUT /opt/texlive/2021/texmf-dist/tex/latex/amsmath/amsmath.sty
INPUT /opt/texlive/2021/texmf-dist/tex/latex/amsmath/amsopn.sty
INPUT /opt/texlive/2021/texmf-dist/tex/latex/amsmath/amsopn.sty
INPUT /opt/texlive/2021/texmf-dist/tex/latex/amsmath/amstext.sty
INPUT /opt/texlive/2021/texmf-dist/tex/latex/amsmath/amsbsy.sty
INPUT /opt/texlive/2021/texmf-dist/tex/latex/amsmath/amsbsy.sty
INPUT /opt/texlive/2021/texmf-dist/tex/latex/amsmath/amsbsy.sty
INPUT /opt/texlive/2021/texmf-dist/tex/latex/amsmath/amsbsy.sty
INPUT /opt/texlive/2021/texmf-dist/tex/latex/amsmath/amsbsy.sty
INPUT /opt/texlive/2021/texmf-dist/tex/latex/amsmath/amsbsy.sty
INPUT /opt/texlive/2021/texmf-dist/tex/latex/amsmath/amsbsy.sty
INPUT /opt/texlive/2021/texmf-dist/tex/latex/amsmath/amsbsy.sty
INPUT /opt/texlive/2021/texmf-dist/tex/latex/amsmath/amsbsy.sty
INPUT /opt/texlive/2021/texmf-dist/tex/latex/amsmath/amsbsy.sty
INPUT /opt/texlive/2021/texmf-dist/tex/latex/amsmath/amsbsy.sty
INPUT /opt/texlive/2021/texmf-dist/tex/latex/amsmath/amsgen.sty
INPUT /opt/texlive/2021/texmf-dist/tex/latex/amsmath/amsopn.sty
INPUT /opt/texlive/2021/texmf-dist/tex/latex/amsmath/amsopn.sty
INPUT /opt/texlive/2021/texmf-dist/tex/latex/amsmath/amsopn.sty
INPUT /opt/texlive/2021/texmf-dist/tex/latex/amsmath/amsopn.sty
INPUT /opt/texlive/2021/texmf-dist/tex/latex/amsmath/amsopn.sty
INPUT /opt/texlive/2021/texmf-dist/tex/latex/amsmath/amsopn.sty
INPUT /opt/texlive/2021/texmf-dist/tex/latex/amsmath/amsopn.sty
INPUT /opt/texlive/2021/texmf-dist/tex/latex/amsmath/amsopn.sty
INPUT /opt/texlive/2021/texmf-dist/tex/latex/amsmath/amsopn.sty
INPUT /opt/texlive/2021/texmf-dist/tex/latex/amsmath/amsopn.sty
INPUT /opt/texlive/2021/texmf-dist/tex/latex/amsmath/amsopn.sty
INPUT /opt/texlive/2021/texmf-dist/tex/latex/amsmath/amsgen.sty
INPUT /opt/texlive/2021/texmf-dist/tex/latex/amscls/amsthm.sty
INPUT /opt/texlive/2021/texmf-dist/tex/latex/amscls/amsthm.sty
INPUT /opt/texlive/2021/texmf-dist/tex/latex/amscls/amsthm.sty
INPUT /opt/texlive/2021/texmf-dist/tex/latex/amscls/amsthm.sty
INPUT /opt/texlive/2021/texmf-dist/tex/latex/amscls/amsthm.sty
INPUT /opt/texlive/2021/texmf-dist/tex/latex/amscls/amsthm.sty
INPUT /opt/texlive/2021/texmf-dist/tex/latex/amscls/amsthm.sty
INPUT /opt/texlive/2021/texmf-dist/tex/latex/amscls/amsthm.sty
INPUT /opt/texlive/2021/texmf-dist/tex/latex/amscls/amsthm.sty
INPUT /opt/texlive/2021/texmf-dist/tex/latex/amscls/amsthm.sty
INPUT /opt/texlive/2021/texmf-dist/tex/latex/amscls/amsthm.sty
INPUT /opt/texlive/2021/texmf-dist/tex/latex/amsfonts/amssymb.sty
INPUT /opt/texlive/2021/texmf-dist/tex/latex/amsfonts/amssymb.sty
INPUT /opt/texlive/2021/texmf-dist/tex/latex/amsfonts/amssymb.sty
INPUT /opt/texlive/2021/texmf-dist/tex/latex/amsfonts/amssymb.sty
INPUT /opt/texlive/2021/texmf-dist/tex/latex/amsfonts/amssymb.sty
INPUT /opt/texlive/2021/texmf-dist/tex/latex/amsfonts/amssymb.sty
INPUT /opt/texlive/2021/texmf-dist/tex/latex/amsfonts/amssymb.sty
INPUT /opt/texlive/2021/texmf-dist/tex/latex/amsfonts/amssymb.sty
INPUT /opt/texlive/2021/texmf-dist/tex/latex/amsfonts/amssymb.sty
INPUT /opt/texlive/2021/texmf-dist/tex/latex/amsfonts/amssymb.sty
INPUT /opt/texlive/2021/texmf-dist/tex/latex/amsfonts/amssymb.sty
INPUT /opt/texlive/2021/texmf-dist/tex/latex/amsfonts/amsfonts.sty
INPUT /opt/texlive/2021/texmf-dist/tex/latex/amsfonts/amsfonts.sty
INPUT /opt/texlive/2021/texmf-dist/tex/latex/amsfonts/amsfonts.sty
INPUT /opt/texlive/2021/texmf-dist/tex/latex/amsfonts/amsfonts.sty
INPUT /opt/texlive/2021/texmf-dist/tex/latex/amsfonts/amsfonts.sty
INPUT /opt/texlive/2021/texmf-dist/tex/latex/amsfonts/amsfonts.sty
INPUT /opt/texlive/2021/texmf-dist/tex/latex/amsfonts/amsfonts.sty
INPUT /opt/texlive/2021/texmf-dist/tex/latex/amsfonts/amsfonts.sty
INPUT /opt/texlive/2021/texmf-dist/tex/latex/amsfonts/amsfonts.sty
INPUT /opt/texlive/2021/texmf-dist/tex/latex/amsfonts/amsfonts.sty
INPUT /opt/texlive/2021/texmf-dist/tex/latex/amsfonts/amsfonts.sty
INPUT ./report.aux
INPUT report.aux
INPUT report.aux
OUTPUT report.aux
INPUT /opt/texlive/2021/texmf-dist/tex/latex/fmtcount/fc-english.def
INPUT /opt/texlive/2021/texmf-dist/tex/latex/fmtcount/fc-english.def
INPUT /opt/texlive/2021/texmf-dist/tex/latex/fmtcount/fc-english.def
INPUT /opt/texlive/2021/texmf-dist/tex/latex/fmtcount/fc-english.def
INPUT /opt/texlive/2021/texmf-dist/tex/context/base/mkii/supp-pdf.mkii
INPUT /opt/texlive/2021/texmf-dist/tex/context/base/mkii/supp-pdf.mkii
INPUT /opt/texlive/2021/texmf-dist/tex/context/base/mkii/supp-pdf.mkii
INPUT /opt/texlive/2021/texmf-dist/tex/context/base/mkii/supp-pdf.mkii
INPUT /opt/texlive/2021/texmf-dist/tex/latex/epstopdf-pkg/epstopdf-base.sty
INPUT /opt/texlive/2021/texmf-dist/tex/latex/epstopdf-pkg/epstopdf-base.sty
INPUT /opt/texlive/2021/texmf-dist/tex/latex/epstopdf-pkg/epstopdf-base.sty
INPUT /opt/texlive/2021/texmf-dist/tex/latex/epstopdf-pkg/epstopdf-base.sty
INPUT /opt/texlive/2021/texmf-dist/tex/latex/epstopdf-pkg/epstopdf-base.sty
INPUT /opt/texlive/2021/texmf-dist/tex/latex/epstopdf-pkg/epstopdf-base.sty
INPUT /opt/texlive/2021/texmf-dist/tex/latex/epstopdf-pkg/epstopdf-base.sty
INPUT /opt/texlive/2021/texmf-dist/tex/latex/epstopdf-pkg/epstopdf-base.sty
INPUT /opt/texlive/2021/texmf-dist/tex/latex/epstopdf-pkg/epstopdf-base.sty
INPUT /opt/texlive/2021/texmf-dist/tex/latex/epstopdf-pkg/epstopdf-base.sty
INPUT /opt/texlive/2021/texmf-dist/tex/latex/epstopdf-pkg/epstopdf-base.sty
INPUT /opt/texlive/2021/texmf-dist/tex/latex/latexconfig/epstopdf-sys.cfg
INPUT /opt/texlive/2021/texmf-dist/tex/latex/latexconfig/epstopdf-sys.cfg
INPUT /opt/texlive/2021/texmf-dist/tex/latex/latexconfig/epstopdf-sys.cfg
INPUT /opt/texlive/2021/texmf-dist/tex/latex/latexconfig/epstopdf-sys.cfg
INPUT /opt/texlive/2021/texmf-dist/tex/latex/hyperref/nameref.sty
INPUT /opt/texlive/2021/texmf-dist/tex/latex/hyperref/nameref.sty
INPUT /opt/texlive/2021/texmf-dist/tex/latex/hyperref/nameref.sty
INPUT /opt/texlive/2021/texmf-dist/tex/latex/hyperref/nameref.sty
INPUT /opt/texlive/2021/texmf-dist/tex/latex/hyperref/nameref.sty
INPUT /opt/texlive/2021/texmf-dist/tex/latex/hyperref/nameref.sty
INPUT /opt/texlive/2021/texmf-dist/tex/latex/hyperref/nameref.sty
INPUT /opt/texlive/2021/texmf-dist/tex/latex/hyperref/nameref.sty
INPUT /opt/texlive/2021/texmf-dist/tex/latex/hyperref/nameref.sty
INPUT /opt/texlive/2021/texmf-dist/tex/latex/hyperref/nameref.sty
INPUT /opt/texlive/2021/texmf-dist/tex/latex/hyperref/nameref.sty
INPUT /opt/texlive/2021/texmf-dist/tex/latex/refcount/refcount.sty
INPUT /opt/texlive/2021/texmf-dist/tex/latex/refcount/refcount.sty
INPUT /opt/texlive/2021/texmf-dist/tex/latex/refcount/refcount.sty
INPUT /opt/texlive/2021/texmf-dist/tex/latex/refcount/refcount.sty
INPUT /opt/texlive/2021/texmf-dist/tex/latex/refcount/refcount.sty
INPUT /opt/texlive/2021/texmf-dist/tex/latex/refcount/refcount.sty
INPUT /opt/texlive/2021/texmf-dist/tex/latex/refcount/refcount.sty
INPUT /opt/texlive/2021/texmf-dist/tex/latex/refcount/refcount.sty
INPUT /opt/texlive/2021/texmf-dist/tex/latex/refcount/refcount.sty
INPUT /opt/texlive/2021/texmf-dist/tex/latex/refcount/refcount.sty
INPUT /opt/texlive/2021/texmf-dist/tex/latex/refcount/refcount.sty
INPUT /opt/texlive/2021/texmf-dist/tex/generic/ltxcmds/ltxcmds.sty
INPUT /opt/texlive/2021/texmf-dist/tex/generic/infwarerr/infwarerr.sty
INPUT /opt/texlive/2021/texmf-dist/tex/generic/gettitlestring/gettitlestring.sty
INPUT /opt/texlive/2021/texmf-dist/tex/generic/gettitlestring/gettitlestring.sty
INPUT /opt/texlive/2021/texmf-dist/tex/generic/gettitlestring/gettitlestring.sty
INPUT /opt/texlive/2021/texmf-dist/tex/generic/gettitlestring/gettitlestring.sty
INPUT /opt/texlive/2021/texmf-dist/tex/generic/gettitlestring/gettitlestring.sty
INPUT /opt/texlive/2021/texmf-dist/tex/generic/gettitlestring/gettitlestring.sty
INPUT /opt/texlive/2021/texmf-dist/tex/generic/gettitlestring/gettitlestring.sty
INPUT /opt/texlive/2021/texmf-dist/tex/generic/gettitlestring/gettitlestring.sty
INPUT /opt/texlive/2021/texmf-dist/tex/generic/gettitlestring/gettitlestring.sty
INPUT /opt/texlive/2021/texmf-dist/tex/generic/gettitlestring/gettitlestring.sty
INPUT /opt/texlive/2021/texmf-dist/tex/generic/gettitlestring/gettitlestring.sty
INPUT /opt/texlive/2021/texmf-dist/tex/latex/kvoptions/kvoptions.sty
INPUT /opt/texlive/2021/texmf-dist/tex/generic/ltxcmds/ltxcmds.sty
INPUT ./report.out
INPUT report.out
INPUT ./report.out
INPUT report.out
INPUT ./report.out
INPUT report.out
INPUT ./report.out
INPUT report.out
OUTPUT report.pdf
INPUT ./report.out
INPUT ./report.out
OUTPUT report.out
INPUT /opt/texlive/2021/texmf-dist/tex/latex/pdflscape/pdflscape.sty
INPUT /opt/texlive/2021/texmf-dist/tex/latex/pdflscape/pdflscape.sty
INPUT /opt/texlive/2021/texmf-dist/tex/latex/pdflscape/pdflscape.sty
INPUT /opt/texlive/2021/texmf-dist/tex/latex/pdflscape/pdflscape.sty
INPUT /opt/texlive/2021/texmf-dist/tex/latex/pdflscape/pdflscape.sty
INPUT /opt/texlive/2021/texmf-dist/tex/latex/pdflscape/pdflscape.sty
INPUT /opt/texlive/2021/texmf-dist/tex/latex/pdflscape/pdflscape.sty
INPUT /opt/texlive/2021/texmf-dist/tex/latex/pdflscape/pdflscape.sty
INPUT /opt/texlive/2021/texmf-dist/tex/latex/pdflscape/pdflscape.sty
INPUT /opt/texlive/2021/texmf-dist/tex/latex/pdflscape/pdflscape.sty
INPUT /opt/texlive/2021/texmf-dist/tex/latex/pdflscape/pdflscape.sty
INPUT /opt/texlive/2021/texmf-dist/tex/generic/iftex/iftex.sty
INPUT /opt/texlive/2021/texmf-dist/tex/latex/graphics/lscape.sty
INPUT /opt/texlive/2021/texmf-dist/tex/latex/graphics/lscape.sty
INPUT /opt/texlive/2021/texmf-dist/tex/latex/graphics/lscape.sty
INPUT /opt/texlive/2021/texmf-dist/tex/latex/graphics/lscape.sty
INPUT /opt/texlive/2021/texmf-dist/tex/latex/graphics/lscape.sty
INPUT /opt/texlive/2021/texmf-dist/tex/latex/graphics/lscape.sty
INPUT /opt/texlive/2021/texmf-dist/tex/latex/graphics/lscape.sty
INPUT /opt/texlive/2021/texmf-dist/tex/latex/graphics/lscape.sty
INPUT /opt/texlive/2021/texmf-dist/tex/latex/graphics/lscape.sty
INPUT /opt/texlive/2021/texmf-dist/tex/latex/graphics/lscape.sty
INPUT /opt/texlive/2021/texmf-dist/tex/latex/graphics/lscape.sty
INPUT /opt/texlive/2021/texmf-dist/tex/latex/graphics/graphics.sty
INPUT /opt/texlive/2021/texmf-dist/tex/latex/microtype/mt-cmr.cfg
INPUT /opt/texlive/2021/texmf-dist/tex/latex/microtype/mt-cmr.cfg
INPUT /opt/texlive/2021/texmf-dist/tex/latex/microtype/mt-cmr.cfg
INPUT /opt/texlive/2021/texmf-dist/tex/latex/microtype/mt-cmr.cfg
INPUT /opt/texlive/2021/texmf-dist/fonts/tfm/public/cm/cmr17.tfm
INPUT /opt/texlive/2021/texmf-dist/fonts/tfm/public/cm/cmr12.tfm
INPUT /opt/texlive/2021/texmf-dist/fonts/tfm/public/cm/cmmi12.tfm
INPUT /opt/texlive/2021/texmf-dist/fonts/tfm/public/cm/cmsy10.tfm
INPUT /opt/texlive/2021/texmf-dist/fonts/tfm/public/cm/cmex10.tfm
INPUT /opt/texlive/2021/texmf-dist/fonts/tfm/public/amsfonts/cmextra/cmex7.tfm
INPUT /opt/texlive/2021/texmf-dist/tex/latex/amsfonts/umsa.fd
INPUT /opt/texlive/2021/texmf-dist/tex/latex/amsfonts/umsa.fd
INPUT /opt/texlive/2021/texmf-dist/tex/latex/amsfonts/umsa.fd
INPUT /opt/texlive/2021/texmf-dist/tex/latex/amsfonts/umsa.fd
INPUT /opt/texlive/2021/texmf-dist/fonts/tfm/public/amsfonts/symbols/msam10.tfm
INPUT /opt/texlive/2021/texmf-dist/tex/latex/microtype/mt-msa.cfg
INPUT /opt/texlive/2021/texmf-dist/tex/latex/microtype/mt-msa.cfg
INPUT /opt/texlive/2021/texmf-dist/tex/latex/microtype/mt-msa.cfg
INPUT /opt/texlive/2021/texmf-dist/tex/latex/microtype/mt-msa.cfg
INPUT /opt/texlive/2021/texmf-dist/fonts/tfm/public/amsfonts/symbols/msam10.tfm
INPUT /opt/texlive/2021/texmf-dist/fonts/tfm/public/amsfonts/symbols/msam7.tfm
INPUT /opt/texlive/2021/texmf-dist/tex/latex/amsfonts/umsb.fd
INPUT /opt/texlive/2021/texmf-dist/tex/latex/amsfonts/umsb.fd
INPUT /opt/texlive/2021/texmf-dist/tex/latex/amsfonts/umsb.fd
INPUT /opt/texlive/2021/texmf-dist/tex/latex/amsfonts/umsb.fd
INPUT /opt/texlive/2021/texmf-dist/fonts/tfm/public/amsfonts/symbols/msbm10.tfm
INPUT /opt/texlive/2021/texmf-dist/tex/latex/microtype/mt-msb.cfg
INPUT /opt/texlive/2021/texmf-dist/tex/latex/microtype/mt-msb.cfg
INPUT /opt/texlive/2021/texmf-dist/tex/latex/microtype/mt-msb.cfg
INPUT /opt/texlive/2021/texmf-dist/tex/latex/microtype/mt-msb.cfg
INPUT /opt/texlive/2021/texmf-dist/fonts/tfm/public/amsfonts/symbols/msbm10.tfm
INPUT /opt/texlive/2021/texmf-dist/fonts/tfm/public/amsfonts/symbols/msbm7.tfm
INPUT /opt/texlive/2021/texmf-dist/fonts/tfm/jknappen/ec/tcrm1000.tfm
INPUT /opt/texlive/2021/texmf-dist/fonts/tfm/public/cm/cmr12.tfm
INPUT /opt/texlive/2021/texmf-dist/fonts/tfm/public/cm/cmr8.tfm
INPUT /opt/texlive/2021/texmf-dist/fonts/tfm/public/cm/cmr6.tfm
INPUT /opt/texlive/2021/texmf-dist/fonts/tfm/public/cm/cmmi12.tfm
INPUT /opt/texlive/2021/texmf-dist/fonts/tfm/public/cm/cmmi8.tfm
INPUT /opt/texlive/2021/texmf-dist/fonts/tfm/public/cm/cmmi6.tfm
INPUT /opt/texlive/2021/texmf-dist/fonts/tfm/public/cm/cmsy10.tfm
INPUT /opt/texlive/2021/texmf-dist/fonts/tfm/public/cm/cmsy8.tfm
INPUT /opt/texlive/2021/texmf-dist/fonts/tfm/public/cm/cmsy6.tfm
INPUT /opt/texlive/2021/texmf-dist/fonts/tfm/public/cm/cmex10.tfm
INPUT /opt/texlive/2021/texmf-dist/fonts/tfm/public/amsfonts/cmextra/cmex8.tfm
INPUT /opt/texlive/2021/texmf-dist/fonts/tfm/public/amsfonts/cmextra/cmex7.tfm
INPUT /opt/texlive/2021/texmf-dist/fonts/tfm/public/amsfonts/symbols/msam10.tfm
INPUT /opt/texlive/2021/texmf-dist/fonts/tfm/public/amsfonts/symbols/msam10.tfm
INPUT /opt/texlive/2021/texmf-dist/fonts/tfm/public/amsfonts/symbols/msam7.tfm
INPUT /opt/texlive/2021/texmf-dist/fonts/tfm/public/amsfonts/symbols/msbm10.tfm
INPUT /opt/texlive/2021/texmf-dist/fonts/tfm/public/amsfonts/symbols/msbm10.tfm
INPUT /opt/texlive/2021/texmf-dist/fonts/tfm/public/amsfonts/symbols/msbm7.tfm
INPUT /opt/texlive/2021/texmf-dist/fonts/tfm/public/amsfonts/cmextra/cmex7.tfm
INPUT /opt/texlive/2021/texmf-dist/fonts/tfm/public/amsfonts/symbols/msam5.tfm
INPUT /opt/texlive/2021/texmf-dist/fonts/tfm/public/amsfonts/symbols/msbm5.tfm
INPUT /opt/texlive/2021/texmf-dist/fonts/tfm/jknappen/ec/tcrm0600.tfm
INPUT /opt/texlive/2021/texmf-dist/fonts/tfm/public/cm/cmr9.tfm
INPUT /opt/texlive/2021/texmf-dist/fonts/tfm/public/cm/cmbx9.tfm
INPUT ./report/abstract.tex
INPUT ./report/abstract.tex
INPUT ./report/abstract.tex
INPUT report/abstract.tex
INPUT ./report/abstract.tex
INPUT ./report/abstract.tex
INPUT report/abstract.tex
INPUT /opt/texlive/2021/texmf-dist/fonts/tfm/public/cm/cmmi9.tfm
INPUT /opt/texlive/2021/texmf-dist/fonts/tfm/public/cm/cmsy9.tfm
INPUT /opt/texlive/2021/texmf-dist/fonts/tfm/public/amsfonts/cmextra/cmex9.tfm
INPUT /opt/texlive/2021/texmf-dist/fonts/tfm/public/amsfonts/symbols/msam10.tfm
INPUT /opt/texlive/2021/texmf-dist/fonts/tfm/public/amsfonts/symbols/msbm10.tfm
INPUT /opt/texlive/2021/texmf-dist/fonts/tfm/public/cm/cmbx12.tfm
INPUT ./report/introduction.tex
INPUT ./report/introduction.tex
INPUT ./report/introduction.tex
INPUT report/introduction.tex
INPUT ./report/introduction.tex
INPUT ./report/introduction.tex
INPUT report/introduction.tex
INPUT /opt/texlive/2021/texmf-dist/fonts/tfm/public/cm/cmbx12.tfm
INPUT /opt/texlive/2021/texmf-var/fonts/map/pdftex/updmap/pdftex.map
INPUT /opt/texlive/2021/texmf-dist/fonts/tfm/public/cm/cmbx10.tfm
INPUT /opt/texlive/2021/texmf-dist/fonts/tfm/public/eurosym/feymr10.tfm
INPUT ./images//aidan_1.png
INPUT ./images//aidan_1.png
INPUT images//aidan_1.png
INPUT ./images//aidan_1.png
INPUT ./images//aidan_1.png
INPUT ./images//aidan_2.png
INPUT ./images//aidan_2.png
INPUT images//aidan_2.png
INPUT ./images//aidan_2.png
INPUT ./images//aidan_2.png
INPUT ./report/theory.tex
INPUT ./report/theory.tex
INPUT ./report/theory.tex
INPUT report/theory.tex
INPUT ./report/theory.tex
INPUT ./report/theory.tex
INPUT report/theory.tex
INPUT ./images//sasi_27.png
INPUT ./images//sasi_27.png
INPUT images//sasi_27.png
INPUT ./images//sasi_27.png
INPUT ./images//sasi_27.png
INPUT ./images//sasi_28.png
INPUT ./images//sasi_28.png
INPUT images//sasi_28.png
INPUT ./images//sasi_28.png
INPUT ./images//sasi_28.png
INPUT ./images//sasi_29.png
INPUT ./images//sasi_29.png
INPUT images//sasi_29.png
INPUT ./images//sasi_29.png
INPUT ./images//sasi_29.png
INPUT ./images//sasi_30.png
INPUT ./images//sasi_30.png
INPUT images//sasi_30.png
INPUT ./images//sasi_30.png
INPUT ./images//sasi_30.png
INPUT /opt/texlive/2021/texmf-dist/fonts/tfm/public/cm/cmti10.tfm
INPUT ./images//bdm_inf_mort.png
INPUT ./images//bdm_inf_mort.png
INPUT images//bdm_inf_mort.png
INPUT ./images//bdm_inf_mort.png
INPUT ./images//bdm_inf_mort.png
INPUT /opt/texlive/2021/texmf-dist/fonts/tfm/public/cm/cmtt10.tfm
INPUT ./report/method.tex
INPUT ./report/method.tex
INPUT ./report/method.tex
INPUT report/method.tex
INPUT ./report/method.tex
INPUT ./report/method.tex
INPUT report/method.tex
INPUT ./images//hima_1.png
INPUT ./images//hima_1.png
INPUT images//hima_1.png
INPUT ./images//hima_1.png
INPUT ./images//hima_1.png
INPUT ./images//hima_2.png
INPUT ./images//hima_2.png
INPUT images//hima_2.png
INPUT ./images//hima_2.png
INPUT ./images//hima_2.png
INPUT ./images//hima_3.png
INPUT ./images//hima_3.png
INPUT images//hima_3.png
INPUT ./images//hima_3.png
INPUT ./images//hima_3.png
INPUT ./images//hima_4.png
INPUT ./images//hima_4.png
INPUT images//hima_4.png
INPUT ./images//hima_4.png
INPUT ./images//hima_4.png
INPUT ./images//hima_5.png
INPUT ./images//hima_5.png
INPUT images//hima_5.png
INPUT ./images//hima_5.png
INPUT ./images//hima_5.png
INPUT ./images//hima_6.png
INPUT ./images//hima_6.png
INPUT images//hima_6.png
INPUT ./images//hima_6.png
INPUT ./images//hima_6.png
INPUT ./images//hima_7.png
INPUT ./images//hima_7.png
INPUT images//hima_7.png
INPUT ./images//hima_7.png
INPUT ./images//hima_7.png
INPUT ./images//hima_8.png
INPUT ./images//hima_8.png
INPUT images//hima_8.png
INPUT ./images//hima_8.png
INPUT ./images//hima_8.png
INPUT ./images//hima_9.png
INPUT ./images//hima_9.png
INPUT images//hima_9.png
INPUT ./images//hima_9.png
INPUT ./images//hima_9.png
INPUT ./images//hima_10.png
INPUT ./images//hima_10.png
INPUT images//hima_10.png
INPUT ./images//hima_10.png
INPUT ./images//hima_10.png
INPUT ./images//hima_11.png
INPUT ./images//hima_11.png
INPUT images//hima_11.png
INPUT ./images//hima_11.png
INPUT ./images//hima_11.png
INPUT ./images//hima_12.png
INPUT ./images//hima_12.png
INPUT images//hima_12.png
INPUT ./images//hima_12.png
INPUT ./images//hima_12.png
INPUT ./images//hima_13.png
INPUT ./images//hima_13.png
INPUT images//hima_13.png
INPUT ./images//hima_13.png
INPUT ./images//hima_13.png
INPUT ./images//hima_14.png
INPUT ./images//hima_14.png
INPUT images//hima_14.png
INPUT ./images//hima_14.png
INPUT ./images//hima_14.png
INPUT ./images//hima_15.png
INPUT ./images//hima_15.png
INPUT images//hima_15.png
INPUT ./images//hima_15.png
INPUT ./images//hima_15.png
INPUT ./images//hima_16.png
INPUT ./images//hima_16.png
INPUT images//hima_16.png
INPUT ./images//hima_16.png
INPUT ./images//hima_16.png
INPUT ./images//hima_17.png
INPUT ./images//hima_17.png
INPUT images//hima_17.png
INPUT ./images//hima_17.png
INPUT ./images//hima_17.png
INPUT ./images//sasi_1.png
INPUT ./images//sasi_1.png
INPUT images//sasi_1.png
INPUT ./images//sasi_1.png
INPUT ./images//sasi_1.png
INPUT ./images//sasi_2.png
INPUT ./images//sasi_2.png
INPUT images//sasi_2.png
INPUT ./images//sasi_2.png
INPUT ./images//sasi_2.png
INPUT ./images//sasi_3.png
INPUT ./images//sasi_3.png
INPUT images//sasi_3.png
INPUT ./images//sasi_3.png
INPUT ./images//sasi_3.png
INPUT ./images//sasi_4.png
INPUT ./images//sasi_4.png
INPUT images//sasi_4.png
INPUT ./images//sasi_4.png
INPUT ./images//sasi_4.png
INPUT ./images//sasi_5.png
INPUT ./images//sasi_5.png
INPUT images//sasi_5.png
INPUT ./images//sasi_5.png
INPUT ./images//sasi_5.png
INPUT ./images//sasi_6.png
INPUT ./images//sasi_6.png
INPUT images//sasi_6.png
INPUT ./images//sasi_6.png
INPUT ./images//sasi_6.png
INPUT ./images//sasi_7.png
INPUT ./images//sasi_7.png
INPUT images//sasi_7.png
INPUT ./images//sasi_7.png
INPUT ./images//sasi_7.png
INPUT ./images//sasi_8.png
INPUT ./images//sasi_8.png
INPUT images//sasi_8.png
INPUT ./images//sasi_8.png
INPUT ./images//sasi_8.png
INPUT ./images//sasi_9.png
INPUT ./images//sasi_9.png
INPUT images//sasi_9.png
INPUT ./images//sasi_9.png
INPUT ./images//sasi_9.png
INPUT ./images//sasi_10.png
INPUT ./images//sasi_10.png
INPUT images//sasi_10.png
INPUT ./images//sasi_10.png
INPUT ./images//sasi_10.png
INPUT ./images//sasi_11.png
INPUT ./images//sasi_11.png
INPUT images//sasi_11.png
INPUT ./images//sasi_11.png
INPUT ./images//sasi_11.png
INPUT ./images//sasi_12.png
INPUT ./images//sasi_12.png
INPUT images//sasi_12.png
INPUT ./images//sasi_12.png
INPUT ./images//sasi_12.png
INPUT ./images//sasi_13.png
INPUT ./images//sasi_13.png
INPUT images//sasi_13.png
INPUT ./images//sasi_13.png
INPUT ./images//sasi_13.png
INPUT ./images//sasi_14.png
INPUT ./images//sasi_14.png
INPUT images//sasi_14.png
INPUT ./images//sasi_14.png
INPUT ./images//sasi_14.png
INPUT ./images//sasi_15.png
INPUT ./images//sasi_15.png
INPUT images//sasi_15.png
INPUT ./images//sasi_15.png
INPUT ./images//sasi_15.png
INPUT ./images//sasi_16.png
INPUT ./images//sasi_16.png
INPUT images//sasi_16.png
INPUT ./images//sasi_16.png
INPUT ./images//sasi_16.png
INPUT ./images//sasi_17.png
INPUT ./images//sasi_17.png
INPUT images//sasi_17.png
INPUT ./images//sasi_17.png
INPUT ./images//sasi_17.png
INPUT ./images//sasi_18.png
INPUT ./images//sasi_18.png
INPUT images//sasi_18.png
INPUT ./images//sasi_18.png
INPUT ./images//sasi_18.png
INPUT ./images//sasi_19.png
INPUT ./images//sasi_19.png
INPUT images//sasi_19.png
INPUT ./images//sasi_19.png
INPUT ./images//sasi_19.png
INPUT ./images//sasi_20.png
INPUT ./images//sasi_20.png
INPUT images//sasi_20.png
INPUT ./images//sasi_20.png
INPUT ./images//sasi_20.png
INPUT ./images//sasi_21.png
INPUT ./images//sasi_21.png
INPUT images//sasi_21.png
INPUT ./images//sasi_21.png
INPUT ./images//sasi_21.png
INPUT ./images//sasi_22.png
INPUT ./images//sasi_22.png
INPUT images//sasi_22.png
INPUT ./images//sasi_22.png
INPUT ./images//sasi_22.png
INPUT ./images//sasi_23.png
INPUT ./images//sasi_23.png
INPUT images//sasi_23.png
INPUT ./images//sasi_23.png
INPUT ./images//sasi_23.png
INPUT ./images//sasi_24.png
INPUT ./images//sasi_24.png
INPUT images//sasi_24.png
INPUT ./images//sasi_24.png
INPUT ./images//sasi_24.png
INPUT ./images//sasi_25.png
INPUT ./images//sasi_25.png
INPUT images//sasi_25.png
INPUT ./images//sasi_25.png
INPUT ./images//sasi_25.png
INPUT ./images//sasi_26.png
INPUT ./images//sasi_26.png
INPUT images//sasi_26.png
INPUT ./images//sasi_26.png
INPUT ./images//sasi_26.png
INPUT ./images//sasi_31.png
INPUT ./images//sasi_31.png
INPUT images//sasi_31.png
INPUT ./images//sasi_31.png
INPUT ./images//sasi_31.png
INPUT ./images//sasi_32.png
INPUT ./images//sasi_32.png
INPUT images//sasi_32.png
INPUT ./images//sasi_32.png
INPUT ./images//sasi_32.png
INPUT ./images//sasi_33.png
INPUT ./images//sasi_33.png
INPUT images//sasi_33.png
INPUT ./images//sasi_33.png
INPUT ./images//sasi_33.png
INPUT ./images//sasi_34.png
INPUT ./images//sasi_34.png
INPUT images//sasi_34.png
INPUT ./images//sasi_34.png
INPUT ./images//sasi_34.png
INPUT ./images//sasi_35.png
INPUT ./images//sasi_35.png
INPUT images//sasi_35.png
INPUT ./images//sasi_35.png
INPUT ./images//sasi_35.png
INPUT /opt/texlive/2021/texmf-dist/tex/latex/listings/lstlang1.sty
INPUT /opt/texlive/2021/texmf-dist/tex/latex/listings/lstlang1.sty
INPUT /opt/texlive/2021/texmf-dist/tex/latex/listings/lstlang1.sty
INPUT /opt/texlive/2021/texmf-dist/tex/latex/listings/lstlang1.sty
INPUT ./images//bdm_tot_births.png
INPUT ./images//bdm_tot_births.png
INPUT images//bdm_tot_births.png
INPUT ./images//bdm_tot_births.png
INPUT ./images//bdm_tot_births.png
INPUT ./images//bdm_rate_births.png
INPUT ./images//bdm_rate_births.png
INPUT images//bdm_rate_births.png
INPUT ./images//bdm_rate_births.png
INPUT ./images//bdm_rate_births.png
INPUT ./images//bdm_quarterly_tot_births.png
INPUT ./images//bdm_quarterly_tot_births.png
INPUT images//bdm_quarterly_tot_births.png
INPUT ./images//bdm_quarterly_tot_births.png
INPUT ./images//bdm_quarterly_tot_births.png
INPUT ./images//mat_ben_nums.png
INPUT ./images//mat_ben_nums.png
INPUT images//mat_ben_nums.png
INPUT ./images//mat_ben_nums.png
INPUT ./images//mat_ben_nums.png
INPUT ./images//mat_ben_perc.png
INPUT ./images//mat_ben_perc.png
INPUT images//mat_ben_perc.png
INPUT ./images//mat_ben_perc.png
INPUT ./images//mat_ben_perc.png
INPUT ./images//mat_ben_nums.png
INPUT ./images//mat_ben_nums.png
INPUT images//mat_ben_nums.png
INPUT ./images//mat_ben_nums.png
INPUT ./images//pat_ben_perc.png
INPUT ./images//pat_ben_perc.png
INPUT images//pat_ben_perc.png
INPUT ./images//pat_ben_perc.png
INPUT ./images//pat_ben_perc.png
INPUT ./report/results.tex
INPUT ./report/results.tex
INPUT ./report/results.tex
INPUT report/results.tex
INPUT ./report/results.tex
INPUT ./report/results.tex
INPUT report/results.tex
INPUT ./images//sasi_36.png
INPUT ./images//sasi_36.png
INPUT images//sasi_36.png
INPUT ./images//sasi_36.png
INPUT ./images//sasi_36.png
INPUT ./images//sasi_37.png
INPUT ./images//sasi_37.png
INPUT images//sasi_37.png
INPUT ./images//sasi_37.png
INPUT ./images//sasi_37.png
INPUT ./images//sasi_38.png
INPUT ./images//sasi_38.png
INPUT images//sasi_38.png
INPUT ./images//sasi_38.png
INPUT ./images//sasi_38.png
INPUT ./images//sasi_39.png
INPUT ./images//sasi_39.png
INPUT images//sasi_39.png
INPUT ./images//sasi_39.png
INPUT ./images//sasi_39.png
INPUT ./images//sasi_40.png
INPUT ./images//sasi_40.png
INPUT images//sasi_40.png
INPUT ./images//sasi_40.png
INPUT ./images//sasi_40.png
INPUT ./images//sasi_41.png
INPUT ./images//sasi_41.png
INPUT images//sasi_41.png
INPUT ./images//sasi_41.png
INPUT ./images//sasi_41.png
INPUT ./images//sasi_42.png
INPUT ./images//sasi_42.png
INPUT images//sasi_42.png
INPUT ./images//sasi_42.png
INPUT ./images//sasi_42.png
INPUT ./images//sasi_43.png
INPUT ./images//sasi_43.png
INPUT images//sasi_43.png
INPUT ./images//sasi_43.png
INPUT ./images//sasi_43.png
INPUT ./images//sasi_44.png
INPUT ./images//sasi_44.png
INPUT images//sasi_44.png
INPUT ./images//sasi_44.png
INPUT ./images//sasi_44.png
INPUT ./images//sasi_45.png
INPUT ./images//sasi_45.png
INPUT images//sasi_45.png
INPUT ./images//sasi_45.png
INPUT ./images//sasi_45.png
INPUT ./images//linear_deaths_child.png
INPUT ./images//linear_deaths_child.png
INPUT images//linear_deaths_child.png
INPUT ./images//linear_deaths_child.png
INPUT ./images//linear_deaths_child.png
INPUT ./images//linear_predictions2040_deaths_child.png
INPUT ./images//linear_predictions2040_deaths_child.png
INPUT images//linear_predictions2040_deaths_child.png
INPUT ./images//linear_predictions2040_deaths_child.png
INPUT ./images//linear_predictions2040_deaths_child.png
INPUT ./images//polynom_hospital_discharges_child.png
INPUT ./images//polynom_hospital_discharges_child.png
INPUT images//polynom_hospital_discharges_child.png
INPUT ./images//polynom_hospital_discharges_child.png
INPUT ./images//polynom_hospital_discharges_child.png
INPUT ./images//polynom_predictions2040_ hospital_discharges_child.png
INPUT ./images//polynom_predictions2040_ hospital_discharges_child.png
INPUT images//polynom_predictions2040_ hospital_discharges_child.png
INPUT ./images//polynom_predictions2040_ hospital_discharges_child.png
INPUT ./images//polynom_predictions2040_ hospital_discharges_child.png
INPUT ./images//linear_predictions2040_hospital_discharges_child.png
INPUT ./images//linear_predictions2040_hospital_discharges_child.png
INPUT images//linear_predictions2040_hospital_discharges_child.png
INPUT ./images//linear_predictions2040_hospital_discharges_child.png
INPUT ./images//linear_predictions2040_hospital_discharges_child.png
INPUT ./images//Dub_cork_hospital_dischargess_child.png
INPUT ./images//Dub_cork_hospital_dischargess_child.png
INPUT images//Dub_cork_hospital_dischargess_child.png
INPUT ./images//Dub_cork_hospital_dischargess_child.png
INPUT ./images//Dub_cork_hospital_dischargess_child.png
INPUT ./images//ARIMA_model_ALL_Births.png
INPUT ./images//ARIMA_model_ALL_Births.png
INPUT images//ARIMA_model_ALL_Births.png
INPUT ./images//ARIMA_model_ALL_Births.png
INPUT ./images//ARIMA_model_ALL_Births.png
INPUT ./images//hima_18.png
INPUT ./images//hima_18.png
INPUT images//hima_18.png
INPUT ./images//hima_18.png
INPUT ./images//hima_18.png
INPUT ./images//hima_19.png
INPUT ./images//hima_19.png
INPUT images//hima_19.png
INPUT ./images//hima_19.png
INPUT ./images//hima_19.png
INPUT ./images//hima_20.png
INPUT ./images//hima_20.png
INPUT images//hima_20.png
INPUT ./images//hima_20.png
INPUT ./images//hima_20.png
INPUT ./images//hima_21.png
INPUT ./images//hima_21.png
INPUT images//hima_21.png
INPUT ./images//hima_21.png
INPUT ./images//hima_21.png
INPUT ./images//multi_hist.png
INPUT ./images//multi_hist.png
INPUT images//multi_hist.png
INPUT ./images//multi_hist.png
INPUT ./images//multi_hist.png
INPUT ./images//tot_births_box.png
INPUT ./images//tot_births_box.png
INPUT images//tot_births_box.png
INPUT ./images//tot_births_box.png
INPUT ./images//tot_births_box.png
INPUT ./images//birth_tot_hist_1.png
INPUT ./images//birth_tot_hist_1.png
INPUT images//birth_tot_hist_1.png
INPUT ./images//birth_tot_hist_1.png
INPUT ./images//birth_tot_hist_1.png
INPUT ./images//birth_tot_hist_2.png
INPUT ./images//birth_tot_hist_2.png
INPUT images//birth_tot_hist_2.png
INPUT ./images//birth_tot_hist_2.png
INPUT ./images//birth_tot_hist_2.png
INPUT ./images//bdm_polyfit_7.png
INPUT ./images//bdm_polyfit_7.png
INPUT images//bdm_polyfit_7.png
INPUT ./images//bdm_polyfit_7.png
INPUT ./images//bdm_polyfit_7.png
INPUT ./images/mat_ben_ML.png
INPUT ./images/mat_ben_ML.png
INPUT images/mat_ben_ML.png
INPUT ./images/mat_ben_ML.png
INPUT ./images/mat_ben_ML.png
INPUT ./images//mat_ben_fit.png
INPUT ./images//mat_ben_fit.png
INPUT images//mat_ben_fit.png
INPUT ./images//mat_ben_fit.png
INPUT ./images//mat_ben_fit.png
INPUT ./images//pat_ben_fit.png
INPUT ./images//pat_ben_fit.png
INPUT images//pat_ben_fit.png
INPUT ./images//pat_ben_fit.png
INPUT ./images//pat_ben_fit.png
INPUT ./report/discussion.tex
INPUT ./report/discussion.tex
INPUT ./report/discussion.tex
INPUT report/discussion.tex
INPUT ./report/discussion.tex
INPUT ./report/discussion.tex
INPUT report/discussion.tex
INPUT ./report/conclusion.tex
INPUT ./report/conclusion.tex
INPUT ./report/conclusion.tex
INPUT report/conclusion.tex
INPUT ./report/conclusion.tex
INPUT ./report/conclusion.tex
INPUT report/conclusion.tex
INPUT ./report.bbl
INPUT report.bbl
INPUT ./report.bbl
INPUT report.bbl
INPUT /opt/texlive/2021/texmf-dist/fonts/tfm/public/cm/cmti8.tfm
INPUT /opt/texlive/2021/texmf-dist/fonts/tfm/public/cm/cmbx8.tfm
INPUT /opt/texlive/2021/texmf-dist/fonts/tfm/public/cm/cmitt10.tfm
INPUT report.aux
INPUT ./report.out
INPUT ./report.out
INPUT /home/damien/.texlive2021/texmf-var/fonts/pk/ljfour/jknappen/ec/tcrm0600.600pk
INPUT /home/damien/.texlive2021/texmf-var/fonts/pk/ljfour/jknappen/ec/tcrm1000.600pk
INPUT /opt/texlive/2021/texmf-dist/fonts/type1/public/amsfonts/cm/cmbx10.pfb
INPUT /opt/texlive/2021/texmf-dist/fonts/type1/public/amsfonts/cm/cmbx12.pfb
INPUT /opt/texlive/2021/texmf-dist/fonts/type1/public/amsfonts/cm/cmbx8.pfb
INPUT /opt/texlive/2021/texmf-dist/fonts/type1/public/amsfonts/cm/cmbx9.pfb
INPUT /opt/texlive/2021/texmf-dist/fonts/type1/public/amsfonts/cm/cmitt10.pfb
INPUT /opt/texlive/2021/texmf-dist/fonts/type1/public/amsfonts/cm/cmmi10.pfb
INPUT /opt/texlive/2021/texmf-dist/fonts/type1/public/amsfonts/cm/cmmi7.pfb
INPUT /opt/texlive/2021/texmf-dist/fonts/type1/public/amsfonts/cm/cmr10.pfb
INPUT /opt/texlive/2021/texmf-dist/fonts/type1/public/amsfonts/cm/cmr12.pfb
INPUT /opt/texlive/2021/texmf-dist/fonts/type1/public/amsfonts/cm/cmr17.pfb
INPUT /opt/texlive/2021/texmf-dist/fonts/type1/public/amsfonts/cm/cmr7.pfb
INPUT /opt/texlive/2021/texmf-dist/fonts/type1/public/amsfonts/cm/cmr8.pfb
INPUT /opt/texlive/2021/texmf-dist/fonts/type1/public/amsfonts/cm/cmr9.pfb
INPUT /opt/texlive/2021/texmf-dist/fonts/type1/public/amsfonts/cm/cmsy10.pfb
INPUT /opt/texlive/2021/texmf-dist/fonts/type1/public/amsfonts/cm/cmsy9.pfb
INPUT /opt/texlive/2021/texmf-dist/fonts/type1/public/amsfonts/cm/cmti10.pfb
INPUT /opt/texlive/2021/texmf-dist/fonts/type1/public/amsfonts/cm/cmti8.pfb
INPUT /opt/texlive/2021/texmf-dist/fonts/type1/public/amsfonts/cm/cmtt10.pfb
INPUT /opt/texlive/2021/texmf-dist/fonts/type1/public/eurosym/feymr10.pfb
