inf_mort_rate,birth_tot,birth_rate,year
117.5,60730,85.7,1960
122.7,59826,84.0,1961
116.9,61611,87.5,1962
106.9,62966,89.4,1963
107.4,64008,90.2,1964
101.2,63443,87.5,1965
99.6,62143,86.2,1966
98.0,61027,84.4,1967
83.3,60785,83.7,1968
82.5,62812,86.3,1969
76.9,64092,87.6,1970
72.0,67752,91.3,1971
70.8,67643,89.39999999999999,1972
71.1,67992,88.5,1973
68.3,68784,88.0,1974
73.6,67508,85.0,1975
58.6,68167,84.4,1976
62.6,68436,83.7,1977
59.5,69844,84.3,1978
49.7,72352,86.0,1979
45.0,74388,87.4,1980
42.4,72355,84.1,1981
42.2,70933,81.5,1982
39.2,66815,76.2,1983
40.5,64237,72.8,1984
35.6,62250,70.3,1985
34.7,61425,69.3,1986
29.2,58864,66.5,1987
36.9,54300,61.4,1988
30.3,51659,58.8,1989
32.7,52954,60.5,1990
32.8,52690,59.9,1991
26.6,51584,58.2,1992
23.900000000000002,49456,55.4,1993
23.7,47929,53.5,1994
25.4,48530,54.1,1995
22.0,50390,55.7,1996
24.8,52311,57.2,1997
24.7,53551,58.0,1998
22.0,53354,57.2,1999
23.7,54239,57.4,2000
23.3,57882,60.5,2001
20.3,60521,62.1,2002
20.1,61517,62.4,2003
19.5,61684,61.3,2004
16.0,61042,59.5,2005
14.799999999999999,64237,61.1,2006
12.5,70620,65.2,2007
15.3,75724,67.9,2008
12.7,74928,66.2,2009
15.1,74976,65.9,2010
13.8,74650,65.3,2011
13.900000000000002,72225,63.099999999999994,2012
13.2,68930,60.0,2013
14.7,67432,58.5,2014
12.4,65909,57.0,2015
13.1,63897,54.8,2016
11.2,62053,52.1,2017
12.2,61016,50.4,2018
12.7,59796,48.8,2019
11.0,55959,45.1,2020
2.7,13895,11.2,2021
