﻿"Statistic","Year","Type of Income","UNIT","VALUE"
"Nominal Household Income","2009","Social transfers:  family/children related allowances","Euro","67.91"
"Nominal Household Income","2010","Social transfers:  family/children related allowances","Euro","61.48"
"Nominal Household Income","2011","Social transfers:  family/children related allowances","Euro","57"
"Nominal Household Income","2012","Social transfers:  family/children related allowances","Euro","52.98"
"Nominal Household Income","2013","Social transfers:  family/children related allowances","Euro","52.82"
"Nominal Household Income","2014","Social transfers:  family/children related allowances","Euro","50.99"
"Nominal Household Income","2015","Social transfers:  family/children related allowances","Euro","52.4"
"Nominal Household Income","2016","Social transfers:  family/children related allowances","Euro","50.84"
"Nominal Household Income","2017","Social transfers:  family/children related allowances","Euro","48.88"
"Nominal Household Income","2018","Social transfers:  family/children related allowances","Euro","51.55"
"Nominal Household Income","2019","Social transfers:  family/children related allowances","Euro","52.62"
"Nominal Equivalised Income","2009","Social transfers:  family/children related allowances","Euro","39.74"
"Nominal Equivalised Income","2010","Social transfers:  family/children related allowances","Euro","36.23"
"Nominal Equivalised Income","2011","Social transfers:  family/children related allowances","Euro","33.49"
"Nominal Equivalised Income","2012","Social transfers:  family/children related allowances","Euro","30.97"
"Nominal Equivalised Income","2013","Social transfers:  family/children related allowances","Euro","30.63"
"Nominal Equivalised Income","2014","Social transfers:  family/children related allowances","Euro","29.44"
"Nominal Equivalised Income","2015","Social transfers:  family/children related allowances","Euro","30.32"
"Nominal Equivalised Income","2016","Social transfers:  family/children related allowances","Euro","29.54"
"Nominal Equivalised Income","2017","Social transfers:  family/children related allowances","Euro","29.12"
"Nominal Equivalised Income","2018","Social transfers:  family/children related allowances","Euro","31.33"
"Nominal Equivalised Income","2019","Social transfers:  family/children related allowances","Euro","31.85"
"Real Household Income","2009","Social transfers:  family/children related allowances","Euro","67.91"
"Real Household Income","2010","Social transfers:  family/children related allowances","Euro","63.74"
"Real Household Income","2011","Social transfers:  family/children related allowances","Euro","58.28"
"Real Household Income","2012","Social transfers:  family/children related allowances","Euro","52.98"
"Real Household Income","2013","Social transfers:  family/children related allowances","Euro","52.29"
"Real Household Income","2014","Social transfers:  family/children related allowances","Euro","50.34"
"Real Household Income","2015","Social transfers:  family/children related allowances","Euro","51.8"
"Real Household Income","2016","Social transfers:  family/children related allowances","Euro","50.3"
"Real Household Income","2017","Social transfers:  family/children related allowances","Euro","48.27"
"Real Household Income","2018","Social transfers:  family/children related allowances","Euro","50.73"
"Real Household Income","2019","Social transfers:  family/children related allowances","Euro","51.38"
"Real Equivalised Income","2009","Social transfers:  family/children related allowances","Euro","39.74"
"Real Equivalised Income","2010","Social transfers:  family/children related allowances","Euro","37.56"
"Real Equivalised Income","2011","Social transfers:  family/children related allowances","Euro","34.24"
"Real Equivalised Income","2012","Social transfers:  family/children related allowances","Euro","30.97"
"Real Equivalised Income","2013","Social transfers:  family/children related allowances","Euro","30.32"
"Real Equivalised Income","2014","Social transfers:  family/children related allowances","Euro","29.06"
"Real Equivalised Income","2015","Social transfers:  family/children related allowances","Euro","29.97"
"Real Equivalised Income","2016","Social transfers:  family/children related allowances","Euro","29.23"
"Real Equivalised Income","2017","Social transfers:  family/children related allowances","Euro","28.76"
"Real Equivalised Income","2018","Social transfers:  family/children related allowances","Euro","30.83"
"Real Equivalised Income","2019","Social transfers:  family/children related allowances","Euro","31.1"
